<?xml version="1.0" encoding="utf-8"?>
<!-- Generator: Adobe Illustrator 19.1.0, SVG Export Plug-In . SVG Version: 6.00 Build 0)  -->
<svg version="1.1" id="Layer_1" xmlns="http://www.w3.org/2000/svg" xmlns:xlink="http://www.w3.org/1999/xlink" x="0px" y="0px"
	 viewBox="0 0 38.2 44" style="enable-background:new 0 0 38.2 44;" xml:space="preserve">
<style type="text/css">
	.st0{fill:#3EB6FF;}
	.st1{fill:#0059B1;}
	.st2{fill:#A16BB8;}
	.st3{fill:#724A84;}
	.st4{fill:#FF5647;}
	.st5{fill:#E6B7FF;}
	.st6{fill:#FFFFFF;}
	.st7{fill:#D7F4FF;}
	.st8{fill:#53AEE6;}
	.st9{fill:#E9E9E9;}
	.st10{fill:#0B66A2;}
	.st11{fill:#E54B42;}
	.st12{fill:#A4C600;}
	.st13{fill:#8EAC00;}
	.st14{fill:#7F9100;}
	.st15{fill:#42B6D7;}
	.st16{fill:#F7FAFB;}
	.st17{fill:#318EA8;}
	.st18{fill:#6AD58B;}
	.st19{fill:#57AA6D;}
	.st20{fill:#EFEFEF;}
	.st21{fill:#D8D8D8;}
	.st22{fill:#E0E0E0;}
	.st23{fill:#36A1DE;}
	.st24{fill:#213F5E;}
	.st25{fill:#65C099;}
	.st26{fill:#467F63;}
	.st27{fill:none;stroke:#213F5E;stroke-width:2;}
	.st28{fill:none;stroke:#36A1DE;stroke-width:2;stroke-linecap:round;}
</style>
<path class="st0" d="M-18.3-500.9c0,11.7-9.5,21-21,21c-11.5,0-21-9.3-21-21c0-11.7,9.3-21,21-21C-27.6-521.9-18.3-512.6-18.3-500.9
	"/>
<g>
	<path class="st1" d="M-39.5-491.3c0-0.4-0.2-0.6-0.6-0.8c-1.3-0.4-2.5-0.4-3.6-1.5c-0.2-0.4-0.2-0.8-0.4-1.3
		c-0.4-0.4-1.5-0.6-2.1-0.8H-49h-1.5c-0.6-0.2-1.1-1-1.5-1.7c0-0.2,0-0.6-0.4-0.6c-0.4-0.2-0.8,0.2-1.3,0c-0.2-0.2-0.2-0.4-0.2-0.6
		c0-0.6,0.4-1.3,0.8-1.7c0.6-0.4,1.3,0.2,1.9,0.2c0.2,0,0.2,0,0.4,0.2c0.6,0.2,0.8,1,0.8,1.7v0.4c0,0.2,0.2,0.2,0.4,0.2
		c0.2-1.1,0.2-2.1,0.4-3.2c0-1.3,1.3-2.5,2.3-2.9c0.4-0.2,0.6,0.2,1.1,0c1.3-0.4,4.4-1.7,3.8-3.4c-0.4-1.5-1.7-2.9-3.4-2.7
		c-0.4,0.2-0.6,0.4-1.1,0.6c-0.6,0.4-1.9,1.7-2.5,1.7c-1-0.2-1-1.7-0.8-2.3c0.2-0.8,2.1-3.6,3.4-3.1c0.2,0.2,0.6,0.6,0.8,0.8
		c0.4,0.2,1,0.2,1.7,0.2c0.2,0,0.4,0,0.6-0.2c0.2-0.2,0.2-0.2,0.2-0.4c0-0.6-0.6-1.3-1.1-1.7c-0.4-0.4-1-0.8-1.7-1
		c-2.1-0.6-5.5,0.2-7.1,1.7c-1.7,1.5-2.9,4-3.8,6.1c-0.4,1.3-0.8,2.9-1,4.4c-0.2,1.1-0.4,1.9,0.2,2.9c0.6,1.3,1.9,2.5,3.1,3.4
		c0.8,0.6,2.5,0.6,3.4,1.7c0.6,0.8,0.4,1.9,0.4,2.9c0,1.3,0.8,2.3,1.3,3.4c0.2,0.6,0.4,1.5,0.6,2.1c0,0.2,0.2,1.5,0.2,1.7
		c1.3,0.6,2.3,1.3,3.8,1.7c0.2,0,1-1.3,1-1.5c0.6-0.6,1.1-1.5,1.7-1.9c0.4-0.2,0.8-0.4,1.3-0.8c0.4-0.4,0.6-1.3,0.8-1.9
		C-39.5-489.8-39.3-490.6-39.5-491.3"/>
	<path class="st1" d="M-39.1-510.6c0.2,0,0.4-0.2,0.8-0.4c0.6-0.4,1.3-1,1.9-1.5c0.6-0.4,1.3-1.1,1.7-1.5c0.6-0.4,1-1.3,1.3-1.9
		c0.2-0.4,0.8-1.3,0.6-1.9c-0.2-0.4-1.3-0.6-1.7-0.8c-1.7-0.4-3.2-0.6-4.8-0.6c-0.6,0-1.5,0.2-1.7,0.8c-0.2,1.1,0.6,0.8,1.5,1.1
		c0,0,0.2,1.7,0.2,1.9c0.2,1.1-0.4,1.7-0.4,2.7c0,0.6,0,1.7,0.4,2.1H-39.1z"/>
	<path class="st1" d="M-21.5-495.9c0.2-0.4,0.2-1,0.4-1.5c0.2-1.1,0.2-2.1,0.2-3.2c0-2.1-0.2-4.2-0.8-6.1c-0.4-0.6-0.6-1.3-0.8-1.9
		c-0.4-1-1-2.1-1.9-2.9c-0.8-1-1.9-4-3.8-3.1c-0.6,0.2-1,1.1-1.5,1.5c-0.4,0.6-0.8,1.3-1.3,1.9c-0.2,0.2-0.4,0.6-0.2,0.8
		c0,0.2,0.2,0.2,0.4,0.2c0.4,0.2,0.6,0.2,1.1,0.4c0.2,0,0.4,0.2,0.2,0.4c0,0,0,0.2-0.2,0.2c-1.1,1-2.1,1.9-3.2,2.9
		c-0.2,0.2-0.4,0.6-0.4,0.8c0,0.2,0.2,0.2,0.2,0.4c0,0.2-0.2,0.2-0.4,0.4c-0.4,0.2-0.8,0.4-1,0.6c-0.2,0.4,0,1-0.2,1.5
		c-0.2,1-0.8,1.9-1.3,2.9c-0.4,0.6-0.6,1.3-1,1.9c0,0.8-0.2,1.5,0.2,2.1c1.1,1.5,2.9,0.6,4.4,1.3c0.4,0.2,0.8,0.2,1.1,0.6
		c0.6,0.6,0.6,1.7,0.8,2.3c0.2,0.8,0.4,1.7,0.8,2.5c0.2,1.1,0.6,2.1,0.8,2.9c1.9-1.5,3.6-3.1,4.8-5.2
		C-22.7-492.5-22.1-494.2-21.5-495.9"/>
</g>
<g>
	<polygon class="st2" points="35.3,-479.5 2.8,-479.5 2.8,-522.2 25.1,-522.2 35.3,-512 	"/>
</g>
<polygon class="st3" points="33.8,-509.3 24.1,-509.3 24.1,-519 "/>
<g>
	<rect x="10.9" y="-503.9" class="st3" width="17.3" height="2"/>
	<rect x="10.9" y="-499.8" class="st3" width="13.2" height="2"/>
	<rect x="10.9" y="-495.8" class="st3" width="17.3" height="2"/>
	<rect x="10.9" y="-491.7" class="st3" width="13.2" height="2"/>
</g>
<g>
	
		<rect x="97.4" y="-495.9" transform="matrix(-0.7071 0.7071 -0.7071 -0.7071 -174.6007 -901.6676)" class="st3" width="4.2" height="17.8"/>
	<circle class="st3" cx="82.1" cy="-504.3" r="16.7"/>
</g>
<rect x="99.1" y="-491.7" transform="matrix(-0.7072 0.707 -0.707 -0.7072 -170.3406 -899.9785)" class="st4" width="4.2" height="12.8"/>
<circle class="st5" cx="82.1" cy="-504.3" r="13.6"/>
<path class="st6" d="M89.3-510.4c-1.8-2.1-4.4-3.3-7.2-3.3c-2.8,0-5.4,1.3-7.2,3.3c-0.4,0.4-0.3,1.1,0.1,1.5
	c0.4,0.4,1.1,0.3,1.5-0.1c1.5-1.7,3.4-2.6,5.6-2.6c2.2,0,4.2,0.9,5.6,2.6c0.2,0.2,0.5,0.4,0.8,0.4c0.2,0,0.5-0.1,0.6-0.2
	C89.6-509.2,89.6-510,89.3-510.4z"/>
<path class="st0" d="M248.6-522.5H213c-2,0-3.6,1.6-3.6,3.6v39.1l10.1-9.5h29c2,0,3.6-1.6,3.6-3.6v-26.1
	C252.1-520.9,250.5-522.5,248.6-522.5z"/>
<g>
	<rect x="214.2" y="-513" class="st1" width="33.2" height="2.4"/>
	<rect x="214.2" y="-507" class="st1" width="33.2" height="2.4"/>
	<rect x="214.2" y="-501.1" class="st1" width="19" height="2.4"/>
</g>
<path class="st5" d="M175.9-522h-35.2c-1.9,0-3.5,1.6-3.5,3.5v38.7l10-9.4h28.7c1.9,0,3.5-1.6,3.5-3.5v-25.8
	C179.4-520.5,177.9-522,175.9-522z"/>
<g>
	<rect x="141.9" y="-512.6" class="st3" width="32.9" height="2.3"/>
	<rect x="141.9" y="-506.8" class="st3" width="32.9" height="2.3"/>
	<rect x="141.9" y="-500.9" class="st3" width="18.8" height="2.3"/>
</g>
<path class="st0" d="M319-499.1c0.1-0.7,0.2-1.4,0.2-2.2c0-0.8-0.1-1.5-0.2-2.2l4.6-3.3c0.4-0.3,0.6-0.9,0.3-1.4l-4.5-7.6
	c-0.3-0.5-0.8-0.7-1.3-0.4l-5.1,2.4c-1.2-0.9-2.5-1.6-3.9-2.2l-0.5-5.6c-0.1-0.5-0.5-0.9-1-0.9h-8.8c-0.5,0-1,0.4-1,0.9l-0.5,5.6
	c-1.4,0.6-2.8,1.3-3.9,2.2l-5.1-2.4c-0.5-0.2-1.1,0-1.3,0.4l-4.4,7.6c-0.3,0.5-0.1,1.1,0.3,1.4l4.6,3.3c-0.1,0.7-0.2,1.4-0.2,2.2
	c0,0.8,0.1,1.5,0.2,2.2l-4.8,3.3c-0.4,0.3-0.6,0.9-0.3,1.4l4.4,7.6c0.3,0.5,0.8,0.7,1.3,0.4l5.1-2.4c1.2,0.9,2.5,1.6,3.9,2.2
	l0.5,5.6c0.1,0.5,0.5,0.9,1,0.9h8.8c0.5,0,1-0.4,1-0.9l0.5-5.6c1.4-0.6,2.8-1.3,3.9-2.2l5.1,2.4c0.5,0.2,1.1,0,1.3-0.4l4.4-7.6
	c0.3-0.5,0.1-1.1-0.3-1.4L319-499.1z M303-491.1c-5.6,0-10.2-4.6-10.2-10.2c0-5.6,4.6-10.2,10.2-10.2c5.6,0,10.2,4.6,10.2,10.2
	C313.2-495.7,308.6-491.1,303-491.1z"/>
<path class="st1" d="M303-513.6c-6.7,0-12.3,5.5-12.3,12.3c0,6.7,5.5,12.3,12.3,12.3c6.7,0,12.3-5.5,12.3-12.3
	C315.3-508.1,309.8-513.6,303-513.6z M303-496.2c-2.9,0-5.1-2.2-5.1-5.1c0-2.9,2.2-5.1,5.1-5.1s5.1,2.2,5.1,5.1
	C308.1-498.5,305.9-496.2,303-496.2z"/>
<g>
	<polygon class="st0" points="382.4,-483.6 354,-483.6 354,-522 373.3,-522 382.4,-512.9 	"/>
</g>
<polygon class="st6" points="380.9,-511.9 372.3,-511.9 372.3,-520.5 "/>
<g>
	
		<rect x="387.8" y="-490.8" transform="matrix(-0.7073 0.7069 -0.7069 -0.7073 321.7764 -1102.7627)" class="st1" width="2.8" height="12.1"/>
	<circle class="st1" cx="377.3" cy="-496.7" r="11.1"/>
	<circle class="st0" cx="377.3" cy="-496.7" r="9.1"/>
</g>
<rect x="389" y="-488" transform="matrix(-0.707 0.7072 -0.7072 -0.707 324.4063 -1101.6262)" class="st1" width="2.8" height="8.8"/>
<g>
	<path class="st6" d="M379.3-494.7h-9.8c0.4,1.6,1.3,3,2.5,4h7.3V-494.7z"/>
	<path class="st6" d="M369.5-498.8h9.8v-4H372C370.7-501.8,369.9-500.4,369.5-498.8z"/>
	<path class="st6" d="M369.3-505.8h-9.2v2h7.4C368-504.5,368.6-505.2,369.3-505.8z"/>
	<path class="st6" d="M366.3-501.8h-6.2v2h5.5C365.8-500.5,366-501.2,366.3-501.8z"/>
	<path class="st6" d="M365.2-496.7c0-0.3,0-0.7,0.1-1h-5.2v2h5.2C365.2-496,365.2-496.4,365.2-496.7z"/>
	<path class="st6" d="M365.6-493.7h-5.5v2h6.2C366-492.3,365.8-493,365.6-493.7z"/>
</g>
<g>
	<circle class="st3" cx="470.6" cy="-513" r="8.4"/>
	<circle class="st3" cx="445.4" cy="-513" r="8.4"/>
	<g>
		<path class="st3" d="M489.7-500.4l-21.4,4.2h-20.5l-21.4-4.2l6-11c1.5-2.7,4.3-4.3,7.4-4.3h36.6c3.1,0,5.9,1.7,7.4,4.3
			L489.7-500.4z"/>
		<circle class="st3" cx="477.6" cy="-493.4" r="14"/>
		<circle class="st3" cx="438.5" cy="-493.4" r="14"/>
		<circle class="st3" cx="458" cy="-496.2" r="7"/>
	</g>
</g>
<circle class="st4" cx="458" cy="-496.2" r="2.8"/>
<g>
	<circle class="st5" cx="477.6" cy="-493.4" r="9.8"/>
	<circle class="st5" cx="438.5" cy="-493.4" r="9.8"/>
</g>
<g>
	<path class="st6" d="M482.7-496.7c-1.4-1.5-3.2-2.4-5.2-2.4c-2,0-3.9,0.8-5.2,2.4c-0.6,0.6-0.4,1.4,0.1,2c0.6,0.6,1.4,0.4,2-0.1
		c1.7-1.8,4.6-1.8,6.3,0c0.3,0.3,0.7,0.4,1,0.4c0.3,0,0.7-0.1,1-0.4C483.3-495.3,483.3-496.1,482.7-496.7z"/>
	<path class="st6" d="M438.5-499c-2,0-3.9,0.8-5.2,2.4c-0.6,0.6-0.4,1.4,0.1,2c0.6,0.6,1.4,0.4,2-0.1c1.7-1.8,4.6-1.8,6.3,0
		c0.3,0.3,0.7,0.4,1,0.4c0.3,0,0.7-0.1,1-0.4c0.6-0.6,0.6-1.4,0.1-2C442.4-498.2,440.4-499,438.5-499z"/>
</g>
<rect x="563.8" y="-506.8" class="st0" width="4.7" height="27"/>
<rect x="556.8" y="-498.5" class="st1" width="4.7" height="18.8"/>
<rect x="549.7" y="-504.4" class="st0" width="4.7" height="24.7"/>
<rect x="542.7" y="-497.4" class="st1" width="4.7" height="17.6"/>
<rect x="535.6" y="-493.8" class="st0" width="4.7" height="14.1"/>
<rect x="528.6" y="-496.2" class="st1" width="4.7" height="16.5"/>
<rect x="521.5" y="-491.5" class="st0" width="4.7" height="11.8"/>
<g>
	<polygon class="st0" points="564,-520.7 556.8,-513.6 552.1,-518.3 540.3,-506.5 534.4,-512.4 522.2,-500.2 525.5,-496.9 
		534.4,-505.8 540.3,-499.9 552.1,-511.7 556.8,-507 567.2,-517.5 	"/>
	<polygon class="st0" points="568.5,-522 558,-522 568.5,-511.5 	"/>
</g>
<circle class="st1" cx="619.9" cy="-501.5" r="21.2"/>
<circle class="st0" cx="619.9" cy="-501.5" r="16.9"/>
<rect x="618.8" y="-515.3" class="st1" width="2.1" height="13.8"/>
<rect x="622.1" y="-503" transform="matrix(0.7071 -0.7071 0.7071 0.7071 534.7912 294.8501)" class="st1" width="2.4" height="9.7"/>
<circle class="st1" cx="619.9" cy="-501.5" r="2.1"/>
<circle class="st6" cx="619.9" cy="-501.5" r="1.1"/>
<path class="st1" d="M671.3-495.2v11c0,2.4,2,4.4,4.4,4.4h30.8c2.4,0,4.4-2,4.4-4.4v-11H671.3z"/>
<path class="st0" d="M711-495.2c0,2.4-2,4.4-4.4,4.4h-30.8c-2.4,0-4.4-2-4.4-4.4l3.3-13.2c0.2-2.3,2-4.4,4.4-4.4h24.2
	c2.4,0,4.1,1.9,4.4,4.4L711-495.2z"/>
<circle class="st7" cx="703.2" cy="-485.3" r="2.2"/>
<g>
	<ellipse class="st1" cx="692.8" cy="-515.7" rx="6.1" ry="5.9"/>
	<ellipse class="st1" cx="694.2" cy="-505.6" rx="5" ry="4.9"/>
	<ellipse class="st1" cx="687.3" cy="-510.2" rx="5" ry="4.9"/>
	<ellipse class="st1" cx="707.8" cy="-510.5" rx="4.3" ry="4.2"/>
	<ellipse class="st1" cx="702" cy="-507.1" rx="4.3" ry="4.2"/>
	<ellipse class="st1" cx="702.4" cy="-513.8" rx="4.7" ry="4.5"/>
	<ellipse class="st1" cx="697.1" cy="-511.1" rx="5" ry="4.9"/>
</g>
<path class="st3" d="M764.3-502.6h13.8l6.4,6.4v-18c0-2.3-1.9-4.2-4.2-4.2h-15.9c-2.3,0-4.2,1.9-4.2,4.2v7.4
	C760.1-504.6,762-502.6,764.3-502.6z"/>
<path class="st4" d="M762.2-505.8h-13.8l-6.4,6.4v-18c0-2.3,1.9-4.2,4.2-4.2h15.9c2.3,0,4.2,1.9,4.2,4.2v7.4
	C766.4-507.7,764.5-505.8,762.2-505.8z"/>
<g>
	<circle class="st2" cx="750.5" cy="-493.1" r="5.3"/>
	<circle class="st2" cx="775.9" cy="-493.1" r="5.3"/>
</g>
<g>
	<path class="st3" d="M759-481.5c0,0-2.3-4.2-8.5-4.2c-6.1,0-8.5,4.2-8.5,4.2v2.1H759V-481.5L759-481.5z"/>
	<path class="st3" d="M784.4-481.5c0,0-2.3-4.2-8.5-4.2c-6.1,0-8.5,4.2-8.5,4.2v2.1h16.9V-481.5z"/>
</g>
<circle class="st7" cx="835.7" cy="-500.9" r="16.8"/>
<g>
	<path class="st1" d="M834-503.8c-1.6,0.9-2.1,3-1.2,4.6c1,1.6,3,2.2,4.7,1.2c1.6-0.9,2.1-3,1.2-4.6
		C837.7-504.2,835.7-504.7,834-503.8"/>
	<polygon class="st1" points="848.4,-508.2 837.9,-499.5 835.6,-503.4 	"/>
</g>
<g>
	<path class="st1" d="M822.3-502h-5.6c0,0.4-0.1,0.7-0.1,1.1c0,0.4,0,0.8,0.1,1.1h5.6V-502z"/>
	<path class="st1" d="M824.4-493.5l-1.1-2l-4.9,2.6c0.3,0.7,0.7,1.4,1.1,2L824.4-493.5z"/>
</g>
<g>
	<path class="st1" d="M828.1-512l2-1.1l-2.8-4.8c-0.7,0.3-1.3,0.7-2,1.1L828.1-512z"/>
	<path class="st1" d="M818.7-509.4l4.8,2.8l1.1-2l-4.8-2.8C819.4-510.7,819-510.1,818.7-509.4z"/>
	<path class="st1" d="M849.2-499.7h5.6c0-0.4,0.1-0.7,0.1-1.1c0-0.4,0-0.8-0.1-1.1h-5.6V-499.7z"/>
	<path class="st1" d="M853.2-493.2l-5-2.5l-1,2l5,2.5C852.5-491.8,852.9-492.5,853.2-493.2z"/>
	<path class="st1" d="M846.4-516.7c-0.6-0.4-1.3-0.8-2-1.1l-2.8,4.8l2,1.1L846.4-516.7z"/>
	<path class="st1" d="M836.9-519.9c-0.4,0-0.7-0.1-1.1-0.1c-0.4,0-0.8,0-1.1,0.1v5.6h2.3V-519.9z"/>
</g>
<path class="st0" d="M835.7-522.2c-11.8,0-21.3,9.6-21.3,21.3c0,11.8,9.6,21.3,21.3,21.3c11.8,0,21.3-9.6,21.3-21.3
	C857.1-512.6,847.5-522.2,835.7-522.2z M835.7-484c-9.3,0-16.8-7.5-16.8-16.8c0-9.3,7.5-16.8,16.8-16.8c9.3,0,16.8,7.5,16.8,16.8
	C852.6-491.6,845-484,835.7-484z"/>
<path class="st7" d="M835.2-501.8c-0.5,0.3-0.7,1-0.4,1.5c0.3,0.5,1,0.7,1.6,0.4c0.5-0.3,0.7-1,0.4-1.5
	C836.4-502,835.7-502.1,835.2-501.8"/>
<path class="st0" d="M938.5-483.1c0,1.6-1.3,2.8-2.8,2.8h-45.3c-1.6,0-2.8-1.3-2.8-2.8v-31.2c0-1.6,1.3-2.8,2.8-2.8h45.3
	c1.6,0,2.8,1.3,2.8,2.8V-483.1z"/>
<path class="st0" d="M925.8-512.8c0,1.6-1.3,2.8-2.8,2.8h-19.8c-1.6,0-2.8-1.3-2.8-2.8v-7.1c0-1.6,1.3-2.8,2.8-2.8H923
	c1.6,0,2.8,1.3,2.8,2.8V-512.8z"/>
<circle class="st7" cx="931.5" cy="-510" r="2.8"/>
<circle class="st7" cx="913" cy="-498.7" r="14.2"/>
<circle class="st1" cx="913" cy="-498.7" r="11.3"/>
<path class="st0" d="M907.4-493c0,1.7,0.4,3.2,1,4.7c1.4,0.6,3,1,4.7,1c6.3,0,11.3-5.1,11.3-11.3c0-1.7-0.4-3.2-1-4.7
	c-1.4-0.6-3-1-4.7-1C912.4-504.3,907.4-499.2,907.4-493z"/>
<path class="st8" d="M-9.9-340.1c0,1.5-1.3,2.8-2.8,2.8h-44.8c-1.5,0-2.8-1.3-2.8-2.8v-30.8c0-1.5,1.3-2.8,2.8-2.8h44.8
	c1.5,0,2.8,1.3,2.8,2.8V-340.1z"/>
<path class="st8" d="M-22.5-369.5c0,1.5-1.3,2.8-2.8,2.8h-19.6c-1.5,0-2.8-1.3-2.8-2.8v-7c0-1.5,1.3-2.8,2.8-2.8h19.6
	c1.5,0,2.8,1.3,2.8,2.8V-369.5z"/>
<circle class="st9" cx="-16.9" cy="-366.7" r="2.8"/>
<circle class="st9" cx="-35.1" cy="-355.5" r="14"/>
<circle class="st10" cx="-35.1" cy="-355.5" r="11.2"/>
<path class="st8" d="M-40.7-349.9c0,1.6,0.4,3.2,1,4.6c1.4,0.6,3,1,4.6,1c6.2,0,11.2-5,11.2-11.2c0-1.6-0.4-3.2-1-4.6
	c-1.4-0.6-3-1-4.6-1C-35.7-361.1-40.7-356.1-40.7-349.9z"/>
<g>
	<path class="st4" d="M997.2-504.2h-2.5c0-9.2,5.1-9.6,9.2-9.9c4-0.3,7-0.6,7-7.5h2.5c0,9.3-5.1,9.7-9.3,10
		C1000.1-511.3,997.2-511.1,997.2-504.2z"/>
</g>
<rect x="968.5" y="-504.2" class="st3" width="54.8" height="24.9"/>
<g>
	<rect x="971" y="-501.7" class="st5" width="5" height="5"/>
	<rect x="978.5" y="-501.7" class="st5" width="5" height="5"/>
	<rect x="986" y="-501.7" class="st5" width="5" height="5"/>
	<rect x="993.4" y="-501.7" class="st5" width="5" height="5"/>
	<rect x="1000.9" y="-501.7" class="st5" width="5" height="5"/>
	<rect x="1008.4" y="-501.7" class="st5" width="5" height="5"/>
	<rect x="1015.9" y="-501.7" class="st5" width="5" height="5"/>
	<rect x="971" y="-486.8" class="st5" width="5" height="5"/>
	<rect x="978.5" y="-486.8" class="st5" width="5" height="5"/>
	<rect x="986" y="-486.8" class="st5" width="19.9" height="5"/>
	<rect x="1008.4" y="-486.8" class="st5" width="5" height="5"/>
	<rect x="1015.9" y="-486.8" class="st5" width="5" height="5"/>
	<rect x="971" y="-494.2" class="st5" width="8.7" height="5"/>
	<rect x="982.2" y="-494.2" class="st5" width="5" height="5"/>
	<rect x="989.7" y="-494.2" class="st5" width="5" height="5"/>
	<rect x="997.2" y="-494.2" class="st5" width="5" height="5"/>
	<rect x="1004.6" y="-494.2" class="st5" width="5" height="5"/>
	<rect x="1012.1" y="-494.2" class="st5" width="8.7" height="5"/>
</g>
<path class="st2" d="M1053.8-499.9c0,13.5,18.1,20.4,18.1,20.4s18.1-6.8,18.1-20.4c0-5.6,0-19.2,0-19.2c-4.5,0-18.1-3.4-18.1-3.4
	s-13.6,3.4-18.1,3.4C1053.8-519.2,1053.8-505.5,1053.8-499.9z"/>
<path class="st3" d="M1090-499.9c0,13.5-18.1,20.4-18.1,20.4v-43c0,0,13.6,3.4,18.1,3.4C1090-519.2,1090-505.5,1090-499.9z"/>
<path class="st4" d="M1085.5-499.9c0,8.2-9.7,13.6-13.6,15.4c-3.9-1.8-13.6-7.3-13.6-15.4v-15.2c4.7-0.7,10.8-2.1,13.6-2.8
	c2.8,0.7,8.8,2.1,13.6,2.8V-499.9z"/>
<path class="st11" d="M1085.5-499.9c0,8.2-9.7,13.6-13.6,15.4l0-33.4c2.8,0.7,8.8,2.1,13.6,2.8V-499.9z"/>
<circle class="st6" cx="1056" cy="-515.8" r="1.1"/>
<circle class="st6" cx="1064" cy="-518.1" r="1.1"/>
<circle class="st6" cx="1071.9" cy="-520.3" r="1.1"/>
<circle class="st6" cx="1056" cy="-509" r="1.1"/>
<circle class="st6" cx="1056" cy="-502.2" r="1.1"/>
<circle class="st6" cx="1057.2" cy="-495.4" r="1.1"/>
<circle class="st6" cx="1060.6" cy="-489.8" r="1.1"/>
<circle class="st6" cx="1066.2" cy="-485.2" r="1.1"/>
<circle class="st6" cx="1087.7" cy="-515.8" r="1.1"/>
<circle class="st6" cx="1079.8" cy="-518.1" r="1.1"/>
<circle class="st6" cx="1087.7" cy="-509" r="1.1"/>
<circle class="st6" cx="1087.7" cy="-502.2" r="1.1"/>
<circle class="st6" cx="1086.6" cy="-495.4" r="1.1"/>
<circle class="st6" cx="1083.2" cy="-489.8" r="1.1"/>
<circle class="st6" cx="1077.5" cy="-485.2" r="1.1"/>
<polygon class="st6" points="1071.9,-499 1086.3,-509.1 1086.3,-513.6 1071.9,-503.5 "/>
<path class="st6" d="M1071.9-503.5l-12.4,8.4c0.5,1.1,1.2,2.2,2.1,3.1l10.3-7V-503.5z"/>
<polygon class="st6" points="1067.4,-509 1065.1,-506.2 1062.8,-509 1065.1,-511.8 "/>
<polygon class="st6" points="1080.9,-495.4 1078.7,-492.6 1076.4,-495.4 1078.7,-498.2 "/>
<path class="st3" d="M1141.4-491.4c0.1-0.4,0.1-0.9,0.1-1.3c0-0.5,0-0.9-0.1-1.3l2.7-1.9c0.3-0.2,0.4-0.6,0.2-0.9l-2.6-4.4
	c-0.2-0.3-0.5-0.4-0.8-0.3l-3,1.4c-0.7-0.6-1.4-1-2.3-1.3l-0.3-3.3c0-0.3-0.3-0.6-0.6-0.6h-5.1c-0.3,0-0.6,0.3-0.6,0.6l-0.4,3.4
	c-0.9,0.3-1.5,0.8-2.3,1.3l-3-1.3c-0.3-0.1-0.7,0-0.8,0.3l-2.6,4.4c-0.2,0.3-0.1,0.7,0.2,0.9l2.7,1.9c-0.1,0.4-0.1,0.9-0.1,1.3
	c0,0.5,0,0.9,0.1,1.3l-2.7,1.9c-0.3,0.2-0.4,0.6-0.2,0.9l2.6,4.4c0.2,0.3,0.5,0.4,0.8,0.3l3-1.3c0.7,0.6,1.4,1,2.3,1.3l0.3,3.3
	c0,0.3,0.3,0.6,0.6,0.6h5.1c0.3,0,0.6-0.3,0.6-0.6l0.3-3.3c0.9-0.3,1.5-0.8,2.3-1.3l3,1.3c0.3,0.1,0.7,0,0.8-0.3l2.6-4.4
	c0.2-0.3,0.1-0.7-0.2-0.9L1141.4-491.4z M1132.2-488c-2.7,0-4.8-2.1-4.8-4.8c0-2.7,2.1-4.8,4.8-4.8c2.7,0,4.8,2.1,4.8,4.8
	C1137-490.1,1134.9-488,1132.2-488z"/>
<path class="st4" d="M1157.1-509.8c0.1-0.5,0.1-0.9,0.1-1.2c0-0.4,0-0.8-0.1-1.2l2.4-1.7c0.3-0.2,0.3-0.5,0.2-0.8l-2.4-4.1
	c-0.2-0.3-0.5-0.4-0.8-0.2l-2.8,1.2c-0.7-0.5-1.3-0.9-2.1-1.2l-0.3-3c0.1-0.3-0.1-0.5-0.4-0.5h-4.7c-0.3,0-0.6,0.2-0.6,0.5l-0.3,3
	c-0.8,0.3-1.4,0.7-2.1,1.2l-2.8-1.2c-0.3-0.1-0.6,0-0.8,0.2l-2.4,4.1c-0.2,0.3-0.1,0.6,0.2,0.8l2.4,1.7c0,0.5,0,0.9,0,1.2
	c0,0.4,0,0.8,0.1,1.2l-2.4,1.7c-0.3,0.2-0.3,0.5-0.2,0.8l2.4,4.1c0.2,0.3,0.5,0.4,0.8,0.2l2.8-1.2c0.7,0.5,1.3,0.9,2.1,1.2l0.3,3
	c0,0.3,0.3,0.5,0.6,0.5h4.7c0.3,0,0.6-0.2,0.6-0.5l0.3-3c0.8-0.3,1.4-0.7,2.1-1.2l2.8,1.2c0.3,0.1,0.6,0,0.8-0.2l2.4-4.1
	c0.2-0.3,0.1-0.6-0.2-0.8L1157.1-509.8z M1148.5-506.2c-2.7,0-4.8-2.1-4.8-4.8c0-2.7,2.1-4.8,4.8-4.8c2.7,0,4.8,2.1,4.8,4.8
	C1153.3-508.3,1151.2-506.2,1148.5-506.2z"/>
<rect x="64.7" y="-365.3" class="st12" width="4.9" height="28.2"/>
<rect x="57.3" y="-356.8" class="st13" width="4.9" height="19.6"/>
<rect x="49.9" y="-362.9" class="st12" width="4.9" height="25.8"/>
<rect x="42.6" y="-355.5" class="st13" width="4.9" height="18.4"/>
<rect x="35.2" y="-351.9" class="st12" width="4.9" height="14.7"/>
<rect x="27.9" y="-354.3" class="st13" width="4.9" height="17.2"/>
<rect x="20.5" y="-349.4" class="st12" width="4.9" height="12.3"/>
<g>
	<polygon class="st12" points="64.8,-379.9 57.3,-372.5 52.4,-377.4 40.1,-365.1 34,-371.2 21.2,-358.5 24.7,-355 34,-364.4 
		40.1,-358.2 52.4,-370.5 57.3,-365.6 68.2,-376.5 	"/>
	<polygon class="st12" points="69.6,-381.3 58.5,-381.3 69.6,-370.2 	"/>
</g>
<circle class="st9" cx="120.7" cy="-358.8" r="16.8"/>
<g>
	<path class="st10" d="M119-361.7c-1.6,0.9-2.1,3-1.2,4.6c1,1.6,3,2.1,4.6,1.2c1.6-0.9,2.1-3,1.2-4.6
		C122.7-362.1,120.6-362.6,119-361.7"/>
	<polygon class="st10" points="133.3,-366.1 122.8,-357.4 120.5,-361.3 	"/>
</g>
<g>
	<path class="st10" d="M107.3-359.9h-5.5c0,0.4-0.1,0.7-0.1,1.1c0,0.4,0,0.8,0.1,1.1h5.5V-359.9z"/>
	<path class="st10" d="M109.4-351.5l-1.1-2l-4.9,2.6c0.3,0.7,0.7,1.3,1.1,2L109.4-351.5z"/>
</g>
<g>
	<path class="st10" d="M113.1-369.9l2-1.1l-2.7-4.8c-0.7,0.3-1.3,0.7-2,1.1L113.1-369.9z"/>
	<path class="st10" d="M103.7-367.3l4.8,2.8l1.1-2l-4.8-2.8C104.4-368.6,104.1-368,103.7-367.3z"/>
	<path class="st10" d="M134.1-357.7h5.5c0-0.4,0.1-0.7,0.1-1.1c0-0.4,0-0.8-0.1-1.1h-5.5V-357.7z"/>
	<path class="st10" d="M138.1-351.2l-4.9-2.5l-1,2l4.9,2.5C137.4-349.8,137.8-350.5,138.1-351.2z"/>
	<path class="st10" d="M131.3-374.6c-0.6-0.4-1.3-0.8-2-1.1l-2.8,4.8l1.9,1.1L131.3-374.6z"/>
	<path class="st10" d="M121.8-377.7c-0.4,0-0.7-0.1-1.1-0.1c-0.4,0-0.8,0-1.1,0.1v5.5h2.3V-377.7z"/>
</g>
<path class="st8" d="M120.7-380c-11.7,0-21.2,9.5-21.2,21.2c0,11.7,9.5,21.2,21.2,21.2c11.7,0,21.2-9.5,21.2-21.2
	C141.9-370.5,132.4-380,120.7-380z M120.7-342c-9.3,0-16.8-7.5-16.8-16.8c0-9.3,7.5-16.8,16.8-16.8c9.3,0,16.8,7.5,16.8,16.8
	C137.4-349.5,129.9-342,120.7-342z"/>
<path class="st9" d="M120.1-359.7c-0.5,0.3-0.7,1-0.4,1.5c0.3,0.5,1,0.7,1.5,0.4c0.5-0.3,0.7-1,0.4-1.5
	C121.4-359.9,120.7-360.1,120.1-359.7"/>
<path class="st14" d="M172-352.8v11.3c0,2.5,2,4.5,4.5,4.5h31.6c2.5,0,4.5-2,4.5-4.5v-11.3H172z"/>
<path class="st12" d="M212.6-352.8c0,2.5-2,4.5-4.5,4.5h-31.6c-2.5,0-4.5-2-4.5-4.5l3.4-13.5c0.2-2.4,2-4.5,4.5-4.5h24.8
	c2.5,0,4.2,2,4.5,4.5L212.6-352.8z"/>
<circle class="st9" cx="204.7" cy="-342.7" r="2.3"/>
<g>
	<ellipse class="st9" cx="194" cy="-373.8" rx="6.2" ry="6.1"/>
	<ellipse class="st9" cx="195.4" cy="-363.5" rx="5.1" ry="5"/>
	<ellipse class="st9" cx="188.4" cy="-368.1" rx="5.1" ry="5"/>
	<ellipse class="st9" cx="209.3" cy="-368.5" rx="4.4" ry="4.3"/>
	<ellipse class="st9" cx="203.5" cy="-365" rx="4.4" ry="4.3"/>
	<ellipse class="st9" cx="203.8" cy="-371.9" rx="4.8" ry="4.6"/>
	<ellipse class="st9" cx="198.5" cy="-369.1" rx="5.1" ry="5"/>
</g>
<path class="st15" d="M-10.9-198.1c0,1.5-1.2,2.8-2.8,2.8h-44.4c-1.5,0-2.8-1.2-2.8-2.8v-30.6c0-1.5,1.2-2.8,2.8-2.8h44.4
	c1.5,0,2.8,1.2,2.8,2.8V-198.1z"/>
<path class="st15" d="M-23.4-227.3c0,1.5-1.2,2.8-2.8,2.8h-19.4c-1.5,0-2.8-1.2-2.8-2.8v-6.9c0-1.5,1.2-2.8,2.8-2.8h19.4
	c1.5,0,2.8,1.2,2.8,2.8V-227.3z"/>
<circle class="st16" cx="-17.9" cy="-224.5" r="2.8"/>
<circle class="st16" cx="-35.9" cy="-213.4" r="13.9"/>
<circle class="st17" cx="-35.9" cy="-213.4" r="11.1"/>
<path class="st15" d="M-41.5-207.8c0,1.6,0.4,3.2,1,4.6c1.4,0.6,2.9,1,4.6,1c6.1,0,11.1-5,11.1-11.1c0-1.6-0.4-3.2-1-4.6
	c-1.4-0.6-2.9-1-4.6-1C-36.5-218.9-41.5-214-41.5-207.8z"/>
<rect x="61.1" y="-222.2" class="st18" width="4.7" height="26.8"/>
<rect x="54.1" y="-214" class="st19" width="4.7" height="18.7"/>
<rect x="47.1" y="-219.8" class="st18" width="4.7" height="24.5"/>
<rect x="40.1" y="-212.8" class="st19" width="4.7" height="17.5"/>
<rect x="33.1" y="-209.3" class="st18" width="4.7" height="14"/>
<rect x="26.1" y="-211.7" class="st19" width="4.7" height="16.3"/>
<rect x="19.1" y="-207" class="st18" width="4.7" height="11.7"/>
<g>
	<polygon class="st18" points="61.2,-236 54.1,-228.9 49.4,-233.6 37.7,-221.9 31.9,-227.8 19.8,-215.6 23,-212.4 31.9,-221.2 
		37.7,-215.4 49.4,-227.1 54.1,-222.4 64.5,-232.8 	"/>
	<polygon class="st18" points="65.7,-237.3 55.2,-237.3 65.7,-226.8 	"/>
</g>
<circle class="st16" cx="117" cy="-216.2" r="16.5"/>
<g>
	<path class="st17" d="M115.3-219.1c-1.6,0.9-2.1,2.9-1.2,4.5c0.9,1.6,3,2.1,4.6,1.2c1.6-0.9,2.1-2.9,1.2-4.5
		C118.9-219.5,116.9-220,115.3-219.1"/>
	<polygon class="st17" points="129.4,-223.4 119.1,-214.9 116.8,-218.7 	"/>
</g>
<g>
	<path class="st17" d="M103.8-217.3h-5.4c0,0.4-0.1,0.7-0.1,1.1c0,0.4,0,0.7,0.1,1.1h5.4V-217.3z"/>
	<path class="st17" d="M105.9-209.1l-1-2l-4.8,2.6c0.3,0.7,0.7,1.3,1,2L105.9-209.1z"/>
</g>
<g>
	<path class="st17" d="M109.5-227.1l1.9-1.1l-2.7-4.7c-0.7,0.3-1.3,0.7-1.9,1.1L109.5-227.1z"/>
	<path class="st17" d="M100.3-224.6l4.7,2.7l1.1-1.9l-4.7-2.7C101-225.9,100.6-225.2,100.3-224.6z"/>
	<path class="st17" d="M130.1-215.1h5.4c0-0.4,0.1-0.7,0.1-1.1c0-0.4,0-0.7-0.1-1.1h-5.4V-215.1z"/>
	<path class="st17" d="M134-208.7l-4.9-2.5l-1,2l4.8,2.5C133.4-207.4,133.7-208.1,134-208.7z"/>
	<path class="st17" d="M127.4-231.7c-0.6-0.4-1.3-0.8-1.9-1.1l-2.8,4.7l1.9,1.1L127.4-231.7z"/>
	<path class="st17" d="M118.1-234.9c-0.4,0-0.7-0.1-1.1-0.1c-0.4,0-0.7,0-1.1,0.1v5.4h2.2V-234.9z"/>
</g>
<path class="st15" d="M117-237.1c-11.5,0-20.9,9.3-20.9,20.9c0,11.5,9.3,20.9,20.9,20.9c11.5,0,20.9-9.3,20.9-20.9
	C137.8-227.8,128.5-237.1,117-237.1z M117-199.8c-9.1,0-16.5-7.4-16.5-16.5c0-9.1,7.4-16.5,16.5-16.5c9.1,0,16.5,7.4,16.5,16.5
	C133.4-207.2,126.1-199.8,117-199.8z"/>
<path class="st16" d="M116.4-217.2c-0.5,0.3-0.7,1-0.4,1.5c0.3,0.5,1,0.7,1.5,0.4c0.5-0.3,0.7-1,0.4-1.5
	C117.6-217.3,117-217.5,116.4-217.2"/>
<path class="st19" d="M169-210.4v11.2c0,2.5,2,4.5,4.5,4.5h31.3c2.5,0,4.5-2,4.5-4.5v-11.2H169z"/>
<path class="st18" d="M209.3-210.4c0,2.5-2,4.5-4.5,4.5h-31.3c-2.5,0-4.5-2-4.5-4.5l3.4-13.4c0.2-2.3,2-4.5,4.5-4.5h24.6
	c2.5,0,4.1,2,4.5,4.5L209.3-210.4z"/>
<circle class="st16" cx="201.4" cy="-200.4" r="2.2"/>
<g>
	<ellipse class="st20" cx="190.9" cy="-231.2" rx="6.2" ry="6"/>
	<ellipse class="st20" cx="192.2" cy="-221" rx="5.1" ry="5"/>
	<ellipse class="st20" cx="185.3" cy="-225.6" rx="5.1" ry="5"/>
	<ellipse class="st20" cx="206" cy="-225.9" rx="4.4" ry="4.2"/>
	<ellipse class="st20" cx="200.2" cy="-222.5" rx="4.4" ry="4.2"/>
	<ellipse class="st20" cx="200.6" cy="-229.3" rx="4.7" ry="4.6"/>
	<ellipse class="st20" cx="195.2" cy="-226.5" rx="5.1" ry="5"/>
</g>
<g>
	
		<rect x="275.9" y="-354.1" transform="matrix(-0.707 0.7072 -0.7072 -0.707 230.5644 -785.5057)" class="st12" width="4.3" height="18.3"/>
	<circle class="st12" cx="260.2" cy="-362.8" r="17.2"/>
</g>
<rect x="277.6" y="-349.8" transform="matrix(-0.7072 0.707 -0.707 -0.7072 234.9812 -783.7327)" class="st14" width="4.3" height="13.2"/>
<circle class="st9" cx="260.2" cy="-362.8" r="14"/>
<path class="st6" d="M267.6-369c-1.8-2.1-4.5-3.4-7.4-3.4c-2.9,0-5.6,1.3-7.4,3.4c-0.4,0.4-0.3,1.2,0.1,1.5c0.4,0.4,1.2,0.3,1.5-0.1
	c1.5-1.7,3.5-2.7,5.8-2.7c2.3,0,4.3,1,5.8,2.7c0.2,0.2,0.5,0.4,0.9,0.4c0.2,0,0.5-0.1,0.6-0.2C267.9-367.8,267.9-368.6,267.6-369z"
	/>
<path class="st8" d="M315.3-357.6c0,13.4,18,20.2,18,20.2s18-6.7,18-20.2c0-5.5,0-19.1,0-19.1c-4.4,0-18-3.4-18-3.4
	s-13.5,3.4-18,3.4C315.3-376.7,315.3-363.1,315.3-357.6z"/>
<path class="st10" d="M351.2-357.6c0,13.4-18,20.2-18,20.2V-380c0,0,13.5,3.4,18,3.4C351.2-376.7,351.2-363.1,351.2-357.6z"/>
<path class="st9" d="M346.8-357.6c0,8.1-9.6,13.5-13.5,15.3c-3.9-1.8-13.5-7.2-13.5-15.3v-15c4.7-0.7,10.7-2.1,13.5-2.8
	c2.7,0.7,8.8,2.1,13.5,2.8V-357.6z"/>
<path class="st21" d="M346.8-357.5c0,8.1-9.6,13.5-13.5,15.3l0-33.1c2.7,0.7,8.8,2.1,13.5,2.8V-357.5z"/>
<circle class="st6" cx="317.6" cy="-373.3" r="1.1"/>
<circle class="st6" cx="325.4" cy="-375.5" r="1.1"/>
<circle class="st6" cx="333.3" cy="-377.8" r="1.1"/>
<circle class="st6" cx="317.6" cy="-366.6" r="1.1"/>
<circle class="st6" cx="317.6" cy="-359.8" r="1.1"/>
<circle class="st6" cx="318.7" cy="-353.1" r="1.1"/>
<circle class="st6" cx="322.1" cy="-347.5" r="1.1"/>
<circle class="st6" cx="327.7" cy="-343" r="1.1"/>
<circle class="st6" cx="349" cy="-373.3" r="1.1"/>
<circle class="st6" cx="341.2" cy="-375.5" r="1.1"/>
<circle class="st6" cx="349" cy="-366.6" r="1.1"/>
<circle class="st6" cx="349" cy="-359.8" r="1.1"/>
<circle class="st6" cx="347.9" cy="-353.1" r="1.1"/>
<circle class="st6" cx="344.5" cy="-347.5" r="1.1"/>
<circle class="st6" cx="338.9" cy="-343" r="1.1"/>
<polygon class="st6" points="333.3,-356.6 346.8,-365.8 346.8,-370.3 333.3,-361.1 "/>
<path class="st6" d="M333.3-361.1l-12.3,8.4c0.5,1.1,1.2,2.1,2,3.1l10.3-7L333.3-361.1z"/>
<polygon class="st6" points="328.8,-366.6 326.6,-363.7 324.3,-366.6 326.6,-369.4 "/>
<polygon class="st6" points="342.3,-353.1 340,-350.3 337.8,-353.1 340,-355.9 "/>
<circle class="st14" cx="426.1" cy="-371.5" r="8.4"/>
<circle class="st14" cx="400.8" cy="-371.5" r="8.4"/>
<path class="st12" d="M445.4-358.9l-21.5,4.2h-20.7l-21.5-4.2l6-11.1c1.5-2.7,4.4-4.4,7.5-4.4H432c3.1,0,5.9,1.7,7.5,4.4
	L445.4-358.9z"/>
<circle class="st14" cx="433.1" cy="-351.8" r="14.1"/>
<circle class="st14" cx="393.8" cy="-351.8" r="14.1"/>
<circle class="st14" cx="413.5" cy="-354.7" r="7"/>
<circle class="st9" cx="413.5" cy="-354.7" r="2.8"/>
<g>
	<circle class="st9" cx="433.1" cy="-351.8" r="9.8"/>
	<circle class="st9" cx="393.8" cy="-351.8" r="9.8"/>
</g>
<g>
	<path class="st6" d="M438.3-355.1c-1.4-1.5-3.2-2.4-5.2-2.4c-2,0-3.9,0.8-5.2,2.4c-0.6,0.6-0.4,1.4,0.1,2c0.6,0.6,1.4,0.4,2-0.1
		c1.7-1.8,4.6-1.8,6.3,0c0.3,0.3,0.7,0.4,1,0.4c0.3,0,0.7-0.1,1-0.4C438.9-353.7,438.9-354.5,438.3-355.1z"/>
	<path class="st6" d="M393.8-357.5c-2,0-3.9,0.8-5.2,2.4c-0.6,0.6-0.4,1.4,0.1,2c0.6,0.6,1.4,0.4,2-0.1c1.7-1.8,4.6-1.8,6.3,0
		c0.3,0.3,0.7,0.4,1,0.4c0.3,0,0.7-0.1,1-0.4c0.6-0.6,0.6-1.4,0.1-2C397.7-356.6,395.7-357.5,393.8-357.5z"/>
</g>
<path class="st10" d="M499.4-361.1h13.8l6.4,6.4v-18c0-2.3-1.9-4.2-4.2-4.2h-15.9c-2.3,0-4.2,1.9-4.2,4.2v7.4
	C495.2-363,497.1-361.1,499.4-361.1z"/>
<path class="st12" d="M497.3-364.3h-13.8l-6.4,6.4v-18c0-2.3,1.9-4.2,4.2-4.2h15.9c2.3,0,4.2,1.9,4.2,4.2v7.4
	C501.5-366.2,499.6-364.3,497.3-364.3z"/>
<g>
	<circle class="st12" cx="485.7" cy="-351.6" r="5.3"/>
	<circle class="st12" cx="511.1" cy="-351.6" r="5.3"/>
</g>
<g>
	<path class="st10" d="M494.1-339.9c0,0-2.3-4.2-8.5-4.2c-6.1,0-8.5,4.2-8.5,4.2v2.1h16.9V-339.9L494.1-339.9z"/>
	<path class="st10" d="M519.5-339.9c0,0-2.3-4.2-8.5-4.2s-8.5,4.2-8.5,4.2v2.1h16.9V-339.9z"/>
</g>
<path class="st14" d="M570.4-349.5c0.1-0.4,0.1-0.8,0.1-1.3c0-0.5,0-0.8-0.1-1.3l2.6-1.9c0.3-0.2,0.4-0.6,0.2-0.8l-2.5-4.3
	c-0.2-0.3-0.5-0.4-0.7-0.3l-2.9,1.4c-0.7-0.6-1.4-0.9-2.2-1.3l-0.3-3.2c0-0.3-0.3-0.6-0.6-0.6h-5c-0.3,0-0.6,0.3-0.6,0.6l-0.4,3.3
	c-0.8,0.3-1.5,0.7-2.2,1.3l-2.9-1.3c-0.3-0.1-0.7,0-0.7,0.3l-2.5,4.3c-0.2,0.3-0.1,0.7,0.2,0.8l2.6,1.9c-0.1,0.4-0.1,0.8-0.1,1.3
	c0,0.5,0,0.8,0.1,1.3l-2.6,1.9c-0.3,0.2-0.4,0.6-0.2,0.8l2.5,4.3c0.2,0.3,0.5,0.4,0.7,0.3l2.9-1.3c0.7,0.6,1.4,0.9,2.2,1.3l0.3,3.2
	c0,0.3,0.3,0.6,0.6,0.6h5c0.3,0,0.6-0.3,0.6-0.6l0.3-3.2c0.8-0.3,1.5-0.8,2.2-1.3l2.9,1.3c0.3,0.1,0.7,0,0.7-0.3l2.5-4.3
	c0.2-0.3,0.1-0.7-0.2-0.8L570.4-349.5z M561.4-346.1c-2.6,0-4.7-2.1-4.7-4.7c0-2.6,2.1-4.7,4.7-4.7c2.6,0,4.7,2.1,4.7,4.7
	C566.1-348.2,564.1-346.1,561.4-346.1z"/>
<path class="st12" d="M585.7-367.4c0.1-0.5,0.1-0.8,0.1-1.2c0-0.4,0-0.7-0.1-1.2l2.3-1.7c0.3-0.2,0.3-0.5,0.2-0.7l-2.3-4
	c-0.2-0.3-0.5-0.4-0.8-0.2l-2.7,1.2c-0.7-0.5-1.3-0.8-2.1-1.2l-0.3-2.9c0.1-0.3-0.1-0.5-0.4-0.5h-4.6c-0.3,0-0.6,0.2-0.6,0.5
	l-0.3,2.9c-0.7,0.3-1.4,0.7-2.1,1.2l-2.7-1.2c-0.3-0.1-0.6,0-0.7,0.2l-2.3,4c-0.2,0.3-0.1,0.6,0.2,0.7l2.3,1.7c0,0.5,0,0.8,0,1.2
	c0,0.4,0,0.7,0.1,1.2l-2.3,1.7c-0.3,0.2-0.3,0.5-0.2,0.8l2.3,4c0.2,0.3,0.5,0.4,0.7,0.2l2.7-1.2c0.7,0.5,1.3,0.8,2.1,1.2l0.3,2.9
	c0,0.3,0.3,0.5,0.6,0.5h4.6c0.3,0,0.6-0.2,0.6-0.5l0.3-2.9c0.7-0.3,1.4-0.7,2.1-1.2l2.7,1.2c0.3,0.1,0.6,0,0.8-0.2l2.3-4
	c0.2-0.3,0.1-0.6-0.2-0.8L585.7-367.4z M577.4-363.9c-2.6,0-4.7-2.1-4.7-4.7c0-2.6,2.1-4.7,4.7-4.7c2.6,0,4.7,2.1,4.7,4.7
	C582-366,580-363.9,577.4-363.9z"/>
<g>
	<path class="st8" d="M648.2-362.7h-2.5c0-9.2,5.1-9.6,9.2-9.9c4.1-0.3,7-0.6,7-7.6h2.5c0,9.3-5.2,9.7-9.3,10.1
		C651.1-369.8,648.2-369.6,648.2-362.7z"/>
</g>
<rect x="619.4" y="-362.7" class="st10" width="55" height="25"/>
<g>
	<rect x="621.9" y="-360.2" class="st8" width="5" height="5"/>
	<rect x="629.4" y="-360.2" class="st8" width="5" height="5"/>
	<rect x="636.9" y="-360.2" class="st8" width="5" height="5"/>
	<rect x="644.4" y="-360.2" class="st8" width="5" height="5"/>
	<rect x="651.9" y="-360.2" class="st8" width="5" height="5"/>
	<rect x="659.4" y="-360.2" class="st8" width="5" height="5"/>
	<rect x="666.9" y="-360.2" class="st8" width="5" height="5"/>
	<rect x="621.9" y="-345.2" class="st8" width="5" height="5"/>
	<rect x="629.4" y="-345.2" class="st8" width="5" height="5"/>
	<rect x="636.9" y="-345.2" class="st8" width="20" height="5"/>
	<rect x="659.4" y="-345.2" class="st8" width="5" height="5"/>
	<rect x="666.9" y="-345.2" class="st8" width="5" height="5"/>
	<rect x="621.9" y="-352.7" class="st8" width="8.8" height="5"/>
	<rect x="633.2" y="-352.7" class="st8" width="5" height="5"/>
	<rect x="640.7" y="-352.7" class="st8" width="5" height="5"/>
	<rect x="648.2" y="-352.7" class="st8" width="5" height="5"/>
	<rect x="655.7" y="-352.7" class="st8" width="5" height="5"/>
	<rect x="663.2" y="-352.7" class="st8" width="8.8" height="5"/>
</g>
<g>
	
		<rect x="272.5" y="-211.8" transform="matrix(-0.707 0.7072 -0.7072 -0.707 325.3397 -540.418)" class="st15" width="4.2" height="17.9"/>
	<circle class="st15" cx="257.1" cy="-220.3" r="16.8"/>
</g>
<rect x="274.3" y="-207.5" transform="matrix(-0.7072 0.707 -0.707 -0.7072 329.6201 -538.6599)" class="st17" width="4.2" height="12.9"/>
<circle class="st20" cx="257.1" cy="-220.3" r="13.7"/>
<path class="st6" d="M264.4-226.4c-1.8-2.1-4.4-3.4-7.3-3.4c-2.8,0-5.5,1.3-7.3,3.4c-0.4,0.4-0.3,1.2,0.1,1.5
	c0.4,0.4,1.2,0.3,1.5-0.1c1.5-1.7,3.5-2.6,5.7-2.6c2.2,0,4.2,0.9,5.7,2.6c0.2,0.2,0.5,0.4,0.8,0.4c0.2,0,0.5-0.1,0.6-0.2
	C264.7-225.2,264.7-226,264.4-226.4z"/>
<path class="st15" d="M313.3-215.8c0,12.9,17.3,19.5,17.3,19.5s17.3-6.5,17.3-19.5c0-5.4,0-18.4,0-18.4c-4.3,0-17.3-3.3-17.3-3.3
	s-13.1,3.3-17.3,3.3C313.3-234.3,313.3-221.2,313.3-215.8z"/>
<path class="st17" d="M348-215.8c0,12.9-17.3,19.5-17.3,19.5v-41.2c0,0,13.1,3.3,17.3,3.3C348-234.3,348-221.2,348-215.8z"/>
<path class="st20" d="M343.7-215.8c0,7.8-9.3,13-13,14.8c-3.7-1.8-13-6.9-13-14.8v-14.5c4.5-0.7,10.4-2.1,13-2.7
	c2.7,0.6,8.5,2,13,2.7V-215.8z"/>
<path class="st22" d="M343.7-215.8c0,7.8-9.3,13-13,14.8l0-32c2.7,0.6,8.5,2,13,2.7V-215.8z"/>
<circle class="st6" cx="315.5" cy="-231" r="1.1"/>
<circle class="st6" cx="323.1" cy="-233.2" r="1.1"/>
<circle class="st6" cx="330.7" cy="-235.4" r="1.1"/>
<circle class="st6" cx="315.5" cy="-224.5" r="1.1"/>
<circle class="st6" cx="315.5" cy="-218" r="1.1"/>
<circle class="st6" cx="316.6" cy="-211.5" r="1.1"/>
<circle class="st6" cx="319.8" cy="-206.1" r="1.1"/>
<circle class="st6" cx="325.3" cy="-201.7" r="1.1"/>
<circle class="st6" cx="345.9" cy="-231" r="1.1"/>
<circle class="st6" cx="338.3" cy="-233.2" r="1.1"/>
<circle class="st6" cx="345.9" cy="-224.5" r="1.1"/>
<circle class="st6" cx="345.9" cy="-218" r="1.1"/>
<circle class="st6" cx="344.8" cy="-211.5" r="1.1"/>
<circle class="st6" cx="341.5" cy="-206.1" r="1.1"/>
<circle class="st6" cx="336.1" cy="-201.7" r="1.1"/>
<polygon class="st6" points="330.7,-214.9 343.7,-223.8 343.7,-228.1 330.7,-219.3 "/>
<path class="st6" d="M330.7-219.3l-11.9,8.1c0.5,1.1,1.2,2.1,2,3l9.9-6.7L330.7-219.3z"/>
<polygon class="st6" points="326.4,-224.5 324.2,-221.8 322,-224.5 324.2,-227.2 "/>
<polygon class="st6" points="339.4,-211.5 337.2,-208.8 335,-211.5 337.2,-214.2 "/>
<circle class="st19" cx="424.3" cy="-228.7" r="8.4"/>
<circle class="st19" cx="399" cy="-228.7" r="8.4"/>
<path class="st18" d="M443.5-216.1l-21.4,4.2h-20.6l-21.4-4.2l6-11.1c1.5-2.7,4.3-4.3,7.4-4.3h36.7c3.1,0,5.9,1.7,7.4,4.3
	L443.5-216.1z"/>
<circle class="st19" cx="431.3" cy="-209.1" r="14"/>
<circle class="st19" cx="392" cy="-209.1" r="14"/>
<circle class="st19" cx="411.6" cy="-211.9" r="7"/>
<circle class="st20" cx="411.6" cy="-211.9" r="2.8"/>
<g>
	<circle class="st20" cx="431.3" cy="-209.1" r="9.8"/>
	<circle class="st20" cx="392" cy="-209.1" r="9.8"/>
</g>
<g>
	<path class="st6" d="M436.5-212.3c-1.4-1.5-3.2-2.4-5.2-2.4c-2,0-3.9,0.8-5.2,2.4c-0.6,0.6-0.4,1.4,0.1,2c0.6,0.6,1.4,0.4,2-0.1
		c1.7-1.8,4.6-1.8,6.3,0c0.3,0.3,0.7,0.4,1,0.4c0.3,0,0.7-0.1,1-0.4C437-210.9,437-211.8,436.5-212.3z"/>
	<path class="st6" d="M392-214.7c-2,0-3.9,0.8-5.2,2.4c-0.6,0.6-0.4,1.4,0.1,2c0.6,0.6,1.4,0.4,2-0.1c1.7-1.8,4.6-1.8,6.3,0
		c0.3,0.3,0.7,0.4,1,0.4c0.3,0,0.7-0.1,1-0.4c0.6-0.6,0.6-1.4,0.1-2C396-213.9,394-214.7,392-214.7z"/>
</g>
<path class="st17" d="M495.7-218.3h13.5l6.2,6.2v-17.7c0-2.3-1.9-4.2-4.2-4.2h-15.6c-2.3,0-4.2,1.9-4.2,4.2v7.3
	C491.6-220.2,493.4-218.3,495.7-218.3z"/>
<path class="st15" d="M493.6-221.4h-13.5l-6.2,6.2v-17.7c0-2.3,1.9-4.2,4.2-4.2h15.6c2.3,0,4.2,1.9,4.2,4.2v7.3
	C497.8-223.3,495.9-221.4,493.6-221.4z"/>
<g>
	<circle class="st15" cx="482.2" cy="-209" r="5.2"/>
	<circle class="st15" cx="507.1" cy="-209" r="5.2"/>
</g>
<g>
	<path class="st17" d="M490.5-197.6c0,0-2.3-4.2-8.3-4.2c-6,0-8.3,4.2-8.3,4.2v2.1h16.6V-197.6L490.5-197.6z"/>
	<path class="st17" d="M515.5-197.6c0,0-2.3-4.2-8.3-4.2c-6,0-8.3,4.2-8.3,4.2v2.1h16.6V-197.6z"/>
</g>
<path class="st19" d="M566.6-207c0.1-0.4,0.1-0.9,0.1-1.3c0-0.5,0-0.9-0.1-1.3l2.7-1.9c0.3-0.2,0.4-0.6,0.2-0.9l-2.6-4.4
	c-0.2-0.3-0.5-0.4-0.8-0.3l-2.9,1.4c-0.7-0.6-1.4-0.9-2.3-1.3l-0.3-3.2c0-0.3-0.3-0.6-0.6-0.6h-5c-0.3,0-0.6,0.3-0.6,0.6l-0.4,3.3
	c-0.9,0.3-1.5,0.8-2.3,1.3l-2.9-1.3c-0.3-0.1-0.7,0-0.8,0.3l-2.6,4.4c-0.2,0.3-0.1,0.7,0.2,0.9l2.7,1.9c-0.1,0.4-0.1,0.9-0.1,1.3
	c0,0.5,0,0.9,0.1,1.3l-2.7,1.9c-0.3,0.2-0.4,0.6-0.2,0.9l2.6,4.4c0.2,0.3,0.5,0.4,0.8,0.3l2.9-1.3c0.7,0.6,1.4,0.9,2.3,1.3l0.3,3.2
	c0,0.3,0.3,0.6,0.6,0.6h5c0.3,0,0.6-0.3,0.6-0.6l0.3-3.2c0.9-0.3,1.5-0.8,2.3-1.3l2.9,1.3c0.3,0.1,0.7,0,0.8-0.3l2.6-4.4
	c0.2-0.3,0.1-0.7-0.2-0.9L566.6-207z M557.5-203.6c-2.7,0-4.7-2.1-4.7-4.7c0-2.7,2.1-4.7,4.7-4.7c2.7,0,4.7,2.1,4.7,4.7
	C562.2-205.7,560.1-203.6,557.5-203.6z"/>
<path class="st18" d="M582-225.1c0.1-0.5,0.1-0.9,0.1-1.2c0-0.4,0-0.8-0.1-1.2l2.4-1.7c0.3-0.2,0.3-0.5,0.2-0.8l-2.4-4.1
	c-0.2-0.3-0.5-0.4-0.8-0.2l-2.7,1.2c-0.7-0.5-1.3-0.9-2.1-1.2l-0.3-2.9c0.1-0.3-0.1-0.5-0.4-0.5h-4.6c-0.3,0-0.6,0.2-0.6,0.5
	l-0.3,2.9c-0.8,0.3-1.4,0.7-2.1,1.2l-2.7-1.2c-0.3-0.1-0.6,0-0.8,0.2l-2.4,4.1c-0.2,0.3-0.1,0.6,0.2,0.8l2.4,1.7c0,0.5,0,0.9,0,1.2
	c0,0.4,0,0.8,0.1,1.2l-2.4,1.7c-0.3,0.2-0.3,0.5-0.2,0.8l2.4,4.1c0.2,0.3,0.5,0.4,0.8,0.2l2.7-1.2c0.7,0.5,1.3,0.9,2.1,1.2l0.3,2.9
	c0,0.3,0.3,0.5,0.6,0.5h4.6c0.3,0,0.6-0.2,0.6-0.5l0.3-2.9c0.8-0.3,1.4-0.7,2.1-1.2l2.7,1.2c0.3,0.1,0.6,0,0.8-0.2l2.4-4.1
	c0.2-0.3,0.1-0.6-0.2-0.8L582-225.1z M573.6-221.6c-2.7,0-4.7-2.1-4.7-4.7c0-2.7,2.1-4.7,4.7-4.7c2.7,0,4.7,2.1,4.7,4.7
	C578.3-223.7,576.2-221.6,573.6-221.6z"/>
<g>
	<path class="st15" d="M643.3-219.9h-2.4c0-9,5-9.3,9-9.7c4-0.3,6.8-0.5,6.8-7.4h2.4c0,9.1-5,9.5-9.1,9.8
		C646.1-226.8,643.3-226.6,643.3-219.9z"/>
</g>
<rect x="615.3" y="-219.9" class="st17" width="53.5" height="24.3"/>
<g>
	<rect x="617.7" y="-217.5" class="st15" width="4.9" height="4.9"/>
	<rect x="625" y="-217.5" class="st15" width="4.9" height="4.9"/>
	<rect x="632.3" y="-217.5" class="st15" width="4.9" height="4.9"/>
	<rect x="639.6" y="-217.5" class="st15" width="4.9" height="4.9"/>
	<rect x="646.9" y="-217.5" class="st15" width="4.9" height="4.9"/>
	<rect x="654.2" y="-217.5" class="st15" width="4.9" height="4.9"/>
	<rect x="661.5" y="-217.5" class="st15" width="4.9" height="4.9"/>
	<rect x="617.7" y="-202.9" class="st15" width="4.9" height="4.9"/>
	<rect x="625" y="-202.9" class="st15" width="4.9" height="4.9"/>
	<rect x="632.3" y="-202.9" class="st15" width="19.5" height="4.9"/>
	<rect x="654.2" y="-202.9" class="st15" width="4.9" height="4.9"/>
	<rect x="661.5" y="-202.9" class="st15" width="4.9" height="4.9"/>
	<rect x="617.7" y="-210.2" class="st15" width="8.5" height="4.9"/>
	<rect x="628.7" y="-210.2" class="st15" width="4.9" height="4.9"/>
	<rect x="636" y="-210.2" class="st15" width="4.9" height="4.9"/>
	<rect x="643.3" y="-210.2" class="st15" width="4.9" height="4.9"/>
	<rect x="650.6" y="-210.2" class="st15" width="4.9" height="4.9"/>
	<rect x="657.9" y="-210.2" class="st15" width="8.5" height="4.9"/>
</g>
<circle class="st12" cx="726.5" cy="-359.3" r="22.7"/>
<circle class="st9" cx="726.5" cy="-359.3" r="18.1"/>
<rect x="725.4" y="-374" class="st14" width="2.3" height="14.7"/>
<rect x="728.9" y="-360.8" transform="matrix(0.7069 -0.7073 0.7073 0.7069 465.5039 412.2043)" class="st14" width="2.6" height="10.4"/>
<circle class="st14" cx="726.5" cy="-359.3" r="2.3"/>
<circle class="st9" cx="726.5" cy="-359.3" r="1.1"/>
<g>
	<polygon class="st8" points="812.5,-336.9 779.4,-336.9 779.4,-380.3 802.1,-380.3 812.5,-370 	"/>
</g>
<polygon class="st10" points="810.9,-367.3 801.1,-367.3 801.1,-377.1 "/>
<g>
	<rect x="787.7" y="-361.7" class="st10" width="17.6" height="2.1"/>
	<rect x="787.7" y="-357.6" class="st10" width="13.4" height="2.1"/>
	<rect x="787.7" y="-353.5" class="st10" width="17.6" height="2.1"/>
	<rect x="787.7" y="-349.3" class="st10" width="13.4" height="2.1"/>
</g>
<path class="st14" d="M894.5-348.7c0,0.8-0.6,2.8-1.4,2.8h-42.2c-0.8,0-1.4-2-1.4-2.8v-29.5c0-0.8,0.6-1.4,1.4-1.4h42.2
	c0.8,0,1.4,0.6,1.4,1.4V-348.7z"/>
<rect x="852.3" y="-376.8" class="st9" width="39.4" height="25.3"/>
<g>
	<rect x="842.5" y="-340.2" class="st14" width="59" height="2.8"/>
	<polygon class="st14" points="894.5,-348.7 849.5,-348.7 842.5,-340.2 901.5,-340.2 	"/>
</g>
<polygon class="st12" points="852.3,-347.3 891.7,-347.3 894.5,-343 849.5,-343 "/>
<g>
	<polygon class="st8" points="961.8,-341.4 933.2,-341.4 933.2,-380.4 952.6,-380.4 961.8,-371.1 	"/>
</g>
<polygon class="st9" points="960.3,-370.1 951.6,-370.1 951.6,-378.8 "/>
<rect x="967.3" y="-348.8" transform="matrix(-0.7073 0.7069 -0.7069 -0.7073 1411.6569 -1269.8304)" class="st10" width="2.9" height="12.3"/>
<circle class="st10" cx="956.7" cy="-354.8" r="11.3"/>
<circle class="st8" cx="956.7" cy="-354.8" r="9.2"/>
<rect x="968.5" y="-345.9" transform="matrix(-0.707 0.7072 -0.7072 -0.707 1414.1924 -1268.868)" class="st10" width="2.9" height="8.9"/>
<g>
	<path class="st9" d="M958.8-352.7h-9.9c0.4,1.6,1.3,3.1,2.6,4.1h7.4V-352.7z"/>
	<path class="st9" d="M948.8-356.8h9.9v-4.1h-7.5C950.1-359.9,949.2-358.4,948.8-356.8z"/>
	<path class="st9" d="M948.6-364h-9.3v2h7.5C947.3-362.6,947.9-363.4,948.6-364z"/>
	<path class="st9" d="M945.6-359.9h-6.2v2h5.5C945-358.5,945.2-359.3,945.6-359.9z"/>
	<path class="st9" d="M944.4-354.8c0-0.3,0-0.7,0.1-1h-5.2v2h5.2C944.4-354,944.4-354.4,944.4-354.8z"/>
	<path class="st9" d="M944.8-351.7h-5.5v2h6.2C945.2-350.3,945-351,944.8-351.7z"/>
</g>
<path class="st12" d="M1104.7-352.3c-3.7,0-6.7-3-6.7-6.7c0-3.7,3-6.7,6.7-6.7v-14.6c-11.8,0-21.4,9.6-21.4,21.4
	c0,11.8,9.6,21.4,21.4,21.4c4.9,0,9.6-1.7,13.3-4.6l-9-11.5C1107.7-352.8,1106.3-352.3,1104.7-352.3z"/>
<path class="st13" d="M1111.4-359h14.6c0-11.8-9.6-21.4-21.4-21.4v14.6C1108.4-365.8,1111.4-362.7,1111.4-359z"/>
<path class="st9" d="M1126.1-359h-14.6c0,2.1-1,4-2.6,5.3l9,11.5C1122.9-346.2,1126.1-352.3,1126.1-359z"/>
<rect x="1003.7" y="-379.8" class="st8" width="49.6" height="42.2"/>
<rect x="1009.9" y="-373.6" class="st9" width="37.2" height="6.2"/>
<g>
	<rect x="1009.9" y="-362.4" class="st10" width="16.1" height="19.9"/>
	<rect x="1031" y="-362.4" class="st10" width="16.1" height="19.9"/>
</g>
<g>
	<g id="XMLID_2_">
		<g>
			<path class="st17" d="M757.5-198.1v2.8h-58.1v-2.8l6.9-8.3v-29.1c0-0.8,0.6-1.4,1.4-1.4h41.5c0.8,0,1.4,0.6,1.4,1.4v29.1
				L757.5-198.1z"/>
		</g>
		<g>
		</g>
	</g>
</g>
<rect x="709.1" y="-234" class="st6" width="38.7" height="24.9"/>
<polygon class="st15" points="709.1,-205 747.8,-205 750.6,-200.8 706.3,-200.8 "/>
<path class="st17" d="M825.2-237.3h-34.3c-1.9,0-3.4,1.5-3.4,3.4v37.7l9.8-9.1h27.9c1.9,0,3.4-1.5,3.4-3.4v-25.1
	C828.7-235.8,827.1-237.3,825.2-237.3z"/>
<g>
	<rect x="792.1" y="-228.2" class="st15" width="32" height="2.3"/>
	<rect x="792.1" y="-222.4" class="st15" width="32" height="2.3"/>
	<rect x="792.1" y="-216.7" class="st15" width="18.3" height="2.3"/>
</g>
<g>
	<g id="XMLID_1_">
		<g>
			<path class="st23" d="M902.1-55.3v2.8h-59v-2.8l7-8.4v-29.5c0-0.8,0.6-1.4,1.4-1.4h42.1c0.8,0,1.4,0.6,1.4,1.4v29.5L902.1-55.3z"
				/>
		</g>
		<g>
		</g>
	</g>
</g>
<path class="st23" d="M-9.1-55.1c0,1.5-1.3,2.8-2.8,2.8h-44.8c-1.5,0-2.8-1.3-2.8-2.8v-30.8c0-1.5,1.3-2.8,2.8-2.8h44.8
	c1.5,0,2.8,1.3,2.8,2.8V-55.1z"/>
<path class="st23" d="M-21.7-84.5c0,1.5-1.3,2.8-2.8,2.8h-19.6c-1.5,0-2.8-1.3-2.8-2.8v-7c0-1.5,1.3-2.8,2.8-2.8h19.6
	c1.5,0,2.8,1.3,2.8,2.8V-84.5z"/>
<circle class="st16" cx="-16.1" cy="-81.7" r="2.8"/>
<circle class="st16" cx="-34.3" cy="-70.5" r="14"/>
<circle class="st24" cx="-34.3" cy="-70.5" r="11.2"/>
<path class="st23" d="M-39.9-64.9c0,1.6,0.4,3.2,1,4.6c1.4,0.6,3,1,4.6,1c6.2,0,11.2-5,11.2-11.2c0-1.6-0.4-3.2-1-4.6
	c-1.4-0.6-3-1-4.6-1C-34.9-76.1-39.9-71.1-39.9-64.9z"/>
<rect x="63.9" y="-79.8" class="st25" width="4.8" height="27.4"/>
<rect x="56.7" y="-71.5" class="st26" width="4.8" height="19.1"/>
<rect x="49.5" y="-77.4" class="st25" width="4.8" height="25"/>
<rect x="42.4" y="-70.3" class="st26" width="4.8" height="17.9"/>
<rect x="35.2" y="-66.7" class="st25" width="4.8" height="14.3"/>
<rect x="28.1" y="-69.1" class="st26" width="4.8" height="16.7"/>
<rect x="20.9" y="-64.3" class="st25" width="4.8" height="11.9"/>
<g>
	<polygon class="st25" points="64,-94 56.7,-86.7 51.9,-91.5 40,-79.6 34,-85.6 21.6,-73.1 25,-69.8 34,-78.9 40,-72.9 51.9,-84.8 
		56.7,-80.1 67.3,-90.7 	"/>
	<polygon class="st25" points="68.6,-95.3 57.9,-95.3 68.6,-84.6 	"/>
</g>
<circle class="st16" cx="120.5" cy="-73.7" r="17.2"/>
<g>
	<path class="st24" d="M118.7-76.7c-1.7,1-2.2,3.1-1.2,4.7c1,1.7,3.1,2.2,4.8,1.2c1.7-1,2.2-3.1,1.2-4.7
		C122.5-77.1,120.4-77.7,118.7-76.7"/>
	<polygon class="st24" points="133.5,-81.3 122.7,-72.3 120.3,-76.3 	"/>
</g>
<g>
	<path class="st24" d="M106.7-74.9H101c0,0.4-0.1,0.8-0.1,1.1c0,0.4,0,0.8,0.1,1.2h5.7V-74.9z"/>
	<path class="st24" d="M108.9-66.2l-1.1-2l-5,2.7c0.3,0.7,0.7,1.4,1.1,2L108.9-66.2z"/>
</g>
<g>
	<path class="st24" d="M112.6-85.1l2-1.2l-2.8-5c-0.7,0.3-1.4,0.7-2,1.1L112.6-85.1z"/>
	<path class="st24" d="M103-82.5l4.9,2.9l1.2-2l-4.9-2.9C103.7-83.8,103.4-83.2,103-82.5z"/>
	<path class="st24" d="M134.3-72.6h5.7c0-0.4,0.1-0.8,0.1-1.1c0-0.4,0-0.8-0.1-1.2h-5.7V-72.6z"/>
	<path class="st24" d="M138.4-65.9l-5.1-2.6l-1.1,2.1l5.1,2.6C137.7-64.5,138.1-65.2,138.4-65.9z"/>
	<path class="st24" d="M131.4-90c-0.6-0.4-1.3-0.8-2-1.2l-2.9,4.9l2,1.2L131.4-90z"/>
	<path class="st24" d="M121.6-93.2c-0.4,0-0.8-0.1-1.1-0.1c-0.4,0-0.8,0-1.2,0.1v5.7h2.3V-93.2z"/>
</g>
<path class="st23" d="M120.5-95.6c-12.1,0-21.8,9.8-21.8,21.8c0,12.1,9.8,21.8,21.8,21.8c12.1,0,21.8-9.8,21.8-21.8
	C142.3-85.8,132.5-95.6,120.5-95.6z M120.5-56.5c-9.5,0-17.2-7.7-17.2-17.2c0-9.5,7.7-17.2,17.2-17.2c9.5,0,17.2,7.7,17.2,17.2
	C137.7-64.2,130-56.5,120.5-56.5z"/>
<path class="st16" d="M119.9-74.7c-0.5,0.3-0.7,1-0.4,1.6c0.3,0.5,1,0.7,1.6,0.4c0.6-0.3,0.7-1,0.4-1.6
	C121.2-74.9,120.5-75,119.9-74.7"/>
<path class="st26" d="M172.3-67.9v11.2c0,2.5,2,4.5,4.5,4.5h31.3c2.5,0,4.5-2,4.5-4.5v-11.2H172.3z"/>
<path class="st25" d="M212.5-67.9c0,2.5-2,4.5-4.5,4.5h-31.3c-2.5,0-4.5-2-4.5-4.5l3.4-13.4c0.2-2.3,2-4.5,4.5-4.5h24.6
	c2.5,0,4.1,2,4.5,4.5L212.5-67.9z"/>
<circle class="st16" cx="204.7" cy="-57.9" r="2.2"/>
<g>
	<ellipse class="st20" cx="194.1" cy="-88.7" rx="6.2" ry="6"/>
	<ellipse class="st20" cx="195.5" cy="-78.5" rx="5.1" ry="5"/>
	<ellipse class="st20" cx="188.6" cy="-83.1" rx="5.1" ry="5"/>
	<ellipse class="st20" cx="209.3" cy="-83.4" rx="4.4" ry="4.2"/>
	<ellipse class="st20" cx="203.5" cy="-80" rx="4.4" ry="4.2"/>
	<ellipse class="st20" cx="203.8" cy="-86.8" rx="4.7" ry="4.6"/>
	<ellipse class="st20" cx="198.5" cy="-84" rx="5.1" ry="5"/>
</g>
<g>
	
		<rect x="275.3" y="-69.7" transform="matrix(-0.707 0.7072 -0.7072 -0.707 430.7836 -299.5717)" class="st25" width="4.3" height="18.3"/>
	<circle class="st25" cx="259.6" cy="-78.4" r="17.2"/>
</g>
<rect x="277.1" y="-65.4" transform="matrix(-0.7071 0.7071 -0.7071 -0.7071 435.114 -297.7726)" class="st26" width="4.3" height="13.2"/>
<circle class="st20" cx="259.6" cy="-78.4" r="14"/>
<path class="st6" d="M267-84.6c-1.8-2.1-4.5-3.4-7.4-3.4c-2.9,0-5.6,1.3-7.4,3.4c-0.4,0.4-0.3,1.2,0.1,1.5c0.4,0.4,1.2,0.3,1.5-0.1
	c1.5-1.7,3.5-2.7,5.8-2.7c2.3,0,4.3,1,5.8,2.7c0.2,0.2,0.5,0.4,0.9,0.4c0.2,0,0.5-0.1,0.6-0.2C267.3-83.4,267.3-84.2,267-84.6z"/>
<path class="st23" d="M315.2-72.9c0,13.4,17.9,20.2,17.9,20.2s17.9-6.7,17.9-20.2c0-5.5,0-19.1,0-19.1c-4.4,0-17.9-3.4-17.9-3.4
	S319.6-92,315.2-92C315.2-92,315.2-78.4,315.2-72.9z"/>
<path class="st24" d="M351.1-72.9c0,13.4-17.9,20.2-17.9,20.2v-42.6c0,0,13.5,3.4,17.9,3.4C351.1-92,351.1-78.4,351.1-72.9z"/>
<path class="st20" d="M346.6-72.9c0,8.1-9.6,13.5-13.5,15.3c-3.9-1.8-13.5-7.2-13.5-15.3v-15c4.7-0.7,10.7-2.1,13.5-2.8
	c2.7,0.7,8.8,2.1,13.5,2.8V-72.9z"/>
<path class="st22" d="M346.6-72.9c0,8.1-9.6,13.5-13.5,15.3l0-33.1c2.7,0.7,8.8,2.1,13.5,2.8V-72.9z"/>
<circle class="st6" cx="317.4" cy="-88.6" r="1.1"/>
<circle class="st6" cx="325.3" cy="-90.8" r="1.1"/>
<circle class="st6" cx="333.1" cy="-93.1" r="1.1"/>
<circle class="st6" cx="317.4" cy="-81.9" r="1.1"/>
<circle class="st6" cx="317.4" cy="-75.1" r="1.1"/>
<circle class="st6" cx="318.5" cy="-68.4" r="1.1"/>
<circle class="st6" cx="321.9" cy="-62.8" r="1.1"/>
<circle class="st6" cx="327.5" cy="-58.3" r="1.1"/>
<circle class="st6" cx="348.8" cy="-88.6" r="1.1"/>
<circle class="st6" cx="341" cy="-90.8" r="1.1"/>
<circle class="st6" cx="348.8" cy="-81.9" r="1.1"/>
<circle class="st6" cx="348.8" cy="-75.1" r="1.1"/>
<circle class="st6" cx="347.7" cy="-68.4" r="1.1"/>
<circle class="st6" cx="344.3" cy="-62.8" r="1.1"/>
<circle class="st6" cx="338.7" cy="-58.3" r="1.1"/>
<polygon class="st6" points="333.1,-72 346.6,-81.1 346.6,-85.6 333.1,-76.4 "/>
<path class="st6" d="M333.1-76.4l-12.3,8.4c0.5,1.1,1.2,2.1,2,3.1l10.3-7L333.1-76.4z"/>
<polygon class="st6" points="328.6,-81.9 326.4,-79.1 324.1,-81.9 326.4,-84.7 "/>
<polygon class="st6" points="342.1,-68.4 339.8,-65.6 337.6,-68.4 339.8,-71.2 "/>
<circle class="st26" cx="427.4" cy="-86.2" r="8.5"/>
<circle class="st26" cx="401.9" cy="-86.2" r="8.5"/>
<path class="st25" d="M446.7-73.5l-21.6,4.2h-20.8l-21.6-4.2l6.1-11.2c1.6-2.7,4.4-4.4,7.5-4.4h37c3.1,0,5.9,1.7,7.5,4.4L446.7-73.5
	z"/>
<circle class="st26" cx="434.4" cy="-66.4" r="14.1"/>
<circle class="st26" cx="394.9" cy="-66.4" r="14.1"/>
<circle class="st26" cx="414.7" cy="-69.2" r="7.1"/>
<circle class="st20" cx="414.7" cy="-69.2" r="2.8"/>
<g>
	<circle class="st20" cx="434.4" cy="-66.4" r="9.9"/>
	<circle class="st20" cx="394.9" cy="-66.4" r="9.9"/>
</g>
<g>
	<path class="st6" d="M439.7-69.7c-1.4-1.6-3.2-2.4-5.2-2.4c-2,0-4,0.8-5.2,2.4c-0.6,0.6-0.4,1.4,0.1,2c0.6,0.6,1.4,0.4,2-0.1
		c1.7-1.8,4.7-1.8,6.4,0c0.3,0.3,0.7,0.4,1,0.4c0.3,0,0.7-0.1,1-0.4C440.2-68.2,440.2-69.1,439.7-69.7z"/>
	<path class="st6" d="M394.9-72.1c-2,0-4,0.8-5.2,2.4c-0.6,0.6-0.4,1.4,0.1,2c0.6,0.6,1.4,0.4,2-0.1c1.7-1.8,4.7-1.8,6.4,0
		c0.3,0.3,0.7,0.4,1,0.4c0.3,0,0.7-0.1,1-0.4c0.6-0.6,0.6-1.4,0.1-2C398.8-71.2,396.8-72.1,394.9-72.1z"/>
</g>
<path class="st24" d="M500.8-75.7h13.8l6.4,6.4v-18c0-2.3-1.9-4.2-4.2-4.2h-15.9c-2.3,0-4.2,1.9-4.2,4.2v7.4
	C496.6-77.6,498.5-75.7,500.8-75.7z"/>
<path class="st20" d="M498.7-78.9H485l-6.4,6.4v-18c0-2.3,1.9-4.2,4.2-4.2h15.9c2.3,0,4.2,1.9,4.2,4.2v7.4
	C503-80.8,501.1-78.9,498.7-78.9z"/>
<g>
	<circle class="st20" cx="487.1" cy="-66.2" r="5.3"/>
	<circle class="st20" cx="512.5" cy="-66.2" r="5.3"/>
</g>
<g>
	<path class="st24" d="M495.6-54.5c0,0-2.3-4.2-8.5-4.2c-6.1,0-8.5,4.2-8.5,4.2v2.1h16.9V-54.5L495.6-54.5z"/>
	<path class="st24" d="M521-54.5c0,0-2.3-4.2-8.5-4.2c-6.1,0-8.5,4.2-8.5,4.2v2.1H521V-54.5z"/>
</g>
<path class="st26" d="M572.4-64.4c0.1-0.4,0.1-0.9,0.1-1.3c0-0.5,0-0.9-0.1-1.3l2.7-1.9c0.3-0.2,0.4-0.6,0.2-0.9l-2.6-4.4
	c-0.2-0.3-0.5-0.4-0.8-0.3l-3,1.4c-0.7-0.6-1.4-1-2.3-1.3l-0.3-3.3c0-0.3-0.3-0.6-0.6-0.6h-5.1c-0.3,0-0.6,0.3-0.6,0.6l-0.4,3.4
	c-0.9,0.3-1.5,0.8-2.3,1.3l-3-1.3c-0.3-0.1-0.7,0-0.8,0.3l-2.6,4.4c-0.2,0.3-0.1,0.7,0.2,0.9l2.7,1.9c-0.1,0.4-0.1,0.9-0.1,1.3
	c0,0.5,0,0.9,0.1,1.3l-2.7,1.9c-0.3,0.2-0.4,0.6-0.2,0.9l2.6,4.4c0.2,0.3,0.5,0.4,0.8,0.3l3-1.3c0.7,0.6,1.4,1,2.3,1.3l0.3,3.3
	c0,0.3,0.3,0.6,0.6,0.6h5.1c0.3,0,0.6-0.3,0.6-0.6l0.3-3.3c0.9-0.3,1.5-0.8,2.3-1.3l3,1.3c0.3,0.1,0.7,0,0.8-0.3l2.6-4.4
	c0.2-0.3,0.1-0.7-0.2-0.9L572.4-64.4z M563.2-60.9c-2.7,0-4.8-2.1-4.8-4.8c0-2.7,2.1-4.8,4.8-4.8c2.7,0,4.8,2.1,4.8,4.8
	C568-63,565.9-60.9,563.2-60.9z"/>
<path class="st25" d="M588.1-82.8c0.1-0.5,0.1-0.9,0.1-1.3c0-0.4,0-0.8-0.1-1.3l2.4-1.7c0.3-0.2,0.3-0.5,0.2-0.8l-2.4-4.1
	c-0.2-0.3-0.5-0.4-0.8-0.2l-2.8,1.3c-0.7-0.5-1.3-0.9-2.1-1.3l-0.3-3c0.1-0.3-0.1-0.5-0.4-0.5h-4.7c-0.3,0-0.6,0.2-0.6,0.5l-0.3,3
	c-0.8,0.3-1.4,0.7-2.1,1.3l-2.8-1.3c-0.3-0.1-0.6,0-0.8,0.2l-2.4,4.1c-0.2,0.3-0.1,0.6,0.2,0.8l2.4,1.7c0,0.5,0,0.9,0,1.3
	c0,0.4,0,0.8,0.1,1.3l-2.4,1.7c-0.3,0.2-0.3,0.5-0.2,0.8l2.4,4.1c0.2,0.3,0.5,0.4,0.8,0.2l2.8-1.3c0.7,0.5,1.3,0.9,2.1,1.3l0.3,3
	c0,0.3,0.3,0.5,0.6,0.5h4.7c0.3,0,0.6-0.2,0.6-0.5l0.3-3c0.8-0.3,1.4-0.7,2.1-1.3l2.8,1.3c0.3,0.1,0.6,0,0.8-0.2l2.4-4.1
	c0.2-0.3,0.1-0.6-0.2-0.8L588.1-82.8z M579.5-79.2c-2.7,0-4.8-2.1-4.8-4.8c0-2.7,2.1-4.8,4.8-4.8c2.7,0,4.8,2.1,4.8,4.8
	C584.4-81.3,582.2-79.2,579.5-79.2z"/>
<g>
	<path class="st23" d="M650.4-77.2h-2.5c0-9.2,5.1-9.6,9.2-9.9c4.1-0.3,7-0.6,7-7.5h2.5c0,9.3-5.1,9.7-9.3,10
		C653.3-84.3,650.4-84.1,650.4-77.2z"/>
</g>
<rect x="621.7" y="-77.2" class="st24" width="54.9" height="24.9"/>
<g>
	<rect x="624.2" y="-74.7" class="st23" width="5" height="5"/>
	<rect x="631.7" y="-74.7" class="st23" width="5" height="5"/>
	<rect x="639.1" y="-74.7" class="st23" width="5" height="5"/>
	<rect x="646.6" y="-74.7" class="st23" width="5" height="5"/>
	<rect x="654.1" y="-74.7" class="st23" width="5" height="5"/>
	<rect x="661.6" y="-74.7" class="st23" width="5" height="5"/>
	<rect x="669.1" y="-74.7" class="st23" width="5" height="5"/>
	<rect x="624.2" y="-59.7" class="st23" width="5" height="5"/>
	<rect x="631.7" y="-59.7" class="st23" width="5" height="5"/>
	<rect x="639.1" y="-59.7" class="st23" width="20" height="5"/>
	<rect x="661.6" y="-59.7" class="st23" width="5" height="5"/>
	<rect x="669.1" y="-59.7" class="st23" width="5" height="5"/>
	<rect x="624.2" y="-67.2" class="st23" width="8.7" height="5"/>
	<rect x="635.4" y="-67.2" class="st23" width="5" height="5"/>
	<rect x="642.9" y="-67.2" class="st23" width="5" height="5"/>
	<rect x="650.4" y="-67.2" class="st23" width="5" height="5"/>
	<rect x="657.9" y="-67.2" class="st23" width="5" height="5"/>
	<rect x="665.3" y="-67.2" class="st23" width="8.7" height="5"/>
</g>
<circle class="st25" cx="728.1" cy="-73.6" r="21.5"/>
<circle class="st6" cx="728.1" cy="-73.6" r="17.2"/>
<rect x="727" y="-87.6" class="st26" width="2.2" height="14"/>
<rect x="730.3" y="-75.1" transform="matrix(0.707 -0.7072 0.7072 0.707 263.918 496.8314)" class="st26" width="2.5" height="9.9"/>
<circle class="st26" cx="728.1" cy="-73.6" r="2.2"/>
<circle class="st9" cx="728.1" cy="-73.6" r="1.1"/>
<g>
	<polygon class="st23" points="813.1,-52.4 780.3,-52.4 780.3,-95.3 802.8,-95.3 813.1,-85.1 	"/>
</g>
<polygon class="st24" points="811.5,-82.4 801.8,-82.4 801.8,-92.1 "/>
<g>
	<rect x="788.5" y="-76.9" class="st24" width="17.4" height="2"/>
	<rect x="788.5" y="-72.8" class="st24" width="13.3" height="2"/>
	<rect x="788.5" y="-68.7" class="st24" width="17.4" height="2"/>
	<rect x="788.5" y="-64.6" class="st24" width="13.3" height="2"/>
</g>
<rect x="852.9" y="-91.9" class="st6" width="39.3" height="25.3"/>
<polygon class="st24" points="852.9,-62.4 892.2,-62.4 895,-58.2 850.1,-58.2 "/>
<rect x="1005.1" y="-94.6" class="st23" width="50.1" height="42.6"/>
<rect x="1011.3" y="-88.4" class="st9" width="37.6" height="6.3"/>
<g>
	<rect x="1011.3" y="-77.1" class="st24" width="16.3" height="20.1"/>
	<rect x="1032.6" y="-77.1" class="st24" width="16.3" height="20.1"/>
</g>
<g>
	<rect x="1250.4" y="-94.7" class="st24" width="2.1" height="38.1"/>
	
		<rect x="1247.7" y="-66.8" transform="matrix(-0.7071 -0.7071 0.7071 -0.7071 2173.6941 781.8853)" class="st24" width="2.1" height="15"/>
	
		<rect x="1253" y="-66.8" transform="matrix(0.7071 -0.7071 0.7071 0.7071 409.174 869.4041)" class="st24" width="2.1" height="15"/>
</g>
<rect x="1230.2" y="-91.6" class="st24" width="42.4" height="29.7"/>
<g>
	<rect x="1229.2" y="-92.6" class="st23" width="44.5" height="4.2"/>
	<rect x="1229.2" y="-63" class="st23" width="44.5" height="2.1"/>
	<circle class="st23" cx="1259.4" cy="-54" r="1.6"/>
	<circle class="st23" cx="1243.5" cy="-54" r="1.6"/>
</g>
<g>
	<polygon class="st6" points="1259.8,-80 1253.5,-73.7 1247.2,-80 1238.6,-71.5 1240.9,-69.2 1247.2,-75.6 1253.5,-69.2 
		1262.1,-77.7 	"/>
	<polygon class="st6" points="1264.1,-74.6 1256.7,-82 1264.1,-82 	"/>
</g>
<path class="st24" d="M1198.9-73.7c0,11.7-9.5,21-21,21s-21-9.3-21-21c0-11.7,9.3-21,21-21S1198.9-85.4,1198.9-73.7"/>
<g>
	<path class="st23" d="M1177.6-64.1c0-0.4-0.2-0.6-0.6-0.8c-1.3-0.4-2.5-0.4-3.6-1.5c-0.2-0.4-0.2-0.8-0.4-1.3
		c-0.4-0.4-1.5-0.6-2.1-0.8h-2.7h-1.5c-0.6-0.2-1-1.1-1.5-1.7c0-0.2,0-0.6-0.4-0.6c-0.4-0.2-0.8,0.2-1.3,0c-0.2-0.2-0.2-0.4-0.2-0.6
		c0-0.6,0.4-1.3,0.8-1.7c0.6-0.4,1.3,0.2,1.9,0.2c0.2,0,0.2,0,0.4,0.2c0.6,0.2,0.8,1,0.8,1.7v0.4c0,0.2,0.2,0.2,0.4,0.2
		c0.2-1.1,0.2-2.1,0.4-3.2c0-1.3,1.3-2.5,2.3-2.9c0.4-0.2,0.6,0.2,1,0c1.3-0.4,4.4-1.7,3.8-3.4c-0.4-1.5-1.7-2.9-3.4-2.7
		c-0.4,0.2-0.6,0.4-1,0.6c-0.6,0.4-1.9,1.7-2.5,1.7c-1-0.2-1-1.7-0.8-2.3c0.2-0.8,2.1-3.6,3.4-3.1c0.2,0.2,0.6,0.6,0.8,0.8
		c0.4,0.2,1,0.2,1.7,0.2c0.2,0,0.4,0,0.6-0.2c0.2-0.2,0.2-0.2,0.2-0.4c0-0.6-0.6-1.3-1-1.7s-1-0.8-1.7-1c-2.1-0.6-5.5,0.2-7.1,1.7
		c-1.7,1.5-2.9,4-3.8,6.1c-0.4,1.3-0.8,2.9-1,4.4c-0.2,1-0.4,1.9,0.2,2.9c0.6,1.3,1.9,2.5,3.2,3.4c0.8,0.6,2.5,0.6,3.4,1.7
		c0.6,0.8,0.4,1.9,0.4,2.9c0,1.3,0.8,2.3,1.3,3.4c0.2,0.6,0.4,1.5,0.6,2.1c0,0.2,0.2,1.5,0.2,1.7c1.3,0.6,2.3,1.3,3.8,1.7
		c0.2,0,1-1.3,1-1.5c0.6-0.6,1-1.5,1.7-1.9c0.4-0.2,0.8-0.4,1.3-0.8c0.4-0.4,0.6-1.3,0.8-1.9C1177.6-62.6,1177.9-63.4,1177.6-64.1"
		/>
	<path class="st23" d="M1178.1-83.4c0.2,0,0.4-0.2,0.8-0.4c0.6-0.4,1.3-1,1.9-1.5c0.6-0.4,1.3-1.1,1.7-1.5c0.6-0.4,1-1.3,1.3-1.9
		c0.2-0.4,0.8-1.3,0.6-1.9c-0.2-0.4-1.3-0.6-1.7-0.8c-1.7-0.4-3.2-0.6-4.8-0.6c-0.6,0-1.5,0.2-1.7,0.8c-0.2,1.1,0.6,0.8,1.5,1.1
		c0,0,0.2,1.7,0.2,1.9c0.2,1.1-0.4,1.7-0.4,2.7c0,0.6,0,1.7,0.4,2.1H1178.1z"/>
	<path class="st23" d="M1195.7-68.7c0.2-0.4,0.2-1.1,0.4-1.5c0.2-1.1,0.2-2.1,0.2-3.2c0-2.1-0.2-4.2-0.8-6.1
		c-0.4-0.6-0.6-1.3-0.8-1.9c-0.4-1-1-2.1-1.9-2.9c-0.8-1-1.9-4-3.8-3.1c-0.6,0.2-1,1.1-1.5,1.5c-0.4,0.6-0.8,1.3-1.3,1.9
		c-0.2,0.2-0.4,0.6-0.2,0.8c0,0.2,0.2,0.2,0.4,0.2c0.4,0.2,0.6,0.2,1.1,0.4c0.2,0,0.4,0.2,0.2,0.4c0,0,0,0.2-0.2,0.2
		c-1.1,1-2.1,1.9-3.2,2.9c-0.2,0.2-0.4,0.6-0.4,0.8c0,0.2,0.2,0.2,0.2,0.4c0,0.2-0.2,0.2-0.4,0.4c-0.4,0.2-0.8,0.4-1,0.6
		c-0.2,0.4,0,1-0.2,1.5c-0.2,1-0.8,1.9-1.3,2.9c-0.4,0.6-0.6,1.3-1,1.9c0,0.8-0.2,1.5,0.2,2.1c1.1,1.5,2.9,0.6,4.4,1.3
		c0.4,0.2,0.8,0.2,1.1,0.6c0.6,0.6,0.6,1.7,0.8,2.3c0.2,0.8,0.4,1.7,0.8,2.5c0.2,1.1,0.6,2.1,0.8,2.9c1.9-1.5,3.6-3.1,4.8-5.2
		C1194.4-65.3,1195.1-67,1195.7-68.7"/>
</g>
<circle class="st6" cx="953.3" cy="-73.6" r="16.8"/>
<g>
	<path class="st26" d="M951.6-76.4c-1.6,0.9-2.1,3-1.2,4.6c1,1.6,3,2.1,4.6,1.2c1.6-0.9,2.1-3,1.2-4.6
		C955.3-76.8,953.2-77.4,951.6-76.4"/>
	<polygon class="st26" points="965.9,-80.9 955.4,-72.2 953.1,-76 	"/>
</g>
<g>
	<path class="st26" d="M939.9-74.7h-5.5c0,0.4-0.1,0.7-0.1,1.1c0,0.4,0,0.8,0.1,1.1h5.5V-74.7z"/>
	<path class="st26" d="M942-66.3l-1.1-2l-4.9,2.6c0.3,0.7,0.7,1.3,1.1,2L942-66.3z"/>
</g>
<g>
	<path class="st26" d="M945.7-84.6l2-1.1l-2.7-4.8c-0.7,0.3-1.3,0.7-2,1.1L945.7-84.6z"/>
	<path class="st26" d="M936.3-82l4.8,2.8l1.1-2l-4.8-2.8C937-83.4,936.7-82.7,936.3-82z"/>
	<path class="st26" d="M966.7-72.4h5.5c0-0.4,0.1-0.7,0.1-1.1c0-0.4,0-0.8-0.1-1.1h-5.5V-72.4z"/>
	<path class="st26" d="M970.7-65.9l-4.9-2.5l-1,2l4.9,2.5C970-64.6,970.4-65.2,970.7-65.9z"/>
	<path class="st26" d="M963.9-89.3c-0.6-0.4-1.3-0.8-2-1.1l-2.8,4.8l1.9,1.1L963.9-89.3z"/>
	<path class="st26" d="M954.4-92.5c-0.4,0-0.7-0.1-1.1-0.1c-0.4,0-0.8,0-1.1,0.1v5.5h2.3V-92.5z"/>
</g>
<path class="st25" d="M953.3-94.8c-11.7,0-21.2,9.5-21.2,21.2c0,11.7,9.5,21.2,21.2,21.2s21.2-9.5,21.2-21.2
	C974.5-85.3,965-94.8,953.3-94.8z M953.3-56.8c-9.3,0-16.8-7.5-16.8-16.8c0-9.3,7.5-16.8,16.8-16.8c9.3,0,16.8,7.5,16.8,16.8
	C970-64.3,962.5-56.8,953.3-56.8z"/>
<path class="st16" d="M952.7-74.5c-0.5,0.3-0.7,1-0.4,1.5c0.3,0.5,1,0.7,1.5,0.4c0.5-0.3,0.7-1,0.4-1.5
	C954-74.6,953.3-74.8,952.7-74.5"/>
<path class="st24" d="M1088.5-62.8c1.8-1.8,4.7-1.8,6.5,0c1.8,1.8,1.8,4.7,0,6.5c-1.8,1.8-9,2.4-9,2.4S1086.6-61,1088.5-62.8z"/>
<path class="st9" d="M1090.1-61.2c0.9-0.9,2.4-0.9,3.3,0c0.9,0.9,0.9,2.4,0,3.3c-0.9,0.9-4.1,0.8-4.1,0.8S1089.2-60.2,1090.1-61.2z"
	/>
<path class="st9" d="M1113-90.6c-2.5,2.5-23.7,23.7-23.7,23.7l9.8,9.8c0,0,21.2-21.2,23.7-23.7c1.3-1.3,2.4-5.1,3.1-8.4l-4.5-4.5
	C1118-92.9,1114.3-91.9,1113-90.6z"/>
<g>
	<polygon class="st24" points="1103.2,-53 1100.7,-58.7 1110.5,-68.5 1108.9,-58.7 	"/>
	<polygon class="st24" points="1085.2,-71 1090.9,-68.5 1100.7,-78.3 1090.9,-76.7 	"/>
	<path class="st24" d="M1121.3-93.6l4.5,4.5c0.6-3,1-5.5,1-5.5S1124.3-94.3,1121.3-93.6z"/>
	<polygon class="st24" points="1099.1,-57.1 1095.8,-57.1 1089.3,-63.6 1089.3,-66.9 	"/>
</g>
<g>
	<circle class="st24" cx="1113" cy="-80.8" r="2.3"/>
	<circle class="st24" cx="1107.2" cy="-75" r="2.3"/>
	<circle class="st24" cx="1101.5" cy="-69.3" r="2.3"/>
</g>
<path class="st25" d="M1420.5-95.8h-36.6c-2,0-3.7,1.6-3.7,3.7v40.3l10.4-9.8h29.8c2,0,3.7-1.6,3.7-3.7v-26.8
	C1424.1-94.2,1422.5-95.8,1420.5-95.8z"/>
<g>
	<rect x="1385.1" y="-86.1" class="st26" width="34.2" height="2.4"/>
	<rect x="1385.1" y="-80" class="st26" width="34.2" height="2.4"/>
	<rect x="1385.1" y="-73.9" class="st26" width="19.5" height="2.4"/>
</g>
<g>
	<polygon class="st23" points="1481.4,-57.3 1454.1,-57.3 1454.1,-94.4 1472.6,-94.4 1481.4,-85.6 	"/>
</g>
<polygon class="st6" points="1479.9,-84.6 1471.7,-84.6 1471.7,-92.9 "/>
<rect x="1486.6" y="-64.3" transform="matrix(-0.7072 0.707 -0.707 -0.7072 2498.9219 -1151.8405)" class="st24" width="2.7" height="11.7"/>
<circle class="st24" cx="1476.5" cy="-70" r="10.7"/>
<circle class="st23" cx="1476.5" cy="-70" r="8.8"/>
<rect x="1487.8" y="-61.6" transform="matrix(-0.7072 0.707 -0.707 -0.7072 2501.6619 -1150.7682)" class="st24" width="2.7" height="8.5"/>
<g>
	<path class="st6" d="M1478.5-68.1h-9.5c0.4,1.6,1.3,2.9,2.4,3.9h7V-68.1z"/>
	<path class="st6" d="M1469-72h9.5v-3.9h-7.1C1470.2-74.9,1469.4-73.5,1469-72z"/>
	<path class="st6" d="M1468.8-78.8h-8.9v1.9h7.1C1467.6-77.5,1468.1-78.2,1468.8-78.8z"/>
	<path class="st6" d="M1465.9-74.9h-5.9v1.9h5.3C1465.4-73.6,1465.6-74.3,1465.9-74.9z"/>
	<path class="st6" d="M1464.8-70c0-0.3,0-0.7,0.1-1h-5v1.9h5C1464.8-69.3,1464.8-69.7,1464.8-70z"/>
	<path class="st6" d="M1465.2-67.1h-5.3v1.9h5.9C1465.6-65.7,1465.4-66.4,1465.2-67.1z"/>
</g>
<rect x="1345.5" y="-79.2" class="st9" width="4.7" height="26.8"/>
<rect x="1338.6" y="-71.1" class="st24" width="4.7" height="18.6"/>
<rect x="1331.6" y="-76.9" class="st9" width="4.7" height="24.5"/>
<rect x="1324.6" y="-69.9" class="st24" width="4.7" height="17.5"/>
<rect x="1317.6" y="-66.4" class="st9" width="4.7" height="14"/>
<rect x="1310.6" y="-68.7" class="st24" width="4.7" height="16.3"/>
<rect x="1303.6" y="-64.1" class="st9" width="4.7" height="11.7"/>
<g>
	<polygon class="st9" points="1345.7,-93.1 1338.6,-86 1333.9,-90.7 1322.2,-79 1316.4,-84.8 1304.3,-72.7 1307.6,-69.4 
		1316.4,-78.3 1322.2,-72.5 1333.9,-84.1 1338.6,-79.5 1348.9,-89.8 	"/>
	<polygon class="st9" points="1350.2,-94.4 1339.7,-94.4 1350.2,-83.9 	"/>
</g>
<path class="st25" d="M-44.5,0.7c-8.2,0-14.9,6.7-14.9,14.9c0,8.2,14.9,27.7,14.9,27.7s14.9-19.5,14.9-27.7
	C-29.6,7.4-36.3,0.7-44.5,0.7z M-44.5,23.1c-4.1,0-7.5-3.3-7.5-7.5c0-4.1,3.3-7.5,7.5-7.5c4.1,0,7.5,3.3,7.5,7.5
	C-37.1,19.7-40.4,23.1-44.5,23.1z"/>
<polygon class="st26" points="20,32 20,33 18,33 18,32 17,24 21,24 "/>
<path class="st26" d="M14.7,23c-0.5-0.1-12.4-3.2-14.4-12.8c-0.9-4.2,0.2-6.7,1.3-8C2.9,0.6,4.7,0,6,0c1.7,0,2.9,0.5,3.8,1.4
	c1.1,1.1,1.1,2.5,1.1,2.7c0,1.6-1.1,4-4,4l0,0C6.7,8,6.1,8,5.4,7.6C4.5,7.1,4,6.2,4,5h2c0,0.6,0.2,0.8,0.4,0.9C6.6,6,6.8,6,6.9,6
	c1.9,0,2-1.7,2-2c0,0,0-0.7-0.5-1.3C7.8,2.2,7,2,6,2C5.4,2,4.1,2.3,3.1,3.5C2,4.9,1.7,7,2.3,9.8C4,18.1,15.1,21,15.2,21L14.7,23z"/>
<path class="st26" d="M23.3,23L22.7,21c0.1,0,10.1-3.3,12.9-11.4c0.9-2.5,0.8-4.4-0.2-5.8C34.4,2.5,32.8,2,32,2c-3,0-3,1.9-3,2
	c0,0.5,0.2,2,2,2c0.5,0,1-0.2,1-1h2c0,2.2-1.8,3-3,3c-2.9,0-4-2.4-4-4c0-1.4,1-4,5-4c1.5,0,3.8,0.8,5.1,2.7c1,1.3,1.8,3.8,0.4,7.7
	C34.3,19.4,23.7,22.8,23.3,23z"/>
<g>
	<path class="st25" d="M24,37H14v-2c0-1.1,4-3,4-3h2c0,0,4,1.9,4,3V37z"/>
	<path class="st25" d="M29,1c0,8-2.1,25-10,25S9,9,9,1L29,1z"/>
</g>
<path class="st6" d="M20,17h-2V9.6l-2,0.7V8.5L19.8,7H20V17z"/>
<rect x="12" y="36" class="st26" width="14" height="8"/>
<rect x="14" y="39" class="st6" width="10" height="2"/>
<path class="st26" d="M71.9,43h-3V10c0,0,0.6-5,1.5-5c1,0,1.5,5,1.5,5V43z"/>
<circle class="st26" cx="70.4" cy="3.5" r="2.5"/>
<rect x="68.9" y="7" class="st25" width="36" height="24"/>
<g>
	<rect x="74.9" y="7" class="st26" width="6" height="6"/>
	<rect x="80.9" y="13" class="st26" width="6" height="6"/>
	<rect x="98.9" y="7" class="st26" width="6" height="6"/>
	<rect x="86.9" y="7" class="st26" width="6" height="6"/>
	<rect x="92.9" y="13" class="st26" width="6" height="6"/>
	<rect x="74.9" y="19" class="st26" width="6" height="6"/>
	<rect x="80.9" y="25" class="st26" width="6" height="6"/>
	<rect x="68.9" y="13" class="st26" width="6" height="6"/>
	<rect x="68.9" y="25" class="st26" width="6" height="6"/>
	<rect x="98.9" y="19" class="st26" width="6" height="6"/>
	<rect x="86.9" y="19" class="st26" width="6" height="6"/>
	<rect x="92.9" y="25" class="st26" width="6" height="6"/>
</g>
<polygon class="st26" points="142.9,0 135.4,0 146.1,19.3 153.6,19.3 "/>
<polygon class="st25" points="157.9,0 147.2,19.3 154.7,19.3 165.4,0 "/>
<circle class="st26" cx="150.4" cy="31.1" r="12.9"/>
<path class="st25" d="M150.4,20.4c-5.9,0-10.7,4.8-10.7,10.7s4.8,10.7,10.7,10.7c5.9,0,10.7-4.8,10.7-10.7S156.3,20.4,150.4,20.4z
	 M143.1,35.7c-0.3,0.2-0.7,0.1-0.8-0.2c0,0,0-0.1-0.1-0.1l-0.2-0.5c-0.1-0.3,0-0.6,0.3-0.7c0.3-0.1,0.5,0,0.7,0.2l0.3,0.5
	C143.5,35.1,143.4,35.5,143.1,35.7z M146,38.6c-0.3,0.4-0.9,0.5-1.3,0.2c0,0-0.1,0-0.1-0.1l-0.4-0.4c-0.4-0.3-0.4-0.9-0.1-1.3
	c0.3-0.3,0.8-0.4,1.2-0.1l0.4,0.3C146.2,37.6,146.3,38.2,146,38.6z M149.8,39.8c-0.1,0.6-0.7,0.9-1.2,0.8c0,0,0,0,0,0l-0.5-0.1
	c-0.6-0.1-0.9-0.7-0.8-1.3c0.1-0.5,0.7-0.9,1.2-0.8l0.5,0.1C149.5,38.6,149.9,39.2,149.8,39.8z M149.3,35.4v-7.9l-2.1,0.7v-1.9
	l4.1-1.6h0.2v10.7H149.3z M152.8,40.4l-0.5,0.1c-0.6,0.1-1.1-0.2-1.3-0.8c-0.1-0.6,0.2-1.1,0.8-1.3c0,0,0,0,0,0l0.5-0.1
	c0.6-0.1,1.1,0.2,1.2,0.8C153.7,39.8,153.3,40.3,152.8,40.4z M156.5,38.3c-0.1,0.1-0.3,0.2-0.4,0.4c-0.4,0.3-1,0.3-1.3-0.1
	c-0.3-0.4-0.3-1,0.1-1.3c0,0,0,0,0,0c0.1-0.1,0.3-0.2,0.5-0.3c0.4-0.3,1-0.2,1.2,0.2C156.9,37.6,156.8,38.1,156.5,38.3z M158.5,35.3
	c-0.1,0.3-0.5,0.5-0.8,0.4c-0.3-0.1-0.5-0.5-0.4-0.8c0,0,0-0.1,0.1-0.1l0.3-0.5c0.2-0.3,0.5-0.3,0.8-0.2c0.2,0.1,0.3,0.4,0.2,0.7
	L158.5,35.3z"/>
<path class="st24" d="M761.6,40.8c0,1.7-1.3,3-3,3h-26c-1.7,0-3-1.3-3-3v-36c0-1.7,1.3-3,3-3h26c1.7,0,3,1.3,3,3V40.8z"/>
<circle class="st6" cx="736.6" cy="7.8" r="3"/>
<circle class="st6" cx="745.6" cy="7.8" r="3"/>
<circle class="st6" cx="754.6" cy="7.8" r="3"/>
<polyline class="st6" points="739.6,38.8 739.6,40.8 733.6,40.8 733.6,38.8 "/>
<polyline class="st6" points="748.6,38.8 748.6,40.8 742.6,40.8 742.6,38.8 "/>
<polyline class="st6" points="757.6,38.8 757.6,40.8 751.6,40.8 751.6,38.8 "/>
<polyline class="st6" points="739.6,28.7 739.6,30.8 733.6,30.8 733.6,28.7 "/>
<polyline class="st6" points="748.6,28.7 748.6,30.8 742.6,30.8 742.6,28.7 "/>
<polyline class="st6" points="757.6,28.7 757.6,30.8 751.6,30.8 751.6,28.7 "/>
<polyline class="st6" points="739.6,18.8 739.6,20.8 733.6,20.8 733.6,18.8 "/>
<polyline class="st6" points="748.6,18.8 748.6,20.8 742.6,20.8 742.6,18.8 "/>
<polyline class="st6" points="757.6,18.8 757.6,20.8 751.6,20.8 751.6,18.8 "/>
<rect x="742.6" y="32.8" class="st25" width="6" height="6"/>
<g>
	<rect x="733.6" y="12.8" class="st23" width="6" height="6"/>
	<rect x="742.6" y="12.8" class="st23" width="6" height="6"/>
	<rect x="751.6" y="12.8" class="st23" width="6" height="6"/>
	<rect x="733.6" y="22.8" class="st23" width="6" height="6"/>
	<rect x="742.6" y="22.8" class="st23" width="6" height="6"/>
	<rect x="751.6" y="22.8" class="st23" width="6" height="6"/>
	<rect x="733.6" y="32.8" class="st23" width="6" height="6"/>
	<rect x="751.6" y="32.8" class="st23" width="6" height="6"/>
</g>
<g>
	<circle class="st25" cx="736.6" cy="7.8" r="2"/>
	<circle class="st25" cx="745.6" cy="7.8" r="2"/>
	<circle class="st25" cx="754.6" cy="7.8" r="2"/>
</g>
<polygon class="st6" points="319,20.5 318.2,16.6 306,19.2 306,5.9 302.1,5.9 302.1,17.9 288.6,9.2 286.4,12.5 301.2,22 289.8,36.8 
	292.9,39.2 303.9,24.8 312.1,37.1 315.4,35 307.2,22.9 "/>
<circle class="st24" cx="304" cy="21.5" r="6.8"/>
<g>
	<circle class="st23" cx="304" cy="5.9" r="4.9"/>
	<circle class="st23" cx="318.6" cy="18.6" r="4.9"/>
	<circle class="st23" cx="287.5" cy="10.8" r="4.9"/>
	<circle class="st23" cx="291.4" cy="38" r="4.9"/>
	<circle class="st23" cx="313.7" cy="36.1" r="4.9"/>
</g>
<g>
	<path class="st9" d="M389.5,0.2h-29.3c-1.2,0-2.1,0.9-2.1,2.1v6.3c0,1.2,0.9,2.1,2.1,2.1h29.3c1.1,0,2.1-0.9,2.1-2.1V2.3
		C391.5,1.2,390.6,0.2,389.5,0.2z"/>
	<path class="st9" d="M389.5,12.8h-29.3c-1.2,0-2.1,0.9-2.1,2.1v6.3c0,1.2,0.9,2.1,2.1,2.1h29.3c1.1,0,2.1-0.9,2.1-2.1v-6.3
		C391.5,13.7,390.6,12.8,389.5,12.8z"/>
	<path class="st9" d="M389.5,25.4h-29.3c-1.2,0-2.1,0.9-2.1,2.1v6.3c0,1.2,0.9,2.1,2.1,2.1h29.3c1.1,0,2.1-0.9,2.1-2.1v-6.3
		C391.5,26.3,390.6,25.4,389.5,25.4z"/>
</g>
<path class="st23" d="M397,32.8c0.1-0.4,0.1-0.8,0.1-1.2c0-0.3,0-0.8-0.1-1.2l2.4-1.8c0.2-0.2,0.3-0.5,0.2-0.7l-2.4-4.1
	c-0.1-0.2-0.4-0.3-0.7-0.2l-2.7,1.3c-0.6-0.5-1.4-0.9-2.1-1.3l-0.3-3c0-0.3-0.3-0.5-0.5-0.5h-4.7c-0.3,0-0.5,0.2-0.5,0.5l-0.3,3
	c-0.7,0.3-1.5,0.7-2.1,1.3l-2.7-1.3c-0.3-0.1-0.6,0-0.7,0.2l-2.4,4.1c-0.1,0.2-0.1,0.6,0.2,0.7l2.4,1.8c-0.1,0.4-0.1,0.8-0.1,1.2
	c0,0.3,0,0.8,0.1,1.2l-2.4,1.8c-0.2,0.2-0.3,0.5-0.2,0.7l2.4,4.1c0.1,0.2,0.4,0.3,0.7,0.2l2.7-1.3c0.6,0.5,1.4,0.9,2.1,1.3l0.3,3
	c0,0.3,0.3,0.5,0.5,0.5h4.7c0.3,0,0.5-0.2,0.5-0.5l0.3-3c0.7-0.3,1.5-0.7,2.1-1.3l2.7,1.3c0.3,0.1,0.6,0,0.7-0.2l2.4-4.1
	c0.1-0.2,0.1-0.6-0.2-0.7L397,32.8z M388.4,37.1c-3,0-5.4-2.4-5.4-5.4c0-3,2.4-5.4,5.4-5.4c3,0,5.4,2.4,5.4,5.4
	C393.8,34.7,391.4,37.1,388.4,37.1z"/>
<path class="st24" d="M388.4,25.4c-3.5,0-6.3,2.8-6.3,6.3c0,3.5,2.8,6.3,6.3,6.3c3.5,0,6.3-2.8,6.3-6.3
	C394.7,28.2,391.9,25.4,388.4,25.4z M388.4,34.8c-1.8,0-3.1-1.4-3.1-3.1c0-1.8,1.4-3.1,3.1-3.1c1.8,0,3.1,1.4,3.1,3.1
	C391.5,33.4,390.2,34.8,388.4,34.8z"/>
<path class="st24" d="M692.8,10.7c0,0.6-0.5,1.1-1.1,1.1h-34c-0.6,0-1.1-0.5-1.1-1.1V3.2c0-0.6,0.5-1.1,1.1-1.1h34
	c0.6,0,1.1,0.5,1.1,1.1V10.7z"/>
<rect x="656.6" y="7.5" class="st6" width="36.1" height="30.8"/>
<path class="st24" d="M698.8,23.6l-3-3c-0.5-0.5-1.2-0.5-1.7,0l-1.4,1.4l4.7,4.7l1.4-1.4C699.2,24.8,699.2,24,698.8,23.6"/>
<rect x="676.9" y="29.9" transform="matrix(-0.7071 0.7071 -0.7071 -0.7071 1194.8666 -428.5218)" class="st23" width="18.5" height="6.6"/>
<rect x="692.2" y="22.2" transform="matrix(0.707 -0.7073 0.7073 0.707 185.3135 498.2303)" class="st6" width="3.3" height="6.6"/>
<polygon class="st6" points="677.3,37.4 675.7,43.6 682,42.1 "/>
<polygon class="st24" points="676.5,40.5 675.7,43.6 678.9,42.8 "/>
<g>
	<polygon class="st23" points="681.9,29.8 668.3,29.8 668.3,31.9 679.8,31.9 	"/>
	<polygon class="st23" points="685.3,26.4 685.3,25.6 668.3,25.6 668.3,27.7 684,27.7 	"/>
	<rect x="668.3" y="17.1" class="st23" width="17" height="2.1"/>
	<rect x="668.3" y="12.8" class="st23" width="17" height="2.1"/>
	<rect x="664.1" y="12.8" class="st23" width="2.1" height="2.1"/>
	<rect x="664.1" y="17.1" class="st23" width="2.1" height="2.1"/>
	<rect x="664.1" y="29.8" class="st23" width="2.1" height="2.1"/>
	<path class="st23" d="M668.3,29.8v2.1h7.4c0-0.7,0.1-1.4,0.2-2.1H668.3z"/>
	<rect x="664.1" y="21.3" class="st23" width="2.1" height="2.1"/>
	<rect x="664.1" y="25.6" class="st23" width="2.1" height="2.1"/>
	<rect x="668.3" y="21.3" class="st23" width="17" height="2.1"/>
</g>
<path class="st23" d="M1658.1-93.4h-32.6c-2.6,0-4.7,2.1-4.7,4.7v19.8c0,2.6,2.1,4.7,4.7,4.7h32.6c2.6,0,4.7-2.1,4.7-4.7v-19.8
	C1662.7-91.3,1660.7-93.4,1658.1-93.4z"/>
<path class="st24" d="M1622.1-91.9c-0.5,0.6-0.9,1.3-1.1,2.1l20.8,15.1l20.8-15.1c-0.2-0.8-0.6-1.5-1.1-2.1l-19.7,14.3L1622.1-91.9z
	"/>
<path class="st6" d="M1665.1-80.6h-32.6c-2.6,0-4.7,2.1-4.7,4.7v19.8c0,2.6,2.1,4.7,4.7,4.7h32.6c2.6,0,4.7-2.1,4.7-4.7v-19.8
	C1669.7-78.5,1667.6-80.6,1665.1-80.6z"/>
<path class="st24" d="M1629-79.1c-0.5,0.6-0.9,1.3-1.1,2.1l20.8,15.1l20.8-15.1c-0.2-0.8-0.6-1.5-1.1-2.1l-19.7,14.3L1629-79.1z"/>
<circle class="st24" cx="1569.6" cy="-85.8" r="8.5"/>
<circle class="st24" cx="1544.2" cy="-85.8" r="8.5"/>
<path class="st23" d="M1589-73.1l-21.6,4.2h-20.7l-21.6-4.2l6.1-11.1c1.6-2.7,4.4-4.4,7.5-4.4h37c3.1,0,5.9,1.7,7.5,4.4L1589-73.1z"
	/>
<circle class="st24" cx="1576.7" cy="-66.1" r="14.1"/>
<circle class="st24" cx="1537.2" cy="-66.1" r="14.1"/>
<circle class="st24" cx="1556.9" cy="-68.9" r="7.1"/>
<circle class="st20" cx="1556.9" cy="-68.9" r="2.8"/>
<g>
	<circle class="st6" cx="1576.7" cy="-66.1" r="9.9"/>
	<circle class="st6" cx="1537.2" cy="-66.1" r="9.9"/>
</g>
<g>
	<path class="st9" d="M1581.9-69.3c-1.4-1.6-3.2-2.4-5.2-2.4c-2,0-3.9,0.8-5.2,2.4c-0.6,0.6-0.4,1.4,0.1,2c0.6,0.6,1.4,0.4,2-0.1
		c1.7-1.8,4.7-1.8,6.3,0c0.3,0.3,0.7,0.4,1,0.4c0.3,0,0.7-0.1,1-0.4C1582.5-67.9,1582.5-68.7,1581.9-69.3z"/>
	<path class="st9" d="M1537.2-71.7c-2,0-4,0.8-5.2,2.4c-0.6,0.6-0.4,1.4,0.1,2c0.6,0.6,1.4,0.4,2-0.1c1.7-1.8,4.7-1.8,6.3,0
		c0.3,0.3,0.7,0.4,1,0.4c0.3,0,0.7-0.1,1-0.4c0.6-0.6,0.6-1.4,0.1-2C1541.1-70.9,1539.2-71.7,1537.2-71.7z"/>
</g>
<path class="st27" d="M223.6,38.9c-0.7,2.2-3,3.4-5.1,2.7l-7.8-2.4c-2.2-0.7-3.3-3-2.7-5.1l2.8-9.1c0.7-2.1,3-3.4,5.1-2.7l7.8,2.4
	c2.2,0.7,3.3,3,2.7,5.1L223.6,38.9z"/>
<rect x="195.6" y="16" class="st24" width="4.1" height="13.6"/>
<rect x="248.6" y="1" class="st24" width="4.1" height="43.5"/>
<polygon class="st23" points="199.7,16.9 199.7,28.6 248.6,42.7 248.6,2.8 "/>
<polygon class="st6" points="202.4,19 202.4,22 245.9,15 245.9,6.4 "/>
<g>
	<polygon class="st24" points="620.9,43.3 590.7,43.3 590.7,4.5 612.3,4.5 620.9,13.1 	"/>
</g>
<g>
	<polygon class="st23" points="625.2,39 595,39 595,0.2 616.6,0.2 625.2,8.8 	"/>
</g>
<polygon class="st6" points="623.6,9.9 615.5,9.9 615.5,1.8 "/>
<polygon class="st24" points="618.7,17.4 611.2,17.4 613.8,20 611.2,22.7 606.9,18.4 600.3,24.9 602.7,27.3 606.9,22.9 611.2,27.3 
	616.2,22.4 618.7,25 "/>
<g>
	<path class="st24" d="M560.9,34.1c0,9.3-9.3,9.3-20.8,9.3c-11.5,0-20.8,0-20.8-9.3c0-9.3,9.3-20.8,20.8-20.8
		C551.5,13.3,560.9,24.8,560.9,34.1z"/>
	<path class="st24" d="M547,3.5c-2.2,2.4-1.2-5.1-5.8,0c-2.2,2.4-1.2-5.1-5.8,0c-2,2.2-1.3-3.6-4.5-1.2l3.3,12.2h11.6l3.5-12.7
		C548.7,1.9,548,2.4,547,3.5z"/>
</g>
<path class="st6" d="M541.7,32.6c0-0.6-0.2-1-0.5-1.3c-0.3-0.3-0.8-0.6-1.6-0.9c-0.7-0.3-1.4-0.6-1.9-0.8c-0.5-0.3-1-0.6-1.4-0.9
	c-0.4-0.4-0.7-0.8-0.9-1.3c-0.2-0.5-0.3-1.1-0.3-1.7c0-1.1,0.4-2.1,1.1-2.8c0.7-0.7,1.7-1.2,2.9-1.3v-2.2h1.6v2.2
	c1.2,0.2,2.1,0.7,2.8,1.5c0.7,0.8,1,1.9,1,3.2h-2.9c0-0.8-0.2-1.4-0.5-1.8c-0.3-0.4-0.8-0.6-1.3-0.6c-0.6,0-1,0.2-1.3,0.5
	c-0.3,0.3-0.5,0.8-0.5,1.3c0,0.5,0.1,0.9,0.4,1.2c0.3,0.3,0.9,0.6,1.7,1c0.8,0.3,1.5,0.6,2,0.9c0.5,0.3,1,0.6,1.3,1
	c0.4,0.4,0.6,0.8,0.8,1.2c0.2,0.5,0.3,1,0.3,1.6c0,1.2-0.4,2.1-1.1,2.8c-0.7,0.7-1.7,1.1-3,1.3v2H539v-2c-1.4-0.1-2.5-0.6-3.2-1.5
	c-0.8-0.8-1.1-2-1.1-3.3h2.9c0,0.8,0.2,1.4,0.6,1.9c0.4,0.4,0.9,0.6,1.7,0.6c0.6,0,1.1-0.2,1.4-0.5S541.7,33.2,541.7,32.6z"/>
<g>
	<path class="st28" d="M528.5,38.7c-0.5-2.6-0.6-5.2-0.3-7.8c0.6-5,2.3-10.2,5.1-14.4c0.3-0.5,0.7-1.3,1.2-1.6c0.4-0.3,0.5-0.2,1,0
		c0.9,0.2,1.7,0.4,2.6,0.5c2.6,0.3,5.3,0.1,7.7-0.9"/>
	<path class="st28" d="M525,27.1c0-3.5,4.4-11.8,9.3-12.7"/>
</g>
<rect x="454.2" y="34.1" class="st24" width="9.9" height="8.3"/>
<path class="st24" d="M477.3,44H441c0,0,0-3.3,3.3-3.3c3.3,0,26.4,0,29.7,0C477.3,40.7,477.3,44,477.3,44z"/>
<rect x="429.5" y="1.1" class="st24" width="59.4" height="34.7"/>
<rect x="432.8" y="4.4" class="st6" width="52.8" height="28.1"/>
</svg>
