<?xml version="1.0" encoding="utf-8"?>
<!-- Generator: Adobe Illustrator 19.1.0, SVG Export Plug-In . SVG Version: 6.00 Build 0)  -->
<svg version="1.1" id="Layer_1" xmlns="http://www.w3.org/2000/svg" xmlns:xlink="http://www.w3.org/1999/xlink" x="0px" y="0px"
	 viewBox="0 0 43.1 43.1" style="enable-background:new 0 0 43.1 43.1;" xml:space="preserve">
<style type="text/css">
	.st0{fill:#3EB6FF;}
	.st1{fill:#0059B1;}
	.st2{fill:#A16BB8;}
	.st3{fill:#724A84;}
	.st4{fill:#FF5647;}
	.st5{fill:#E6B7FF;}
	.st6{fill:#FFFFFF;}
	.st7{fill:#D7F4FF;}
	.st8{fill:#53AEE6;}
	.st9{fill:#E9E9E9;}
	.st10{fill:#0B66A2;}
	.st11{fill:#E54B42;}
	.st12{fill:#A4C600;}
	.st13{fill:#8EAC00;}
	.st14{fill:#7F9100;}
	.st15{fill:#42B6D7;}
	.st16{fill:#F7FAFB;}
	.st17{fill:#318EA8;}
	.st18{fill:#6AD58B;}
	.st19{fill:#57AA6D;}
	.st20{fill:#EFEFEF;}
	.st21{fill:#D8D8D8;}
	.st22{fill:#E0E0E0;}
	.st23{fill:#36A1DE;}
	.st24{fill:#213F5E;}
	.st25{fill:#65C099;}
	.st26{fill:#467F63;}
	.st27{fill:none;stroke:#213F5E;stroke-width:2;}
	.st28{fill:none;stroke:#36A1DE;stroke-width:2;stroke-linecap:round;}
</style>
<path class="st0" d="M-724.9-405.8c0,11.7-9.5,21-21,21c-11.5,0-21-9.3-21-21c0-11.7,9.3-21,21-21
	C-734.2-426.8-724.9-417.5-724.9-405.8"/>
<g>
	<path class="st1" d="M-746.1-396.2c0-0.4-0.2-0.6-0.6-0.8c-1.3-0.4-2.5-0.4-3.6-1.5c-0.2-0.4-0.2-0.8-0.4-1.3
		c-0.4-0.4-1.5-0.6-2.1-0.8h-2.7h-1.5c-0.6-0.2-1.1-1-1.5-1.7c0-0.2,0-0.6-0.4-0.6c-0.4-0.2-0.8,0.2-1.3,0c-0.2-0.2-0.2-0.4-0.2-0.6
		c0-0.6,0.4-1.3,0.8-1.7c0.6-0.4,1.3,0.2,1.9,0.2c0.2,0,0.2,0,0.4,0.2c0.6,0.2,0.8,1,0.8,1.7v0.4c0,0.2,0.2,0.2,0.4,0.2
		c0.2-1.1,0.2-2.1,0.4-3.2c0-1.3,1.3-2.5,2.3-2.9c0.4-0.2,0.6,0.2,1.1,0c1.3-0.4,4.4-1.7,3.8-3.4c-0.4-1.5-1.7-2.9-3.4-2.7
		c-0.4,0.2-0.6,0.4-1.1,0.6c-0.6,0.4-1.9,1.7-2.5,1.7c-1-0.2-1-1.7-0.8-2.3c0.2-0.8,2.1-3.6,3.4-3.1c0.2,0.2,0.6,0.6,0.8,0.8
		c0.4,0.2,1,0.2,1.7,0.2c0.2,0,0.4,0,0.6-0.2c0.2-0.2,0.2-0.2,0.2-0.4c0-0.6-0.6-1.3-1.1-1.7c-0.4-0.4-1-0.8-1.7-1
		c-2.1-0.6-5.5,0.2-7.1,1.7c-1.7,1.5-2.9,4-3.8,6.1c-0.4,1.3-0.8,2.9-1,4.4c-0.2,1.1-0.4,1.9,0.2,2.9c0.6,1.3,1.9,2.5,3.1,3.4
		c0.8,0.6,2.5,0.6,3.4,1.7c0.6,0.8,0.4,1.9,0.4,2.9c0,1.3,0.8,2.3,1.3,3.4c0.2,0.6,0.4,1.5,0.6,2.1c0,0.2,0.2,1.5,0.2,1.7
		c1.3,0.6,2.3,1.3,3.8,1.7c0.2,0,1-1.3,1-1.5c0.6-0.6,1.1-1.5,1.7-1.9c0.4-0.2,0.8-0.4,1.3-0.8c0.4-0.4,0.6-1.3,0.8-1.9
		C-746.1-394.7-745.9-395.5-746.1-396.2"/>
	<path class="st1" d="M-745.7-415.5c0.2,0,0.4-0.2,0.8-0.4c0.6-0.4,1.3-1,1.9-1.5c0.6-0.4,1.3-1.1,1.7-1.5c0.6-0.4,1-1.3,1.3-1.9
		c0.2-0.4,0.8-1.3,0.6-1.9c-0.2-0.4-1.3-0.6-1.7-0.8c-1.7-0.4-3.2-0.6-4.8-0.6c-0.6,0-1.5,0.2-1.7,0.8c-0.2,1.1,0.6,0.8,1.5,1.1
		c0,0,0.2,1.7,0.2,1.9c0.2,1.1-0.4,1.7-0.4,2.7c0,0.6,0,1.7,0.4,2.1H-745.7z"/>
	<path class="st1" d="M-728-400.8c0.2-0.4,0.2-1,0.4-1.5c0.2-1.1,0.2-2.1,0.2-3.2c0-2.1-0.2-4.2-0.8-6.1c-0.4-0.6-0.6-1.3-0.8-1.9
		c-0.4-1-1-2.1-1.9-2.9c-0.8-1-1.9-4-3.8-3.1c-0.6,0.2-1,1.1-1.5,1.5c-0.4,0.6-0.8,1.3-1.3,1.9c-0.2,0.2-0.4,0.6-0.2,0.8
		c0,0.2,0.2,0.2,0.4,0.2c0.4,0.2,0.6,0.2,1.1,0.4c0.2,0,0.4,0.2,0.2,0.4c0,0,0,0.2-0.2,0.2c-1.1,1-2.1,1.9-3.2,2.9
		c-0.2,0.2-0.4,0.6-0.4,0.8s0.2,0.2,0.2,0.4c0,0.2-0.2,0.2-0.4,0.4c-0.4,0.2-0.8,0.4-1,0.6c-0.2,0.4,0,1-0.2,1.5
		c-0.2,1-0.8,1.9-1.3,2.9c-0.4,0.6-0.6,1.3-1,1.9c0,0.8-0.2,1.5,0.2,2.1c1.1,1.5,2.9,0.6,4.4,1.3c0.4,0.2,0.8,0.2,1.1,0.6
		c0.6,0.6,0.6,1.7,0.8,2.3c0.2,0.8,0.4,1.7,0.8,2.5c0.2,1.1,0.6,2.1,0.8,2.9c1.9-1.5,3.6-3.1,4.8-5.2
		C-729.3-397.4-728.7-399.1-728-400.8"/>
</g>
<g>
	<polygon class="st2" points="-671.3,-384.4 -703.8,-384.4 -703.8,-427.1 -681.4,-427.1 -671.3,-416.9 	"/>
</g>
<polygon class="st3" points="-672.8,-414.2 -682.4,-414.2 -682.4,-423.9 "/>
<g>
	<rect x="-695.7" y="-408.8" class="st3" width="17.3" height="2"/>
	<rect x="-695.7" y="-404.7" class="st3" width="13.2" height="2"/>
	<rect x="-695.7" y="-400.7" class="st3" width="17.3" height="2"/>
	<rect x="-695.7" y="-396.6" class="st3" width="13.2" height="2"/>
</g>
<g>
	
		<rect x="-609.2" y="-400.8" transform="matrix(-0.7071 0.7071 -0.7071 -0.7071 -1313.5231 -239.7086)" class="st3" width="4.2" height="17.8"/>
	<circle class="st3" cx="-624.5" cy="-409.2" r="16.7"/>
</g>
<rect x="-607.5" y="-396.6" transform="matrix(-0.7072 0.707 -0.707 -0.7072 -1309.3595 -238.0932)" class="st4" width="4.2" height="12.8"/>
<circle class="st5" cx="-624.5" cy="-409.2" r="13.6"/>
<path class="st6" d="M-617.3-415.3c-1.8-2.1-4.4-3.3-7.2-3.3c-2.8,0-5.4,1.3-7.2,3.3c-0.4,0.4-0.3,1.1,0.1,1.5
	c0.4,0.4,1.1,0.3,1.5-0.1c1.5-1.7,3.4-2.6,5.6-2.6c2.2,0,4.2,0.9,5.6,2.6c0.2,0.2,0.5,0.4,0.8,0.4c0.2,0,0.5-0.1,0.6-0.2
	C-616.9-414.1-616.9-414.9-617.3-415.3z"/>
<path class="st0" d="M-458-427.4h-35.6c-2,0-3.6,1.6-3.6,3.6v39.1l10.1-9.5h29c2,0,3.6-1.6,3.6-3.6v-26.1
	C-454.4-425.8-456-427.4-458-427.4z"/>
<g>
	<rect x="-492.4" y="-417.9" class="st1" width="33.2" height="2.4"/>
	<rect x="-492.4" y="-411.9" class="st1" width="33.2" height="2.4"/>
	<rect x="-492.4" y="-406" class="st1" width="19" height="2.4"/>
</g>
<path class="st5" d="M-530.6-426.9h-35.2c-1.9,0-3.5,1.6-3.5,3.5v38.7l10-9.4h28.7c1.9,0,3.5-1.6,3.5-3.5v-25.8
	C-527.1-425.4-528.7-426.9-530.6-426.9z"/>
<g>
	<rect x="-564.7" y="-417.5" class="st3" width="32.9" height="2.3"/>
	<rect x="-564.7" y="-411.7" class="st3" width="32.9" height="2.3"/>
	<rect x="-564.7" y="-405.8" class="st3" width="18.8" height="2.3"/>
</g>
<path class="st0" d="M-387.6-404c0.1-0.7,0.2-1.4,0.2-2.2c0-0.8-0.1-1.5-0.2-2.2l4.6-3.3c0.4-0.3,0.6-0.9,0.3-1.4l-4.5-7.6
	c-0.3-0.5-0.8-0.7-1.3-0.4l-5.1,2.4c-1.2-0.9-2.5-1.6-3.9-2.2l-0.5-5.6c-0.1-0.5-0.5-0.9-1-0.9h-8.8c-0.5,0-1,0.4-1,0.9l-0.5,5.6
	c-1.4,0.6-2.8,1.3-3.9,2.2l-5.1-2.4c-0.5-0.2-1.1,0-1.3,0.4l-4.4,7.6c-0.3,0.5-0.1,1.1,0.3,1.4l4.6,3.3c-0.1,0.7-0.2,1.4-0.2,2.2
	c0,0.8,0.1,1.5,0.2,2.2l-4.8,3.3c-0.4,0.3-0.6,0.9-0.3,1.4l4.4,7.6c0.3,0.5,0.8,0.7,1.3,0.4l5.1-2.4c1.2,0.9,2.5,1.6,3.9,2.2
	l0.5,5.6c0.1,0.5,0.5,0.9,1,0.9h8.8c0.5,0,1-0.4,1-0.9l0.5-5.6c1.4-0.6,2.8-1.3,3.9-2.2l5.1,2.4c0.5,0.2,1.1,0,1.3-0.4l4.4-7.6
	c0.3-0.5,0.1-1.1-0.3-1.4L-387.6-404z M-403.5-396c-5.6,0-10.2-4.6-10.2-10.2c0-5.6,4.6-10.2,10.2-10.2c5.6,0,10.2,4.6,10.2,10.2
	C-393.3-400.6-397.9-396-403.5-396z"/>
<path class="st1" d="M-403.5-418.5c-6.7,0-12.3,5.5-12.3,12.3c0,6.7,5.5,12.3,12.3,12.3c6.7,0,12.3-5.5,12.3-12.3
	C-391.3-413-396.8-418.5-403.5-418.5z M-403.5-401.1c-2.9,0-5.1-2.2-5.1-5.1c0-2.9,2.2-5.1,5.1-5.1s5.1,2.2,5.1,5.1
	C-398.4-403.4-400.7-401.1-403.5-401.1z"/>
<g>
	<polygon class="st0" points="-324.2,-388.5 -352.5,-388.5 -352.5,-426.9 -333.3,-426.9 -324.2,-417.8 	"/>
</g>
<polygon class="st6" points="-325.7,-416.8 -334.3,-416.8 -334.3,-425.4 "/>
<g>
	
		<rect x="-318.8" y="-395.7" transform="matrix(-0.7073 0.7069 -0.7069 -0.7073 -817.2739 -440.9013)" class="st1" width="2.8" height="12.1"/>
	<circle class="st1" cx="-329.2" cy="-401.6" r="11.1"/>
	<circle class="st0" cx="-329.2" cy="-401.6" r="9.1"/>
</g>
<rect x="-317.6" y="-392.9" transform="matrix(-0.707 0.7072 -0.7072 -0.707 -814.4459 -439.6137)" class="st1" width="2.8" height="8.8"/>
<g>
	<path class="st6" d="M-327.2-399.6h-9.8c0.4,1.6,1.3,3,2.5,4h7.3V-399.6z"/>
	<path class="st6" d="M-337-403.7h9.8v-4h-7.4C-335.8-406.7-336.6-405.3-337-403.7z"/>
	<path class="st6" d="M-337.2-410.7h-9.2v2h7.4C-338.5-409.4-337.9-410.1-337.2-410.7z"/>
	<path class="st6" d="M-340.3-406.7h-6.2v2h5.5C-340.8-405.4-340.6-406.1-340.3-406.7z"/>
	<path class="st6" d="M-341.4-401.6c0-0.3,0-0.7,0.1-1h-5.2v2h5.2C-341.4-400.9-341.4-401.3-341.4-401.6z"/>
	<path class="st6" d="M-341-398.6h-5.5v2h6.2C-340.6-397.2-340.8-397.9-341-398.6z"/>
</g>
<g>
	<circle class="st3" cx="-236" cy="-417.9" r="8.4"/>
	<circle class="st3" cx="-261.1" cy="-417.9" r="8.4"/>
	<g>
		<path class="st3" d="M-216.9-405.3l-21.4,4.2h-20.5l-21.4-4.2l6-11c1.5-2.7,4.3-4.3,7.4-4.3h36.6c3.1,0,5.9,1.7,7.4,4.3
			L-216.9-405.3z"/>
		<circle class="st3" cx="-229" cy="-398.3" r="14"/>
		<circle class="st3" cx="-268.1" cy="-398.3" r="14"/>
		<circle class="st3" cx="-248.5" cy="-401.1" r="7"/>
	</g>
</g>
<circle class="st4" cx="-248.5" cy="-401.1" r="2.8"/>
<g>
	<circle class="st5" cx="-229" cy="-398.3" r="9.8"/>
	<circle class="st5" cx="-268.1" cy="-398.3" r="9.8"/>
</g>
<g>
	<path class="st6" d="M-223.8-401.6c-1.4-1.5-3.2-2.4-5.2-2.4c-2,0-3.9,0.8-5.2,2.4c-0.6,0.6-0.4,1.4,0.1,2c0.6,0.6,1.4,0.4,2-0.1
		c1.7-1.8,4.6-1.8,6.3,0c0.3,0.3,0.7,0.4,1,0.4c0.3,0,0.7-0.1,1-0.4C-223.3-400.2-223.3-401-223.8-401.6z"/>
	<path class="st6" d="M-268.1-403.9c-2,0-3.9,0.8-5.2,2.4c-0.6,0.6-0.4,1.4,0.1,2c0.6,0.6,1.4,0.4,2-0.1c1.7-1.8,4.6-1.8,6.3,0
		c0.3,0.3,0.7,0.4,1,0.4c0.3,0,0.7-0.1,1-0.4c0.6-0.6,0.6-1.4,0.1-2C-264.2-403.1-266.1-403.9-268.1-403.9z"/>
</g>
<rect x="-142.7" y="-411.7" class="st0" width="4.7" height="27"/>
<rect x="-149.8" y="-403.4" class="st1" width="4.7" height="18.8"/>
<rect x="-156.8" y="-409.3" class="st0" width="4.7" height="24.7"/>
<rect x="-163.9" y="-402.3" class="st1" width="4.7" height="17.6"/>
<rect x="-170.9" y="-398.7" class="st0" width="4.7" height="14.1"/>
<rect x="-178" y="-401.1" class="st1" width="4.7" height="16.5"/>
<rect x="-185" y="-396.4" class="st0" width="4.7" height="11.8"/>
<g>
	<polygon class="st0" points="-142.6,-425.6 -149.8,-418.5 -154.5,-423.2 -166.2,-411.4 -172.1,-417.3 -184.3,-405.1 -181,-401.8 
		-172.1,-410.7 -166.2,-404.8 -154.5,-416.6 -149.8,-411.9 -139.3,-422.4 	"/>
	<polygon class="st0" points="-138,-426.9 -148.6,-426.9 -138,-416.4 	"/>
</g>
<circle class="st1" cx="-86.7" cy="-406.4" r="21.2"/>
<circle class="st0" cx="-86.7" cy="-406.4" r="16.9"/>
<rect x="-87.7" y="-420.2" class="st1" width="2.1" height="13.8"/>
<rect x="-84.5" y="-407.9" transform="matrix(0.7071 -0.7071 0.7071 0.7071 260.5858 -176.9172)" class="st1" width="2.4" height="9.7"/>
<circle class="st1" cx="-86.7" cy="-406.4" r="2.1"/>
<circle class="st6" cx="-86.7" cy="-406.4" r="1.1"/>
<path class="st1" d="M-35.3-400.1v11c0,2.4,2,4.4,4.4,4.4H0c2.4,0,4.4-2,4.4-4.4v-11H-35.3z"/>
<path class="st0" d="M4.4-400.1c0,2.4-2,4.4-4.4,4.4h-30.8c-2.4,0-4.4-2-4.4-4.4l3.3-13.2c0.2-2.3,2-4.4,4.4-4.4h24.2
	c2.4,0,4.1,1.9,4.4,4.4L4.4-400.1z"/>
<circle class="st7" cx="-3.3" cy="-390.2" r="2.2"/>
<g>
	<ellipse class="st1" cx="-13.7" cy="-420.6" rx="6.1" ry="5.9"/>
	<ellipse class="st1" cx="-12.4" cy="-410.5" rx="5" ry="4.9"/>
	<ellipse class="st1" cx="-19.2" cy="-415.1" rx="5" ry="4.9"/>
	<ellipse class="st1" cx="1.2" cy="-415.4" rx="4.3" ry="4.2"/>
	<ellipse class="st1" cx="-4.5" cy="-412" rx="4.3" ry="4.2"/>
	<ellipse class="st1" cx="-4.2" cy="-418.7" rx="4.7" ry="4.5"/>
	<ellipse class="st1" cx="-9.4" cy="-416" rx="5" ry="4.9"/>
</g>
<path class="st3" d="M57.7-407.5h13.8l6.4,6.4v-18c0-2.3-1.9-4.2-4.2-4.2H57.7c-2.3,0-4.2,1.9-4.2,4.2v7.4
	C53.5-409.5,55.4-407.5,57.7-407.5z"/>
<path class="st4" d="M55.6-410.7H41.9l-6.4,6.4v-18c0-2.3,1.9-4.2,4.2-4.2h15.9c2.3,0,4.2,1.9,4.2,4.2v7.4
	C59.9-412.6,57.9-410.7,55.6-410.7z"/>
<g>
	<circle class="st2" cx="44" cy="-398" r="5.3"/>
	<circle class="st2" cx="69.4" cy="-398" r="5.3"/>
</g>
<g>
	<path class="st3" d="M52.4-386.4c0,0-2.3-4.2-8.5-4.2s-8.5,4.2-8.5,4.2v2.1h16.9V-386.4L52.4-386.4z"/>
	<path class="st3" d="M77.8-386.4c0,0-2.3-4.2-8.5-4.2c-6.1,0-8.5,4.2-8.5,4.2v2.1h16.9V-386.4z"/>
</g>
<circle class="st7" cx="129.2" cy="-405.8" r="16.8"/>
<g>
	<path class="st1" d="M127.5-408.7c-1.6,0.9-2.1,3-1.2,4.6c1,1.6,3,2.2,4.7,1.2c1.6-0.9,2.1-3,1.2-4.6
		C131.2-409.1,129.1-409.6,127.5-408.7"/>
	<polygon class="st1" points="141.9,-413.1 131.3,-404.4 129,-408.3 	"/>
</g>
<g>
	<path class="st1" d="M115.7-406.9h-5.6c0,0.4-0.1,0.7-0.1,1.1c0,0.4,0,0.8,0.1,1.1h5.6V-406.9z"/>
	<path class="st1" d="M117.8-398.4l-1.1-2l-4.9,2.6c0.3,0.7,0.7,1.4,1.1,2L117.8-398.4z"/>
</g>
<g>
	<path class="st1" d="M121.5-416.9l2-1.1l-2.8-4.8c-0.7,0.3-1.3,0.7-2,1.1L121.5-416.9z"/>
	<path class="st1" d="M112.1-414.3l4.8,2.8l1.1-2l-4.8-2.8C112.8-415.6,112.5-415,112.1-414.3z"/>
	<path class="st1" d="M142.7-404.6h5.6c0-0.4,0.1-0.7,0.1-1.1c0-0.4,0-0.8-0.1-1.1h-5.6V-404.6z"/>
	<path class="st1" d="M146.7-398.1l-5-2.5l-1,2l5,2.5C146-396.7,146.3-397.4,146.7-398.1z"/>
	<path class="st1" d="M139.8-421.6c-0.6-0.4-1.3-0.8-2-1.1L135-418l2,1.1L139.8-421.6z"/>
	<path class="st1" d="M130.3-424.8c-0.4,0-0.7-0.1-1.1-0.1c-0.4,0-0.8,0-1.1,0.1v5.6h2.3V-424.8z"/>
</g>
<path class="st0" d="M129.2-427.1c-11.8,0-21.3,9.6-21.3,21.3c0,11.8,9.6,21.3,21.3,21.3c11.8,0,21.3-9.6,21.3-21.3
	C150.5-417.5,141-427.1,129.2-427.1z M129.2-388.9c-9.3,0-16.8-7.5-16.8-16.8c0-9.3,7.5-16.8,16.8-16.8c9.3,0,16.8,7.5,16.8,16.8
	C146-396.5,138.5-388.9,129.2-388.9z"/>
<path class="st7" d="M128.6-406.7c-0.5,0.3-0.7,1-0.4,1.5c0.3,0.5,1,0.7,1.6,0.4c0.5-0.3,0.7-1,0.4-1.5
	C129.9-406.9,129.2-407,128.6-406.7"/>
<path class="st0" d="M232-388c0,1.6-1.3,2.8-2.8,2.8h-45.3c-1.6,0-2.8-1.3-2.8-2.8v-31.2c0-1.6,1.3-2.8,2.8-2.8h45.3
	c1.6,0,2.8,1.3,2.8,2.8V-388z"/>
<path class="st0" d="M219.2-417.7c0,1.6-1.3,2.8-2.8,2.8h-19.8c-1.6,0-2.8-1.3-2.8-2.8v-7.1c0-1.6,1.3-2.8,2.8-2.8h19.8
	c1.6,0,2.8,1.3,2.8,2.8V-417.7z"/>
<circle class="st7" cx="224.9" cy="-414.9" r="2.8"/>
<circle class="st7" cx="206.5" cy="-403.6" r="14.2"/>
<circle class="st1" cx="206.5" cy="-403.6" r="11.3"/>
<path class="st0" d="M200.8-397.9c0,1.7,0.4,3.2,1,4.7c1.4,0.6,3,1,4.7,1c6.3,0,11.3-5.1,11.3-11.3c0-1.7-0.4-3.2-1-4.7
	c-1.4-0.6-3-1-4.7-1C205.9-409.2,200.8-404.1,200.8-397.9z"/>
<path class="st8" d="M-716.5-245c0,1.5-1.3,2.8-2.8,2.8h-44.8c-1.5,0-2.8-1.3-2.8-2.8v-30.8c0-1.5,1.3-2.8,2.8-2.8h44.8
	c1.5,0,2.8,1.3,2.8,2.8V-245z"/>
<path class="st8" d="M-729.1-274.4c0,1.5-1.3,2.8-2.8,2.8h-19.6c-1.5,0-2.8-1.3-2.8-2.8v-7c0-1.5,1.3-2.8,2.8-2.8h19.6
	c1.5,0,2.8,1.3,2.8,2.8V-274.4z"/>
<circle class="st9" cx="-723.5" cy="-271.6" r="2.8"/>
<circle class="st9" cx="-741.7" cy="-260.4" r="14"/>
<circle class="st10" cx="-741.7" cy="-260.4" r="11.2"/>
<path class="st8" d="M-747.3-254.8c0,1.6,0.4,3.2,1,4.6c1.4,0.6,3,1,4.6,1c6.2,0,11.2-5,11.2-11.2c0-1.6-0.4-3.2-1-4.6
	c-1.4-0.6-3-1-4.6-1C-742.3-266-747.3-261-747.3-254.8z"/>
<g>
	<path class="st4" d="M290.6-409.1h-2.5c0-9.2,5.1-9.6,9.2-9.9c4-0.3,7-0.6,7-7.5h2.5c0,9.3-5.1,9.7-9.3,10
		C293.5-416.2,290.6-416,290.6-409.1z"/>
</g>
<rect x="262" y="-409.1" class="st3" width="54.8" height="24.9"/>
<g>
	<rect x="264.5" y="-406.6" class="st5" width="5" height="5"/>
	<rect x="271.9" y="-406.6" class="st5" width="5" height="5"/>
	<rect x="279.4" y="-406.6" class="st5" width="5" height="5"/>
	<rect x="286.9" y="-406.6" class="st5" width="5" height="5"/>
	<rect x="294.4" y="-406.6" class="st5" width="5" height="5"/>
	<rect x="301.8" y="-406.6" class="st5" width="5" height="5"/>
	<rect x="309.3" y="-406.6" class="st5" width="5" height="5"/>
	<rect x="264.5" y="-391.7" class="st5" width="5" height="5"/>
	<rect x="271.9" y="-391.7" class="st5" width="5" height="5"/>
	<rect x="279.4" y="-391.7" class="st5" width="19.9" height="5"/>
	<rect x="301.8" y="-391.7" class="st5" width="5" height="5"/>
	<rect x="309.3" y="-391.7" class="st5" width="5" height="5"/>
	<rect x="264.5" y="-399.1" class="st5" width="8.7" height="5"/>
	<rect x="275.7" y="-399.1" class="st5" width="5" height="5"/>
	<rect x="283.1" y="-399.1" class="st5" width="5" height="5"/>
	<rect x="290.6" y="-399.1" class="st5" width="5" height="5"/>
	<rect x="298.1" y="-399.1" class="st5" width="5" height="5"/>
	<rect x="305.6" y="-399.1" class="st5" width="8.7" height="5"/>
</g>
<path class="st2" d="M347.2-404.8c0,13.5,18.1,20.4,18.1,20.4s18.1-6.8,18.1-20.4c0-5.6,0-19.2,0-19.2c-4.5,0-18.1-3.4-18.1-3.4
	s-13.6,3.4-18.1,3.4C347.2-424.1,347.2-410.4,347.2-404.8z"/>
<path class="st3" d="M383.4-404.8c0,13.5-18.1,20.4-18.1,20.4v-43c0,0,13.6,3.4,18.1,3.4C383.4-424.1,383.4-410.4,383.4-404.8z"/>
<path class="st4" d="M378.9-404.8c0,8.2-9.7,13.6-13.6,15.4c-3.9-1.8-13.6-7.3-13.6-15.4V-420c4.7-0.7,10.8-2.1,13.6-2.8
	c2.8,0.7,8.8,2.1,13.6,2.8V-404.8z"/>
<path class="st11" d="M378.9-404.8c0,8.2-9.7,13.6-13.6,15.4l0-33.4c2.8,0.7,8.8,2.1,13.6,2.8V-404.8z"/>
<circle class="st6" cx="349.5" cy="-420.7" r="1.1"/>
<circle class="st6" cx="357.4" cy="-423" r="1.1"/>
<circle class="st6" cx="365.3" cy="-425.2" r="1.1"/>
<circle class="st6" cx="349.5" cy="-413.9" r="1.1"/>
<circle class="st6" cx="349.5" cy="-407.1" r="1.1"/>
<circle class="st6" cx="350.6" cy="-400.3" r="1.1"/>
<circle class="st6" cx="354" cy="-394.7" r="1.1"/>
<circle class="st6" cx="359.7" cy="-390.1" r="1.1"/>
<circle class="st6" cx="381.2" cy="-420.7" r="1.1"/>
<circle class="st6" cx="373.2" cy="-423" r="1.1"/>
<circle class="st6" cx="381.2" cy="-413.9" r="1.1"/>
<circle class="st6" cx="381.2" cy="-407.1" r="1.1"/>
<circle class="st6" cx="380" cy="-400.3" r="1.1"/>
<circle class="st6" cx="376.6" cy="-394.7" r="1.1"/>
<circle class="st6" cx="371" cy="-390.1" r="1.1"/>
<polygon class="st6" points="365.3,-403.9 379.7,-414 379.7,-418.5 365.3,-408.4 "/>
<path class="st6" d="M365.3-408.4l-12.4,8.4c0.5,1.1,1.2,2.2,2.1,3.1l10.3-7V-408.4z"/>
<polygon class="st6" points="360.8,-413.9 358.5,-411.1 356.3,-413.9 358.5,-416.7 "/>
<polygon class="st6" points="374.4,-400.3 372.1,-397.5 369.9,-400.3 372.1,-403.1 "/>
<path class="st3" d="M434.9-396.3c0.1-0.4,0.1-0.9,0.1-1.3c0-0.5,0-0.9-0.1-1.3l2.7-1.9c0.3-0.2,0.4-0.6,0.2-0.9l-2.6-4.4
	c-0.2-0.3-0.5-0.4-0.8-0.3l-3,1.4c-0.7-0.6-1.4-1-2.3-1.3l-0.3-3.3c0-0.3-0.3-0.6-0.6-0.6h-5.1c-0.3,0-0.6,0.3-0.6,0.6l-0.4,3.4
	c-0.9,0.3-1.5,0.8-2.3,1.3l-3-1.3c-0.3-0.1-0.7,0-0.8,0.3l-2.6,4.4c-0.2,0.3-0.1,0.7,0.2,0.9l2.7,1.9c-0.1,0.4-0.1,0.9-0.1,1.3
	c0,0.5,0,0.9,0.1,1.3l-2.7,1.9c-0.3,0.2-0.4,0.6-0.2,0.9l2.6,4.4c0.2,0.3,0.5,0.4,0.8,0.3l3-1.3c0.7,0.6,1.4,1,2.3,1.3l0.3,3.3
	c0,0.3,0.3,0.6,0.6,0.6h5.1c0.3,0,0.6-0.3,0.6-0.6l0.3-3.3c0.9-0.3,1.5-0.8,2.3-1.3l3,1.3c0.3,0.1,0.7,0,0.8-0.3l2.6-4.4
	c0.2-0.3,0.1-0.7-0.2-0.9L434.9-396.3z M425.6-392.9c-2.7,0-4.8-2.1-4.8-4.8c0-2.7,2.1-4.8,4.8-4.8c2.7,0,4.8,2.1,4.8,4.8
	C430.4-395,428.3-392.9,425.6-392.9z"/>
<path class="st4" d="M450.5-414.7c0.1-0.5,0.1-0.9,0.1-1.2s0-0.8-0.1-1.2l2.4-1.7c0.3-0.2,0.3-0.5,0.2-0.8l-2.4-4.1
	c-0.2-0.3-0.5-0.4-0.8-0.2l-2.8,1.2c-0.7-0.5-1.3-0.9-2.1-1.2l-0.3-3c0.1-0.3-0.1-0.5-0.4-0.5h-4.7c-0.3,0-0.6,0.2-0.6,0.5l-0.3,3
	c-0.8,0.3-1.4,0.7-2.1,1.2l-2.8-1.2c-0.3-0.1-0.6,0-0.8,0.2l-2.4,4.1c-0.2,0.3-0.1,0.6,0.2,0.8l2.4,1.7c0,0.5,0,0.9,0,1.2
	s0,0.8,0.1,1.2l-2.4,1.7c-0.3,0.2-0.3,0.5-0.2,0.8l2.4,4.1c0.2,0.3,0.5,0.4,0.8,0.2l2.8-1.2c0.7,0.5,1.3,0.9,2.1,1.2l0.3,3
	c0,0.3,0.3,0.5,0.6,0.5h4.7c0.3,0,0.6-0.2,0.6-0.5l0.3-3c0.8-0.3,1.4-0.7,2.1-1.2l2.8,1.2c0.3,0.1,0.6,0,0.8-0.2l2.4-4.1
	c0.2-0.3,0.1-0.6-0.2-0.8L450.5-414.7z M442-411.1c-2.7,0-4.8-2.1-4.8-4.8c0-2.7,2.1-4.8,4.8-4.8c2.7,0,4.8,2.1,4.8,4.8
	C446.8-413.2,444.7-411.1,442-411.1z"/>
<rect x="-641.9" y="-270.2" class="st12" width="4.9" height="28.2"/>
<rect x="-649.3" y="-261.7" class="st13" width="4.9" height="19.6"/>
<rect x="-656.6" y="-267.8" class="st12" width="4.9" height="25.8"/>
<rect x="-664" y="-260.4" class="st13" width="4.9" height="18.4"/>
<rect x="-671.3" y="-256.8" class="st12" width="4.9" height="14.7"/>
<rect x="-678.7" y="-259.2" class="st13" width="4.9" height="17.2"/>
<rect x="-686.1" y="-254.3" class="st12" width="4.9" height="12.3"/>
<g>
	<polygon class="st12" points="-641.8,-284.8 -649.3,-277.4 -654.2,-282.3 -666.4,-270 -672.6,-276.1 -685.3,-263.4 -681.9,-259.9 
		-672.6,-269.3 -666.4,-263.1 -654.2,-275.4 -649.3,-270.5 -638.3,-281.4 	"/>
	<polygon class="st12" points="-637,-286.2 -648,-286.2 -637,-275.1 	"/>
</g>
<circle class="st9" cx="-585.9" cy="-263.7" r="16.8"/>
<g>
	<path class="st10" d="M-587.6-266.6c-1.6,0.9-2.1,3-1.2,4.6c1,1.6,3,2.1,4.6,1.2c1.6-0.9,2.1-3,1.2-4.6
		C-583.9-267-586-267.5-587.6-266.6"/>
	<polygon class="st10" points="-573.2,-271 -583.7,-262.3 -586,-266.2 	"/>
</g>
<g>
	<path class="st10" d="M-599.3-264.8h-5.5c0,0.4-0.1,0.7-0.1,1.1c0,0.4,0,0.8,0.1,1.1h5.5V-264.8z"/>
	<path class="st10" d="M-597.2-256.4l-1.1-2l-4.9,2.6c0.3,0.7,0.7,1.3,1.1,2L-597.2-256.4z"/>
</g>
<g>
	<path class="st10" d="M-593.5-274.8l2-1.1l-2.7-4.8c-0.7,0.3-1.3,0.7-2,1.1L-593.5-274.8z"/>
	<path class="st10" d="M-602.8-272.2l4.8,2.8l1.1-2l-4.8-2.8C-602.1-273.5-602.5-272.9-602.8-272.2z"/>
	<path class="st10" d="M-572.5-262.6h5.5c0-0.4,0.1-0.7,0.1-1.1c0-0.4,0-0.8-0.1-1.1h-5.5V-262.6z"/>
	<path class="st10" d="M-568.5-256.1l-4.9-2.5l-1,2l4.9,2.5C-569.1-254.7-568.8-255.4-568.5-256.1z"/>
	<path class="st10" d="M-575.3-279.5c-0.6-0.4-1.3-0.8-2-1.1l-2.8,4.8l1.9,1.1L-575.3-279.5z"/>
	<path class="st10" d="M-584.8-282.6c-0.4,0-0.7-0.1-1.1-0.1c-0.4,0-0.8,0-1.1,0.1v5.5h2.3V-282.6z"/>
</g>
<path class="st8" d="M-585.9-284.9c-11.7,0-21.2,9.5-21.2,21.2s9.5,21.2,21.2,21.2c11.7,0,21.2-9.5,21.2-21.2
	S-574.1-284.9-585.9-284.9z M-585.9-246.9c-9.3,0-16.8-7.5-16.8-16.8c0-9.3,7.5-16.8,16.8-16.8c9.3,0,16.8,7.5,16.8,16.8
	C-569.1-254.4-576.6-246.9-585.9-246.9z"/>
<path class="st9" d="M-586.4-264.6c-0.5,0.3-0.7,1-0.4,1.5c0.3,0.5,1,0.7,1.5,0.4c0.5-0.3,0.7-1,0.4-1.5
	C-585.2-264.8-585.9-265-586.4-264.6"/>
<path class="st14" d="M-534.6-257.7v11.3c0,2.5,2,4.5,4.5,4.5h31.6c2.5,0,4.5-2,4.5-4.5v-11.3H-534.6z"/>
<path class="st12" d="M-493.9-257.7c0,2.5-2,4.5-4.5,4.5h-31.6c-2.5,0-4.5-2-4.5-4.5l3.4-13.5c0.2-2.4,2-4.5,4.5-4.5h24.8
	c2.5,0,4.2,2,4.5,4.5L-493.9-257.7z"/>
<circle class="st9" cx="-501.8" cy="-247.6" r="2.3"/>
<g>
	<ellipse class="st9" cx="-512.5" cy="-278.7" rx="6.2" ry="6.1"/>
	<ellipse class="st9" cx="-511.1" cy="-268.4" rx="5.1" ry="5"/>
	<ellipse class="st9" cx="-518.1" cy="-273" rx="5.1" ry="5"/>
	<ellipse class="st9" cx="-497.2" cy="-273.4" rx="4.4" ry="4.3"/>
	<ellipse class="st9" cx="-503.1" cy="-269.9" rx="4.4" ry="4.3"/>
	<ellipse class="st9" cx="-502.7" cy="-276.8" rx="4.8" ry="4.6"/>
	<ellipse class="st9" cx="-508.1" cy="-274" rx="5.1" ry="5"/>
</g>
<path class="st15" d="M-717.5-103c0,1.5-1.2,2.8-2.8,2.8h-44.4c-1.5,0-2.8-1.2-2.8-2.8v-30.6c0-1.5,1.2-2.8,2.8-2.8h44.4
	c1.5,0,2.8,1.2,2.8,2.8V-103z"/>
<path class="st15" d="M-730-132.2c0,1.5-1.2,2.8-2.8,2.8h-19.4c-1.5,0-2.8-1.2-2.8-2.8v-6.9c0-1.5,1.2-2.8,2.8-2.8h19.4
	c1.5,0,2.8,1.2,2.8,2.8V-132.2z"/>
<circle class="st16" cx="-724.4" cy="-129.4" r="2.8"/>
<circle class="st16" cx="-742.5" cy="-118.3" r="13.9"/>
<circle class="st17" cx="-742.5" cy="-118.3" r="11.1"/>
<path class="st15" d="M-748-112.7c0,1.6,0.4,3.2,1,4.6c1.4,0.6,2.9,1,4.6,1c6.1,0,11.1-5,11.1-11.1c0-1.6-0.4-3.2-1-4.6
	c-1.4-0.6-2.9-1-4.6-1C-743.1-123.8-748-118.9-748-112.7z"/>
<rect x="-645.5" y="-127.1" class="st18" width="4.7" height="26.8"/>
<rect x="-652.5" y="-118.9" class="st19" width="4.7" height="18.7"/>
<rect x="-659.5" y="-124.7" class="st18" width="4.7" height="24.5"/>
<rect x="-666.5" y="-117.7" class="st19" width="4.7" height="17.5"/>
<rect x="-673.5" y="-114.2" class="st18" width="4.7" height="14"/>
<rect x="-680.5" y="-116.6" class="st19" width="4.7" height="16.3"/>
<rect x="-687.5" y="-111.9" class="st18" width="4.7" height="11.7"/>
<g>
	<polygon class="st18" points="-645.4,-140.9 -652.5,-133.8 -657.1,-138.5 -668.8,-126.8 -674.6,-132.7 -686.8,-120.5 
		-683.5,-117.3 -674.6,-126.1 -668.8,-120.3 -657.1,-132 -652.5,-127.3 -642.1,-137.7 	"/>
	<polygon class="st18" points="-640.8,-142.2 -651.3,-142.2 -640.8,-131.7 	"/>
</g>
<circle class="st16" cx="-589.6" cy="-121.1" r="16.5"/>
<g>
	<path class="st17" d="M-591.3-124c-1.6,0.9-2.1,2.9-1.2,4.5c0.9,1.6,3,2.1,4.6,1.2c1.6-0.9,2.1-2.9,1.2-4.5
		C-587.6-124.4-589.7-124.9-591.3-124"/>
	<polygon class="st17" points="-577.2,-128.3 -587.5,-119.8 -589.7,-123.6 	"/>
</g>
<g>
	<path class="st17" d="M-602.8-122.2h-5.4c0,0.4-0.1,0.7-0.1,1.1c0,0.4,0,0.7,0.1,1.1h5.4V-122.2z"/>
	<path class="st17" d="M-600.7-114l-1-2l-4.8,2.6c0.3,0.7,0.7,1.3,1,2L-600.7-114z"/>
</g>
<g>
	<path class="st17" d="M-597.1-132l1.9-1.1l-2.7-4.7c-0.7,0.3-1.3,0.7-1.9,1.1L-597.1-132z"/>
	<path class="st17" d="M-606.3-129.5l4.7,2.7l1.1-1.9l-4.7-2.7C-605.6-130.8-605.9-130.1-606.3-129.5z"/>
	<path class="st17" d="M-576.4-120h5.4c0-0.4,0.1-0.7,0.1-1.1c0-0.4,0-0.7-0.1-1.1h-5.4V-120z"/>
	<path class="st17" d="M-572.5-113.6l-4.9-2.5l-1,2l4.8,2.5C-573.2-112.3-572.8-113-572.5-113.6z"/>
	<path class="st17" d="M-579.2-136.6c-0.6-0.4-1.3-0.8-1.9-1.1l-2.8,4.7l1.9,1.1L-579.2-136.6z"/>
	<path class="st17" d="M-588.5-139.8c-0.4,0-0.7-0.1-1.1-0.1c-0.4,0-0.7,0-1.1,0.1v5.4h2.2V-139.8z"/>
</g>
<path class="st15" d="M-589.6-142c-11.5,0-20.9,9.3-20.9,20.9c0,11.5,9.3,20.9,20.9,20.9c11.5,0,20.9-9.3,20.9-20.9
	C-568.7-132.7-578.1-142-589.6-142z M-589.6-104.7c-9.1,0-16.5-7.4-16.5-16.5c0-9.1,7.4-16.5,16.5-16.5c9.1,0,16.5,7.4,16.5,16.5
	C-573.1-112.1-580.5-104.7-589.6-104.7z"/>
<path class="st16" d="M-590.1-122.1c-0.5,0.3-0.7,1-0.4,1.5c0.3,0.5,1,0.7,1.5,0.4c0.5-0.3,0.7-1,0.4-1.5
	C-588.9-122.2-589.6-122.4-590.1-122.1"/>
<path class="st19" d="M-537.5-115.3v11.2c0,2.5,2,4.5,4.5,4.5h31.3c2.5,0,4.5-2,4.5-4.5v-11.2H-537.5z"/>
<path class="st18" d="M-497.3-115.3c0,2.5-2,4.5-4.5,4.5h-31.3c-2.5,0-4.5-2-4.5-4.5l3.4-13.4c0.2-2.3,2-4.5,4.5-4.5h24.6
	c2.5,0,4.1,2,4.5,4.5L-497.3-115.3z"/>
<circle class="st16" cx="-505.1" cy="-105.3" r="2.2"/>
<g>
	<ellipse class="st20" cx="-515.7" cy="-136.1" rx="6.2" ry="6"/>
	<ellipse class="st20" cx="-514.3" cy="-125.9" rx="5.1" ry="5"/>
	<ellipse class="st20" cx="-521.3" cy="-130.5" rx="5.1" ry="5"/>
	<ellipse class="st20" cx="-500.5" cy="-130.8" rx="4.4" ry="4.2"/>
	<ellipse class="st20" cx="-506.4" cy="-127.4" rx="4.4" ry="4.2"/>
	<ellipse class="st20" cx="-506" cy="-134.2" rx="4.7" ry="4.6"/>
	<ellipse class="st20" cx="-511.3" cy="-131.4" rx="5.1" ry="5"/>
</g>
<g>
	
		<rect x="-430.7" y="-259" transform="matrix(-0.707 0.7072 -0.7072 -0.707 -908.2652 -123.476)" class="st12" width="4.3" height="18.3"/>
	<circle class="st12" cx="-446.4" cy="-267.7" r="17.2"/>
</g>
<rect x="-428.9" y="-254.7" transform="matrix(-0.7072 0.707 -0.707 -0.7072 -903.9885 -121.8097)" class="st14" width="4.3" height="13.2"/>
<circle class="st9" cx="-446.4" cy="-267.7" r="14"/>
<path class="st6" d="M-439-273.9c-1.8-2.1-4.5-3.4-7.4-3.4c-2.9,0-5.6,1.3-7.4,3.4c-0.4,0.4-0.3,1.2,0.1,1.5
	c0.4,0.4,1.2,0.3,1.5-0.1c1.5-1.7,3.5-2.7,5.8-2.7c2.3,0,4.3,1,5.8,2.7c0.2,0.2,0.5,0.4,0.9,0.4c0.2,0,0.5-0.1,0.6-0.2
	C-438.7-272.7-438.7-273.5-439-273.9z"/>
<path class="st8" d="M-391.2-262.5c0,13.4,18,20.2,18,20.2s18-6.7,18-20.2c0-5.5,0-19.1,0-19.1c-4.4,0-18-3.4-18-3.4
	s-13.5,3.4-18,3.4C-391.2-281.6-391.2-268-391.2-262.5z"/>
<path class="st10" d="M-355.3-262.5c0,13.4-18,20.2-18,20.2v-42.6c0,0,13.5,3.4,18,3.4C-355.3-281.6-355.3-268-355.3-262.5z"/>
<path class="st9" d="M-359.8-262.5c0,8.1-9.6,13.5-13.5,15.3c-3.9-1.8-13.5-7.2-13.5-15.3v-15c4.7-0.7,10.7-2.1,13.5-2.8
	c2.7,0.7,8.8,2.1,13.5,2.8V-262.5z"/>
<path class="st21" d="M-359.8-262.4c0,8.1-9.6,13.5-13.5,15.3l0-33.1c2.7,0.7,8.8,2.1,13.5,2.8V-262.4z"/>
<circle class="st6" cx="-389" cy="-278.2" r="1.1"/>
<circle class="st6" cx="-381.1" cy="-280.4" r="1.1"/>
<circle class="st6" cx="-373.3" cy="-282.7" r="1.1"/>
<circle class="st6" cx="-389" cy="-271.5" r="1.1"/>
<circle class="st6" cx="-389" cy="-264.7" r="1.1"/>
<circle class="st6" cx="-387.8" cy="-258" r="1.1"/>
<circle class="st6" cx="-384.5" cy="-252.4" r="1.1"/>
<circle class="st6" cx="-378.9" cy="-247.9" r="1.1"/>
<circle class="st6" cx="-357.6" cy="-278.2" r="1.1"/>
<circle class="st6" cx="-365.4" cy="-280.4" r="1.1"/>
<circle class="st6" cx="-357.6" cy="-271.5" r="1.1"/>
<circle class="st6" cx="-357.6" cy="-264.7" r="1.1"/>
<circle class="st6" cx="-358.7" cy="-258" r="1.1"/>
<circle class="st6" cx="-362" cy="-252.4" r="1.1"/>
<circle class="st6" cx="-367.6" cy="-247.9" r="1.1"/>
<polygon class="st6" points="-373.3,-261.5 -359.8,-270.7 -359.8,-275.2 -373.3,-266 "/>
<path class="st6" d="M-373.3-266l-12.3,8.4c0.5,1.1,1.2,2.1,2,3.1l10.3-7L-373.3-266z"/>
<polygon class="st6" points="-377.7,-271.5 -380,-268.6 -382.2,-271.5 -380,-274.3 "/>
<polygon class="st6" points="-364.3,-258 -366.5,-255.2 -368.8,-258 -366.5,-260.8 "/>
<circle class="st14" cx="-280.5" cy="-276.4" r="8.4"/>
<circle class="st14" cx="-305.8" cy="-276.4" r="8.4"/>
<path class="st12" d="M-261.2-263.8l-21.5,4.2h-20.7l-21.5-4.2l6-11.1c1.5-2.7,4.4-4.4,7.5-4.4h36.8c3.1,0,5.9,1.7,7.5,4.4
	L-261.2-263.8z"/>
<circle class="st14" cx="-273.4" cy="-256.7" r="14.1"/>
<circle class="st14" cx="-312.8" cy="-256.7" r="14.1"/>
<circle class="st14" cx="-293.1" cy="-259.6" r="7"/>
<circle class="st9" cx="-293.1" cy="-259.6" r="2.8"/>
<g>
	<circle class="st9" cx="-273.4" cy="-256.7" r="9.8"/>
	<circle class="st9" cx="-312.8" cy="-256.7" r="9.8"/>
</g>
<g>
	<path class="st6" d="M-268.2-260c-1.4-1.5-3.2-2.4-5.2-2.4c-2,0-3.9,0.8-5.2,2.4c-0.6,0.6-0.4,1.4,0.1,2c0.6,0.6,1.4,0.4,2-0.1
		c1.7-1.8,4.6-1.8,6.3,0c0.3,0.3,0.7,0.4,1,0.4c0.3,0,0.7-0.1,1-0.4C-267.7-258.6-267.7-259.4-268.2-260z"/>
	<path class="st6" d="M-312.8-262.4c-2,0-3.9,0.8-5.2,2.4c-0.6,0.6-0.4,1.4,0.1,2c0.6,0.6,1.4,0.4,2-0.1c1.7-1.8,4.6-1.8,6.3,0
		c0.3,0.3,0.7,0.4,1,0.4c0.3,0,0.7-0.1,1-0.4c0.6-0.6,0.6-1.4,0.1-2C-308.9-261.5-310.8-262.4-312.8-262.4z"/>
</g>
<path class="st10" d="M-207.1-266h13.8l6.4,6.4v-18c0-2.3-1.9-4.2-4.2-4.2h-15.9c-2.3,0-4.2,1.9-4.2,4.2v7.4
	C-211.4-267.9-209.5-266-207.1-266z"/>
<path class="st12" d="M-209.2-269.2H-223l-6.4,6.4v-18c0-2.3,1.9-4.2,4.2-4.2h15.9c2.3,0,4.2,1.9,4.2,4.2v7.4
	C-205-271.1-206.9-269.2-209.2-269.2z"/>
<g>
	<circle class="st12" cx="-220.9" cy="-256.5" r="5.3"/>
	<circle class="st12" cx="-195.5" cy="-256.5" r="5.3"/>
</g>
<g>
	<path class="st10" d="M-212.4-244.8c0,0-2.3-4.2-8.5-4.2c-6.1,0-8.5,4.2-8.5,4.2v2.1h16.9V-244.8L-212.4-244.8z"/>
	<path class="st10" d="M-187-244.8c0,0-2.3-4.2-8.5-4.2c-6.1,0-8.5,4.2-8.5,4.2v2.1h16.9V-244.8z"/>
</g>
<path class="st14" d="M-136.1-254.4c0.1-0.4,0.1-0.8,0.1-1.3c0-0.5,0-0.8-0.1-1.3l2.6-1.9c0.3-0.2,0.4-0.6,0.2-0.8l-2.5-4.3
	c-0.2-0.3-0.5-0.4-0.7-0.3l-2.9,1.4c-0.7-0.6-1.4-0.9-2.2-1.3l-0.3-3.2c0-0.3-0.3-0.6-0.6-0.6h-5c-0.3,0-0.6,0.3-0.6,0.6l-0.4,3.3
	c-0.8,0.3-1.5,0.7-2.2,1.3l-2.9-1.3c-0.3-0.1-0.7,0-0.7,0.3l-2.5,4.3c-0.2,0.3-0.1,0.7,0.2,0.8l2.6,1.9c-0.1,0.4-0.1,0.8-0.1,1.3
	c0,0.5,0,0.8,0.1,1.3l-2.6,1.9c-0.3,0.2-0.4,0.6-0.2,0.8l2.5,4.3c0.2,0.3,0.5,0.4,0.7,0.3l2.9-1.3c0.7,0.6,1.4,0.9,2.2,1.3l0.3,3.2
	c0,0.3,0.3,0.6,0.6,0.6h5c0.3,0,0.6-0.3,0.6-0.6l0.3-3.2c0.8-0.3,1.5-0.8,2.2-1.3l2.9,1.3c0.3,0.1,0.7,0,0.7-0.3l2.5-4.3
	c0.2-0.3,0.1-0.7-0.2-0.8L-136.1-254.4z M-145.1-251c-2.6,0-4.7-2.1-4.7-4.7c0-2.6,2.1-4.7,4.7-4.7c2.6,0,4.7,2.1,4.7,4.7
	C-140.4-253.1-142.5-251-145.1-251z"/>
<path class="st12" d="M-120.9-272.3c0.1-0.5,0.1-0.8,0.1-1.2c0-0.4,0-0.7-0.1-1.2l2.3-1.7c0.3-0.2,0.3-0.5,0.2-0.7l-2.3-4
	c-0.2-0.3-0.5-0.4-0.8-0.2l-2.7,1.2c-0.7-0.5-1.3-0.8-2.1-1.2l-0.3-2.9c0.1-0.3-0.1-0.5-0.4-0.5h-4.6c-0.3,0-0.6,0.2-0.6,0.5
	l-0.3,2.9c-0.7,0.3-1.4,0.7-2.1,1.2l-2.7-1.2c-0.3-0.1-0.6,0-0.7,0.2l-2.3,4c-0.2,0.3-0.1,0.6,0.2,0.7l2.3,1.7c0,0.5,0,0.8,0,1.2
	c0,0.4,0,0.7,0.1,1.2l-2.3,1.7c-0.3,0.2-0.3,0.5-0.2,0.8l2.3,4c0.2,0.3,0.5,0.4,0.7,0.2l2.7-1.2c0.7,0.5,1.3,0.8,2.1,1.2l0.3,2.9
	c0,0.3,0.3,0.5,0.6,0.5h4.6c0.3,0,0.6-0.2,0.6-0.5l0.3-2.9c0.7-0.3,1.4-0.7,2.1-1.2l2.7,1.2c0.3,0.1,0.6,0,0.8-0.2l2.3-4
	c0.2-0.3,0.1-0.6-0.2-0.8L-120.9-272.3z M-129.2-268.8c-2.6,0-4.7-2.1-4.7-4.7c0-2.6,2.1-4.7,4.7-4.7c2.6,0,4.7,2.1,4.7,4.7
	C-124.5-270.9-126.6-268.8-129.2-268.8z"/>
<g>
	<path class="st8" d="M-58.4-267.6h-2.5c0-9.2,5.1-9.6,9.2-9.9c4.1-0.3,7-0.6,7-7.6h2.5c0,9.3-5.2,9.7-9.3,10.1
		C-55.5-274.7-58.4-274.4-58.4-267.6z"/>
</g>
<rect x="-87.2" y="-267.6" class="st10" width="55" height="25"/>
<g>
	<rect x="-84.7" y="-265.1" class="st8" width="5" height="5"/>
	<rect x="-77.2" y="-265.1" class="st8" width="5" height="5"/>
	<rect x="-69.7" y="-265.1" class="st8" width="5" height="5"/>
	<rect x="-62.2" y="-265.1" class="st8" width="5" height="5"/>
	<rect x="-54.7" y="-265.1" class="st8" width="5" height="5"/>
	<rect x="-47.2" y="-265.1" class="st8" width="5" height="5"/>
	<rect x="-39.7" y="-265.1" class="st8" width="5" height="5"/>
	<rect x="-84.7" y="-250.1" class="st8" width="5" height="5"/>
	<rect x="-77.2" y="-250.1" class="st8" width="5" height="5"/>
	<rect x="-69.7" y="-250.1" class="st8" width="20" height="5"/>
	<rect x="-47.2" y="-250.1" class="st8" width="5" height="5"/>
	<rect x="-39.7" y="-250.1" class="st8" width="5" height="5"/>
	<rect x="-84.7" y="-257.6" class="st8" width="8.8" height="5"/>
	<rect x="-73.4" y="-257.6" class="st8" width="5" height="5"/>
	<rect x="-65.9" y="-257.6" class="st8" width="5" height="5"/>
	<rect x="-58.4" y="-257.6" class="st8" width="5" height="5"/>
	<rect x="-50.9" y="-257.6" class="st8" width="5" height="5"/>
	<rect x="-43.4" y="-257.6" class="st8" width="8.8" height="5"/>
</g>
<g>
	
		<rect x="-434.1" y="-116.7" transform="matrix(-0.707 0.7072 -0.7072 -0.707 -813.5347 121.5776)" class="st15" width="4.2" height="17.9"/>
	<circle class="st15" cx="-449.4" cy="-125.2" r="16.8"/>
</g>
<rect x="-432.3" y="-112.4" transform="matrix(-0.7072 0.707 -0.707 -0.7072 -809.3505 123.2624)" class="st17" width="4.2" height="12.9"/>
<circle class="st20" cx="-449.4" cy="-125.2" r="13.7"/>
<path class="st6" d="M-442.2-131.3c-1.8-2.1-4.4-3.4-7.3-3.4c-2.8,0-5.5,1.3-7.3,3.4c-0.4,0.4-0.3,1.2,0.1,1.5
	c0.4,0.4,1.2,0.3,1.5-0.1c1.5-1.7,3.5-2.6,5.7-2.6c2.2,0,4.2,0.9,5.7,2.6c0.2,0.2,0.5,0.4,0.8,0.4c0.2,0,0.5-0.1,0.6-0.2
	C-441.9-130.1-441.9-130.9-442.2-131.3z"/>
<path class="st15" d="M-393.2-120.7c0,12.9,17.3,19.5,17.3,19.5s17.3-6.5,17.3-19.5c0-5.4,0-18.4,0-18.4c-4.3,0-17.3-3.3-17.3-3.3
	s-13.1,3.3-17.3,3.3C-393.2-139.2-393.2-126.1-393.2-120.7z"/>
<path class="st17" d="M-358.5-120.7c0,12.9-17.3,19.5-17.3,19.5v-41.2c0,0,13.1,3.3,17.3,3.3C-358.5-139.2-358.5-126.1-358.5-120.7z
	"/>
<path class="st20" d="M-362.9-120.7c0,7.8-9.3,13-13,14.8c-3.7-1.8-13-6.9-13-14.8v-14.5c4.5-0.7,10.4-2.1,13-2.7
	c2.7,0.6,8.5,2,13,2.7V-120.7z"/>
<path class="st22" d="M-362.9-120.7c0,7.8-9.3,13-13,14.8l0-32c2.7,0.6,8.5,2,13,2.7V-120.7z"/>
<circle class="st6" cx="-391" cy="-135.9" r="1.1"/>
<circle class="st6" cx="-383.5" cy="-138.1" r="1.1"/>
<circle class="st6" cx="-375.9" cy="-140.3" r="1.1"/>
<circle class="st6" cx="-391" cy="-129.4" r="1.1"/>
<circle class="st6" cx="-391" cy="-122.9" r="1.1"/>
<circle class="st6" cx="-390" cy="-116.4" r="1.1"/>
<circle class="st6" cx="-386.7" cy="-111" r="1.1"/>
<circle class="st6" cx="-381.3" cy="-106.6" r="1.1"/>
<circle class="st6" cx="-360.7" cy="-135.9" r="1.1"/>
<circle class="st6" cx="-368.3" cy="-138.1" r="1.1"/>
<circle class="st6" cx="-360.7" cy="-129.4" r="1.1"/>
<circle class="st6" cx="-360.7" cy="-122.9" r="1.1"/>
<circle class="st6" cx="-361.8" cy="-116.4" r="1.1"/>
<circle class="st6" cx="-365" cy="-111" r="1.1"/>
<circle class="st6" cx="-370.4" cy="-106.6" r="1.1"/>
<polygon class="st6" points="-375.9,-119.8 -362.9,-128.7 -362.9,-133 -375.9,-124.2 "/>
<path class="st6" d="M-375.9-124.2l-11.9,8.1c0.5,1.1,1.2,2.1,2,3l9.9-6.7L-375.9-124.2z"/>
<polygon class="st6" points="-380.2,-129.4 -382.4,-126.7 -384.5,-129.4 -382.4,-132.1 "/>
<polygon class="st6" points="-367.2,-116.4 -369.4,-113.7 -371.5,-116.4 -369.4,-119.1 "/>
<circle class="st19" cx="-282.3" cy="-133.6" r="8.4"/>
<circle class="st19" cx="-307.5" cy="-133.6" r="8.4"/>
<path class="st18" d="M-263.1-121l-21.4,4.2h-20.6l-21.4-4.2l6-11.1c1.5-2.7,4.3-4.3,7.4-4.3h36.7c3.1,0,5.9,1.7,7.4,4.3L-263.1-121
	z"/>
<circle class="st19" cx="-275.3" cy="-114" r="14"/>
<circle class="st19" cx="-314.5" cy="-114" r="14"/>
<circle class="st19" cx="-294.9" cy="-116.8" r="7"/>
<circle class="st20" cx="-294.9" cy="-116.8" r="2.8"/>
<g>
	<circle class="st20" cx="-275.3" cy="-114" r="9.8"/>
	<circle class="st20" cx="-314.5" cy="-114" r="9.8"/>
</g>
<g>
	<path class="st6" d="M-270.1-117.2c-1.4-1.5-3.2-2.4-5.2-2.4c-2,0-3.9,0.8-5.2,2.4c-0.6,0.6-0.4,1.4,0.1,2c0.6,0.6,1.4,0.4,2-0.1
		c1.7-1.8,4.6-1.8,6.3,0c0.3,0.3,0.7,0.4,1,0.4c0.3,0,0.7-0.1,1-0.4C-269.5-115.8-269.5-116.7-270.1-117.2z"/>
	<path class="st6" d="M-314.5-119.6c-2,0-3.9,0.8-5.2,2.4c-0.6,0.6-0.4,1.4,0.1,2c0.6,0.6,1.4,0.4,2-0.1c1.7-1.8,4.6-1.8,6.3,0
		c0.3,0.3,0.7,0.4,1,0.4c0.3,0,0.7-0.1,1-0.4c0.6-0.6,0.6-1.4,0.1-2C-310.6-118.8-312.6-119.6-314.5-119.6z"/>
</g>
<path class="st17" d="M-210.8-123.2h13.5l6.2,6.2v-17.7c0-2.3-1.9-4.2-4.2-4.2h-15.6c-2.3,0-4.2,1.9-4.2,4.2v7.3
	C-215-125.1-213.1-123.2-210.8-123.2z"/>
<path class="st15" d="M-212.9-126.3h-13.5l-6.2,6.2v-17.7c0-2.3,1.9-4.2,4.2-4.2h15.6c2.3,0,4.2,1.9,4.2,4.2v7.3
	C-208.8-128.2-210.6-126.3-212.9-126.3z"/>
<g>
	<circle class="st15" cx="-224.3" cy="-113.9" r="5.2"/>
	<circle class="st15" cx="-199.4" cy="-113.9" r="5.2"/>
</g>
<g>
	<path class="st17" d="M-216-102.5c0,0-2.3-4.2-8.3-4.2c-6,0-8.3,4.2-8.3,4.2v2.1h16.6V-102.5L-216-102.5z"/>
	<path class="st17" d="M-191.1-102.5c0,0-2.3-4.2-8.3-4.2c-6,0-8.3,4.2-8.3,4.2v2.1h16.6V-102.5z"/>
</g>
<path class="st19" d="M-140-111.9c0.1-0.4,0.1-0.9,0.1-1.3c0-0.5,0-0.9-0.1-1.3l2.7-1.9c0.3-0.2,0.4-0.6,0.2-0.9l-2.6-4.4
	c-0.2-0.3-0.5-0.4-0.8-0.3l-2.9,1.4c-0.7-0.6-1.4-0.9-2.3-1.3l-0.3-3.2c0-0.3-0.3-0.6-0.6-0.6h-5c-0.3,0-0.6,0.3-0.6,0.6l-0.4,3.3
	c-0.9,0.3-1.5,0.8-2.3,1.3l-2.9-1.3c-0.3-0.1-0.7,0-0.8,0.3l-2.6,4.4c-0.2,0.3-0.1,0.7,0.2,0.9l2.7,1.9c-0.1,0.4-0.1,0.9-0.1,1.3
	c0,0.5,0,0.9,0.1,1.3l-2.7,1.9c-0.3,0.2-0.4,0.6-0.2,0.9l2.6,4.4c0.2,0.3,0.5,0.4,0.8,0.3l2.9-1.3c0.7,0.6,1.4,0.9,2.3,1.3l0.3,3.2
	c0,0.3,0.3,0.6,0.6,0.6h5c0.3,0,0.6-0.3,0.6-0.6l0.3-3.2c0.9-0.3,1.5-0.8,2.3-1.3l2.9,1.3c0.3,0.1,0.7,0,0.8-0.3l2.6-4.4
	c0.2-0.3,0.1-0.7-0.2-0.9L-140-111.9z M-149.1-108.5c-2.7,0-4.7-2.1-4.7-4.7c0-2.7,2.1-4.7,4.7-4.7c2.7,0,4.7,2.1,4.7,4.7
	C-144.3-110.6-146.4-108.5-149.1-108.5z"/>
<path class="st18" d="M-124.5-130c0.1-0.5,0.1-0.9,0.1-1.2c0-0.4,0-0.8-0.1-1.2l2.4-1.7c0.3-0.2,0.3-0.5,0.2-0.8l-2.4-4.1
	c-0.2-0.3-0.5-0.4-0.8-0.2l-2.7,1.2c-0.7-0.5-1.3-0.9-2.1-1.2l-0.3-2.9c0.1-0.3-0.1-0.5-0.4-0.5h-4.6c-0.3,0-0.6,0.2-0.6,0.5
	l-0.3,2.9c-0.8,0.3-1.4,0.7-2.1,1.2l-2.7-1.2c-0.3-0.1-0.6,0-0.8,0.2l-2.4,4.1c-0.2,0.3-0.1,0.6,0.2,0.8l2.4,1.7c0,0.5,0,0.9,0,1.2
	c0,0.4,0,0.8,0.1,1.2l-2.4,1.7c-0.3,0.2-0.3,0.5-0.2,0.8l2.4,4.1c0.2,0.3,0.5,0.4,0.8,0.2l2.7-1.2c0.7,0.5,1.3,0.9,2.1,1.2l0.3,2.9
	c0,0.3,0.3,0.5,0.6,0.5h4.6c0.3,0,0.6-0.2,0.6-0.5l0.3-2.9c0.8-0.3,1.4-0.7,2.1-1.2l2.7,1.2c0.3,0.1,0.6,0,0.8-0.2l2.4-4.1
	c0.2-0.3,0.1-0.6-0.2-0.8L-124.5-130z M-133-126.5c-2.7,0-4.7-2.1-4.7-4.7c0-2.7,2.1-4.7,4.7-4.7c2.7,0,4.7,2.1,4.7,4.7
	C-128.2-128.6-130.3-126.5-133-126.5z"/>
<g>
	<path class="st15" d="M-63.3-124.8h-2.4c0-9,5-9.3,9-9.7c4-0.3,6.8-0.5,6.8-7.4h2.4c0,9.1-5,9.5-9.1,9.8
		C-60.4-131.7-63.3-131.5-63.3-124.8z"/>
</g>
<rect x="-91.2" y="-124.8" class="st17" width="53.5" height="24.3"/>
<g>
	<rect x="-88.8" y="-122.4" class="st15" width="4.9" height="4.9"/>
	<rect x="-81.5" y="-122.4" class="st15" width="4.9" height="4.9"/>
	<rect x="-74.2" y="-122.4" class="st15" width="4.9" height="4.9"/>
	<rect x="-66.9" y="-122.4" class="st15" width="4.9" height="4.9"/>
	<rect x="-59.6" y="-122.4" class="st15" width="4.9" height="4.9"/>
	<rect x="-52.3" y="-122.4" class="st15" width="4.9" height="4.9"/>
	<rect x="-45" y="-122.4" class="st15" width="4.9" height="4.9"/>
	<rect x="-88.8" y="-107.8" class="st15" width="4.9" height="4.9"/>
	<rect x="-81.5" y="-107.8" class="st15" width="4.9" height="4.9"/>
	<rect x="-74.2" y="-107.8" class="st15" width="19.5" height="4.9"/>
	<rect x="-52.3" y="-107.8" class="st15" width="4.9" height="4.9"/>
	<rect x="-45" y="-107.8" class="st15" width="4.9" height="4.9"/>
	<rect x="-88.8" y="-115.1" class="st15" width="8.5" height="4.9"/>
	<rect x="-77.9" y="-115.1" class="st15" width="4.9" height="4.9"/>
	<rect x="-70.6" y="-115.1" class="st15" width="4.9" height="4.9"/>
	<rect x="-63.3" y="-115.1" class="st15" width="4.9" height="4.9"/>
	<rect x="-56" y="-115.1" class="st15" width="4.9" height="4.9"/>
	<rect x="-48.7" y="-115.1" class="st15" width="8.5" height="4.9"/>
</g>
<circle class="st12" cx="19.9" cy="-264.2" r="22.7"/>
<circle class="st9" cx="19.9" cy="-264.2" r="18.1"/>
<rect x="18.8" y="-278.9" class="st14" width="2.3" height="14.7"/>
<rect x="22.3" y="-265.7" transform="matrix(0.7069 -0.7073 0.7073 0.7069 191.1732 -59.6586)" class="st14" width="2.6" height="10.4"/>
<circle class="st14" cx="19.9" cy="-264.2" r="2.3"/>
<circle class="st9" cx="19.9" cy="-264.2" r="1.1"/>
<g>
	<polygon class="st8" points="105.9,-241.8 72.8,-241.8 72.8,-285.2 95.6,-285.2 105.9,-274.9 	"/>
</g>
<polygon class="st10" points="104.4,-272.2 94.5,-272.2 94.5,-282 "/>
<g>
	<rect x="81.1" y="-266.6" class="st10" width="17.6" height="2.1"/>
	<rect x="81.1" y="-262.5" class="st10" width="13.4" height="2.1"/>
	<rect x="81.1" y="-258.4" class="st10" width="17.6" height="2.1"/>
	<rect x="81.1" y="-254.2" class="st10" width="13.4" height="2.1"/>
</g>
<path class="st14" d="M187.9-253.6c0,0.8-0.6,2.8-1.4,2.8h-42.2c-0.8,0-1.4-2-1.4-2.8v-29.5c0-0.8,0.6-1.4,1.4-1.4h42.2
	c0.8,0,1.4,0.6,1.4,1.4V-253.6z"/>
<rect x="145.8" y="-281.7" class="st9" width="39.4" height="25.3"/>
<g>
	<rect x="135.9" y="-245.1" class="st14" width="59" height="2.8"/>
	<polygon class="st14" points="187.9,-253.6 142.9,-253.6 135.9,-245.1 195,-245.1 	"/>
</g>
<polygon class="st12" points="145.8,-252.2 185.1,-252.2 187.9,-247.9 142.9,-247.9 "/>
<g>
	<polygon class="st8" points="255.3,-246.3 226.6,-246.3 226.6,-285.3 246.1,-285.3 255.3,-276 	"/>
</g>
<polygon class="st9" points="253.7,-275 245,-275 245,-283.7 "/>
<rect x="260.7" y="-253.7" transform="matrix(-0.7073 0.7069 -0.7069 -0.7073 272.6081 -607.9679)" class="st10" width="2.9" height="12.3"/>
<circle class="st10" cx="250.2" cy="-259.7" r="11.3"/>
<circle class="st8" cx="250.2" cy="-259.7" r="9.2"/>
<rect x="262" y="-250.8" transform="matrix(-0.707 0.7072 -0.7072 -0.707 275.3534 -606.8455)" class="st10" width="2.9" height="8.9"/>
<g>
	<path class="st9" d="M252.2-257.6h-9.9c0.4,1.6,1.3,3.1,2.6,4.1h7.4V-257.6z"/>
	<path class="st9" d="M242.3-261.7h9.9v-4.1h-7.5C243.5-264.8,242.7-263.3,242.3-261.7z"/>
	<path class="st9" d="M242.1-268.9h-9.3v2h7.5C240.7-267.5,241.4-268.3,242.1-268.9z"/>
	<path class="st9" d="M239-264.8h-6.2v2h5.5C238.5-263.4,238.7-264.2,239-264.8z"/>
	<path class="st9" d="M237.9-259.7c0-0.3,0-0.7,0.1-1h-5.2v2h5.2C237.9-258.9,237.9-259.3,237.9-259.7z"/>
	<path class="st9" d="M238.3-256.6h-5.5v2h6.2C238.7-255.2,238.5-255.9,238.3-256.6z"/>
</g>
<path class="st12" d="M398.1-257.2c-3.7,0-6.7-3-6.7-6.7s3-6.7,6.7-6.7v-14.6c-11.8,0-21.4,9.6-21.4,21.4c0,11.8,9.6,21.4,21.4,21.4
	c4.9,0,9.6-1.7,13.3-4.6l-9-11.5C401.2-257.7,399.7-257.2,398.1-257.2z"/>
<path class="st13" d="M404.9-263.9h14.6c0-11.8-9.6-21.4-21.4-21.4v14.6C401.9-270.7,404.9-267.6,404.9-263.9z"/>
<path class="st9" d="M419.5-263.9h-14.6c0,2.1-1,4-2.6,5.3l9,11.5C416.4-251.1,419.5-257.2,419.5-263.9z"/>
<rect x="297.1" y="-284.7" class="st8" width="49.6" height="42.2"/>
<rect x="303.3" y="-278.5" class="st9" width="37.2" height="6.2"/>
<g>
	<rect x="303.3" y="-267.3" class="st10" width="16.1" height="19.9"/>
	<rect x="324.4" y="-267.3" class="st10" width="16.1" height="19.9"/>
</g>
<g>
	<g id="XMLID_2_">
		<g>
			<path class="st17" d="M51-103v2.8H-7.2v-2.8l6.9-8.3v-29.1c0-0.8,0.6-1.4,1.4-1.4h41.5c0.8,0,1.4,0.6,1.4,1.4v29.1L51-103z"/>
		</g>
		<g>
		</g>
	</g>
</g>
<rect x="2.5" y="-138.9" class="st6" width="38.7" height="24.9"/>
<polygon class="st15" points="2.5,-109.9 41.3,-109.9 44,-105.7 -0.2,-105.7 "/>
<path class="st17" d="M118.7-142.2H84.4c-1.9,0-3.4,1.5-3.4,3.4v37.7l9.8-9.1h27.9c1.9,0,3.4-1.5,3.4-3.4v-25.1
	C122.1-140.7,120.6-142.2,118.7-142.2z"/>
<g>
	<rect x="85.5" y="-133.1" class="st15" width="32" height="2.3"/>
	<rect x="85.5" y="-127.3" class="st15" width="32" height="2.3"/>
	<rect x="85.5" y="-121.6" class="st15" width="18.3" height="2.3"/>
</g>
<g>
	<g id="XMLID_1_">
		<g>
			<path class="st23" d="M195.5,39.8v2.8h-59v-2.8l7-8.4V1.8c0-0.8,0.6-1.4,1.4-1.4h42.1c0.8,0,1.4,0.6,1.4,1.4v29.5L195.5,39.8z"/>
		</g>
		<g>
		</g>
	</g>
</g>
<path class="st23" d="M-715.6,40c0,1.5-1.3,2.8-2.8,2.8h-44.8c-1.5,0-2.8-1.3-2.8-2.8V9.2c0-1.5,1.3-2.8,2.8-2.8h44.8
	c1.5,0,2.8,1.3,2.8,2.8V40z"/>
<path class="st23" d="M-728.2,10.6c0,1.5-1.3,2.8-2.8,2.8h-19.6c-1.5,0-2.8-1.3-2.8-2.8v-7c0-1.5,1.3-2.8,2.8-2.8h19.6
	c1.5,0,2.8,1.3,2.8,2.8V10.6z"/>
<circle class="st16" cx="-722.6" cy="13.4" r="2.8"/>
<circle class="st16" cx="-740.8" cy="24.6" r="14"/>
<circle class="st24" cx="-740.8" cy="24.6" r="11.2"/>
<path class="st23" d="M-746.4,30.2c0,1.6,0.4,3.2,1,4.6c1.4,0.6,3,1,4.6,1c6.2,0,11.2-5,11.2-11.2c0-1.6-0.4-3.2-1-4.6
	c-1.4-0.6-3-1-4.6-1C-741.4,19-746.4,24-746.4,30.2z"/>
<rect x="-642.7" y="15.3" class="st25" width="4.8" height="27.4"/>
<rect x="-649.9" y="23.6" class="st26" width="4.8" height="19.1"/>
<rect x="-657" y="17.7" class="st25" width="4.8" height="25"/>
<rect x="-664.2" y="24.8" class="st26" width="4.8" height="17.9"/>
<rect x="-671.3" y="28.4" class="st25" width="4.8" height="14.3"/>
<rect x="-678.5" y="26" class="st26" width="4.8" height="16.7"/>
<rect x="-685.6" y="30.8" class="st25" width="4.8" height="11.9"/>
<g>
	<polygon class="st25" points="-642.6,1.1 -649.9,8.4 -654.6,3.6 -666.5,15.5 -672.5,9.5 -684.9,22 -681.6,25.3 -672.5,16.2 
		-666.5,22.2 -654.6,10.3 -649.9,15 -639.2,4.4 	"/>
	<polygon class="st25" points="-637.9,-0.2 -648.7,-0.2 -637.9,10.5 	"/>
</g>
<circle class="st16" cx="-586.1" cy="21.4" r="17.2"/>
<g>
	<path class="st24" d="M-587.8,18.4c-1.7,1-2.2,3.1-1.2,4.7c1,1.7,3.1,2.2,4.8,1.2c1.7-1,2.2-3.1,1.2-4.7
		C-584,18-586.2,17.4-587.8,18.4"/>
	<polygon class="st24" points="-573.1,13.8 -583.9,22.8 -586.2,18.8 	"/>
</g>
<g>
	<path class="st24" d="M-599.9,20.2h-5.7c0,0.4-0.1,0.8-0.1,1.1c0,0.4,0,0.8,0.1,1.2h5.7V20.2z"/>
	<path class="st24" d="M-597.7,28.9l-1.1-2l-5,2.7c0.3,0.7,0.7,1.4,1.1,2L-597.7,28.9z"/>
</g>
<g>
	<path class="st24" d="M-593.9,10l2-1.2l-2.8-5c-0.7,0.3-1.4,0.7-2,1.1L-593.9,10z"/>
	<path class="st24" d="M-603.5,12.6l4.9,2.9l1.2-2l-4.9-2.9C-602.8,11.3-603.2,11.9-603.5,12.6z"/>
	<path class="st24" d="M-572.3,22.5h5.7c0-0.4,0.1-0.8,0.1-1.1c0-0.4,0-0.8-0.1-1.2h-5.7V22.5z"/>
	<path class="st24" d="M-568.2,29.2l-5.1-2.6l-1.1,2.1l5.1,2.6C-568.9,30.6-568.5,29.9-568.2,29.2z"/>
	<path class="st24" d="M-575.2,5.1c-0.6-0.4-1.3-0.8-2-1.2l-2.9,4.9l2,1.2L-575.2,5.1z"/>
	<path class="st24" d="M-584.9,1.9c-0.4,0-0.8-0.1-1.1-0.1c-0.4,0-0.8,0-1.2,0.1v5.7h2.3V1.9z"/>
</g>
<path class="st23" d="M-586.1-0.5c-12.1,0-21.8,9.8-21.8,21.8c0,12.1,9.8,21.8,21.8,21.8c12.1,0,21.8-9.8,21.8-21.8
	C-564.2,9.3-574-0.5-586.1-0.5z M-586.1,38.6c-9.5,0-17.2-7.7-17.2-17.2c0-9.5,7.7-17.2,17.2-17.2c9.5,0,17.2,7.7,17.2,17.2
	C-568.8,30.9-576.6,38.6-586.1,38.6z"/>
<path class="st16" d="M-586.6,20.4c-0.5,0.3-0.7,1-0.4,1.6c0.3,0.5,1,0.7,1.6,0.4c0.6-0.3,0.7-1,0.4-1.6
	C-585.4,20.2-586.1,20.1-586.6,20.4"/>
<path class="st26" d="M-534.2,27.2v11.2c0,2.5,2,4.5,4.5,4.5h31.3c2.5,0,4.5-2,4.5-4.5V27.2H-534.2z"/>
<path class="st25" d="M-494,27.2c0,2.5-2,4.5-4.5,4.5h-31.3c-2.5,0-4.5-2-4.5-4.5l3.4-13.4c0.2-2.3,2-4.5,4.5-4.5h24.6
	c2.5,0,4.1,2,4.5,4.5L-494,27.2z"/>
<circle class="st16" cx="-501.8" cy="37.2" r="2.2"/>
<g>
	<ellipse class="st20" cx="-512.4" cy="6.4" rx="6.2" ry="6"/>
	<ellipse class="st20" cx="-511.1" cy="16.6" rx="5.1" ry="5"/>
	<ellipse class="st20" cx="-518" cy="12" rx="5.1" ry="5"/>
	<ellipse class="st20" cx="-497.3" cy="11.7" rx="4.4" ry="4.2"/>
	<ellipse class="st20" cx="-503.1" cy="15.1" rx="4.4" ry="4.2"/>
	<ellipse class="st20" cx="-502.7" cy="8.3" rx="4.7" ry="4.6"/>
	<ellipse class="st20" cx="-508" cy="11.1" rx="5.1" ry="5"/>
</g>
<g>
	
		<rect x="-431.3" y="25.4" transform="matrix(-0.707 0.7072 -0.7072 -0.707 -708.0833 362.4296)" class="st25" width="4.3" height="18.3"/>
	<circle class="st25" cx="-446.9" cy="16.7" r="17.2"/>
</g>
<rect x="-429.5" y="29.7" transform="matrix(-0.7071 0.7071 -0.7071 -0.7071 -703.8089 364.1859)" class="st26" width="4.3" height="13.2"/>
<circle class="st20" cx="-446.9" cy="16.7" r="14"/>
<path class="st6" d="M-439.5,10.5c-1.8-2.1-4.5-3.4-7.4-3.4c-2.9,0-5.6,1.3-7.4,3.4c-0.4,0.4-0.3,1.2,0.1,1.5
	c0.4,0.4,1.2,0.3,1.5-0.1c1.5-1.7,3.5-2.7,5.8-2.7c2.3,0,4.3,1,5.8,2.7c0.2,0.2,0.5,0.4,0.9,0.4c0.2,0,0.5-0.1,0.6-0.2
	C-439.2,11.7-439.2,10.9-439.5,10.5z"/>
<path class="st23" d="M-391.4,22.2c0,13.4,17.9,20.2,17.9,20.2s17.9-6.7,17.9-20.2c0-5.5,0-19.1,0-19.1c-4.4,0-17.9-3.4-17.9-3.4
	s-13.5,3.4-17.9,3.4C-391.4,3.1-391.4,16.7-391.4,22.2z"/>
<path class="st24" d="M-355.5,22.2c0,13.4-17.9,20.2-17.9,20.2V-0.2c0,0,13.5,3.4,17.9,3.4C-355.5,3.1-355.5,16.7-355.5,22.2z"/>
<path class="st20" d="M-360,22.2c0,8.1-9.6,13.5-13.5,15.3c-3.9-1.8-13.5-7.2-13.5-15.3v-15c4.7-0.7,10.7-2.1,13.5-2.8
	c2.7,0.7,8.8,2.1,13.5,2.8V22.2z"/>
<path class="st22" d="M-360,22.2c0,8.1-9.6,13.5-13.5,15.3l0-33.1c2.7,0.7,8.8,2.1,13.5,2.8V22.2z"/>
<circle class="st6" cx="-389.2" cy="6.5" r="1.1"/>
<circle class="st6" cx="-381.3" cy="4.3" r="1.1"/>
<circle class="st6" cx="-373.5" cy="2" r="1.1"/>
<circle class="st6" cx="-389.2" cy="13.2" r="1.1"/>
<circle class="st6" cx="-389.2" cy="20" r="1.1"/>
<circle class="st6" cx="-388" cy="26.7" r="1.1"/>
<circle class="st6" cx="-384.7" cy="32.3" r="1.1"/>
<circle class="st6" cx="-379.1" cy="36.8" r="1.1"/>
<circle class="st6" cx="-357.8" cy="6.5" r="1.1"/>
<circle class="st6" cx="-365.6" cy="4.3" r="1.1"/>
<circle class="st6" cx="-357.8" cy="13.2" r="1.1"/>
<circle class="st6" cx="-357.8" cy="20" r="1.1"/>
<circle class="st6" cx="-358.9" cy="26.7" r="1.1"/>
<circle class="st6" cx="-362.2" cy="32.3" r="1.1"/>
<circle class="st6" cx="-367.8" cy="36.8" r="1.1"/>
<polygon class="st6" points="-373.5,23.1 -360,14 -360,9.5 -373.5,18.7 "/>
<path class="st6" d="M-373.5,18.7l-12.3,8.4c0.5,1.1,1.2,2.1,2,3.1l10.3-7L-373.5,18.7z"/>
<polygon class="st6" points="-377.9,13.2 -380.2,16 -382.4,13.2 -380.2,10.4 "/>
<polygon class="st6" points="-364.5,26.7 -366.7,29.5 -369,26.7 -366.7,23.9 "/>
<circle class="st26" cx="-279.2" cy="8.9" r="8.5"/>
<circle class="st26" cx="-304.6" cy="8.9" r="8.5"/>
<path class="st25" d="M-259.8,21.6l-21.6,4.2h-20.8l-21.6-4.2l6.1-11.2c1.6-2.7,4.4-4.4,7.5-4.4h37c3.1,0,5.9,1.7,7.5,4.4
	L-259.8,21.6z"/>
<circle class="st26" cx="-272.1" cy="28.7" r="14.1"/>
<circle class="st26" cx="-311.7" cy="28.7" r="14.1"/>
<circle class="st26" cx="-291.9" cy="25.9" r="7.1"/>
<circle class="st20" cx="-291.9" cy="25.9" r="2.8"/>
<g>
	<circle class="st20" cx="-272.1" cy="28.7" r="9.9"/>
	<circle class="st20" cx="-311.7" cy="28.7" r="9.9"/>
</g>
<g>
	<path class="st6" d="M-266.9,25.4c-1.4-1.6-3.2-2.4-5.2-2.4c-2,0-4,0.8-5.2,2.4c-0.6,0.6-0.4,1.4,0.1,2c0.6,0.6,1.4,0.4,2-0.1
		c1.7-1.8,4.7-1.8,6.4,0c0.3,0.3,0.7,0.4,1,0.4c0.3,0,0.7-0.1,1-0.4C-266.3,26.9-266.3,26-266.9,25.4z"/>
	<path class="st6" d="M-311.7,23c-2,0-4,0.8-5.2,2.4c-0.6,0.6-0.4,1.4,0.1,2c0.6,0.6,1.4,0.4,2-0.1c1.7-1.8,4.7-1.8,6.4,0
		c0.3,0.3,0.7,0.4,1,0.4c0.3,0,0.7-0.1,1-0.4c0.6-0.6,0.6-1.4,0.1-2C-307.7,23.9-309.7,23-311.7,23z"/>
</g>
<path class="st24" d="M-205.7,19.4h13.8l6.4,6.4v-18c0-2.3-1.9-4.2-4.2-4.2h-15.9c-2.3,0-4.2,1.9-4.2,4.2v7.4
	C-209.9,17.5-208,19.4-205.7,19.4z"/>
<path class="st20" d="M-207.8,16.2h-13.8l-6.4,6.4v-18c0-2.3,1.9-4.2,4.2-4.2h15.9c2.3,0,4.2,1.9,4.2,4.2V12
	C-203.6,14.3-205.5,16.2-207.8,16.2z"/>
<g>
	<circle class="st20" cx="-219.5" cy="28.9" r="5.3"/>
	<circle class="st20" cx="-194.1" cy="28.9" r="5.3"/>
</g>
<g>
	<path class="st24" d="M-211,40.6c0,0-2.3-4.2-8.5-4.2c-6.1,0-8.5,4.2-8.5,4.2v2.1h16.9V40.6L-211,40.6z"/>
	<path class="st24" d="M-185.6,40.6c0,0-2.3-4.2-8.5-4.2c-6.1,0-8.5,4.2-8.5,4.2v2.1h16.9V40.6z"/>
</g>
<path class="st26" d="M-134.1,30.7c0.1-0.4,0.1-0.9,0.1-1.3c0-0.5,0-0.9-0.1-1.3l2.7-1.9c0.3-0.2,0.4-0.6,0.2-0.9l-2.6-4.4
	c-0.2-0.3-0.5-0.4-0.8-0.3l-3,1.4c-0.7-0.6-1.4-1-2.3-1.3l-0.3-3.3c0-0.3-0.3-0.6-0.6-0.6h-5.1c-0.3,0-0.6,0.3-0.6,0.6l-0.4,3.4
	c-0.9,0.3-1.5,0.8-2.3,1.3l-3-1.3c-0.3-0.1-0.7,0-0.8,0.3l-2.6,4.4c-0.2,0.3-0.1,0.7,0.2,0.9l2.7,1.9c-0.1,0.4-0.1,0.9-0.1,1.3
	c0,0.5,0,0.9,0.1,1.3l-2.7,1.9c-0.3,0.2-0.4,0.6-0.2,0.9l2.6,4.4c0.2,0.3,0.5,0.4,0.8,0.3l3-1.3c0.7,0.6,1.4,1,2.3,1.3l0.3,3.3
	c0,0.3,0.3,0.6,0.6,0.6h5.1c0.3,0,0.6-0.3,0.6-0.6l0.3-3.3c0.9-0.3,1.5-0.8,2.3-1.3l3,1.3c0.3,0.1,0.7,0,0.8-0.3l2.6-4.4
	c0.2-0.3,0.1-0.7-0.2-0.9L-134.1,30.7z M-143.4,34.2c-2.7,0-4.8-2.1-4.8-4.8c0-2.7,2.1-4.8,4.8-4.8c2.7,0,4.8,2.1,4.8,4.8
	C-138.6,32.1-140.7,34.2-143.4,34.2z"/>
<path class="st25" d="M-118.4,12.3c0.1-0.5,0.1-0.9,0.1-1.3c0-0.4,0-0.8-0.1-1.3l2.4-1.7c0.3-0.2,0.3-0.5,0.2-0.8l-2.4-4.1
	c-0.2-0.3-0.5-0.4-0.8-0.2l-2.8,1.3c-0.7-0.5-1.3-0.9-2.1-1.3l-0.3-3c0.1-0.3-0.1-0.5-0.4-0.5h-4.7c-0.3,0-0.6,0.2-0.6,0.5l-0.3,3
	c-0.8,0.3-1.4,0.7-2.1,1.3l-2.8-1.3c-0.3-0.1-0.6,0-0.8,0.2l-2.4,4.1c-0.2,0.3-0.1,0.6,0.2,0.8l2.4,1.7c0,0.5,0,0.9,0,1.3
	c0,0.4,0,0.8,0.1,1.3l-2.4,1.7c-0.3,0.2-0.3,0.5-0.2,0.8l2.4,4.1c0.2,0.3,0.5,0.4,0.8,0.2l2.8-1.3c0.7,0.5,1.3,0.9,2.1,1.3l0.3,3
	c0,0.3,0.3,0.5,0.6,0.5h4.7c0.3,0,0.6-0.2,0.6-0.5l0.3-3c0.8-0.3,1.4-0.7,2.1-1.3l2.8,1.3c0.3,0.1,0.6,0,0.8-0.2l2.4-4.1
	c0.2-0.3,0.1-0.6-0.2-0.8L-118.4,12.3z M-127,15.9c-2.7,0-4.8-2.1-4.8-4.8c0-2.7,2.1-4.8,4.8-4.8c2.7,0,4.8,2.1,4.8,4.8
	C-122.2,13.8-124.3,15.9-127,15.9z"/>
<g>
	<path class="st23" d="M-56.2,17.9h-2.5c0-9.2,5.1-9.6,9.2-9.9c4.1-0.3,7-0.6,7-7.5h2.5c0,9.3-5.1,9.7-9.3,10
		C-53.3,10.8-56.2,11-56.2,17.9z"/>
</g>
<rect x="-84.9" y="17.9" class="st24" width="54.9" height="24.9"/>
<g>
	<rect x="-82.4" y="20.4" class="st23" width="5" height="5"/>
	<rect x="-74.9" y="20.4" class="st23" width="5" height="5"/>
	<rect x="-67.4" y="20.4" class="st23" width="5" height="5"/>
	<rect x="-59.9" y="20.4" class="st23" width="5" height="5"/>
	<rect x="-52.4" y="20.4" class="st23" width="5" height="5"/>
	<rect x="-45" y="20.4" class="st23" width="5" height="5"/>
	<rect x="-37.5" y="20.4" class="st23" width="5" height="5"/>
	<rect x="-82.4" y="35.4" class="st23" width="5" height="5"/>
	<rect x="-74.9" y="35.4" class="st23" width="5" height="5"/>
	<rect x="-67.4" y="35.4" class="st23" width="20" height="5"/>
	<rect x="-45" y="35.4" class="st23" width="5" height="5"/>
	<rect x="-37.5" y="35.4" class="st23" width="5" height="5"/>
	<rect x="-82.4" y="27.9" class="st23" width="8.7" height="5"/>
	<rect x="-71.2" y="27.9" class="st23" width="5" height="5"/>
	<rect x="-63.7" y="27.9" class="st23" width="5" height="5"/>
	<rect x="-56.2" y="27.9" class="st23" width="5" height="5"/>
	<rect x="-48.7" y="27.9" class="st23" width="5" height="5"/>
	<rect x="-41.2" y="27.9" class="st23" width="8.7" height="5"/>
</g>
<circle class="st25" cx="21.5" cy="21.5" r="21.5"/>
<circle class="st6" cx="21.5" cy="21.5" r="17.2"/>
<rect x="20.5" y="7.5" class="st26" width="2.2" height="14"/>
<rect x="23.8" y="20" transform="matrix(0.707 -0.7072 0.7072 0.707 -10.3552 25.0123)" class="st26" width="2.5" height="9.9"/>
<circle class="st26" cx="21.5" cy="21.5" r="2.2"/>
<circle class="st9" cx="21.5" cy="21.5" r="1.1"/>
<g>
	<polygon class="st23" points="106.5,42.7 73.8,42.7 73.8,-0.2 96.3,-0.2 106.5,10 	"/>
</g>
<polygon class="st24" points="105,12.7 95.3,12.7 95.3,3 "/>
<g>
	<rect x="82" y="18.2" class="st24" width="17.4" height="2"/>
	<rect x="82" y="22.3" class="st24" width="13.3" height="2"/>
	<rect x="82" y="26.4" class="st24" width="17.4" height="2"/>
	<rect x="82" y="30.5" class="st24" width="13.3" height="2"/>
</g>
<rect x="146.3" y="3.2" class="st6" width="39.3" height="25.3"/>
<polygon class="st24" points="146.3,32.7 185.7,32.7 188.5,36.9 143.5,36.9 "/>
<rect x="298.5" y="0.5" class="st23" width="50.1" height="42.6"/>
<rect x="304.8" y="6.7" class="st9" width="37.6" height="6.3"/>
<g>
	<rect x="304.8" y="18" class="st24" width="16.3" height="20.1"/>
	<rect x="326.1" y="18" class="st24" width="16.3" height="20.1"/>
</g>
<g>
	<rect x="543.8" y="0.4" class="st24" width="2.1" height="38.1"/>
	
		<rect x="541.2" y="28.3" transform="matrix(-0.7071 -0.7071 0.7071 -0.7071 900.2785 444.6205)" class="st24" width="2.1" height="15"/>
	
		<rect x="546.5" y="28.3" transform="matrix(0.7071 -0.7071 0.7071 0.7071 135.0007 397.6612)" class="st24" width="2.1" height="15"/>
</g>
<rect x="523.7" y="3.5" class="st24" width="42.4" height="29.7"/>
<g>
	<rect x="522.6" y="2.5" class="st23" width="44.5" height="4.2"/>
	<rect x="522.6" y="32.1" class="st23" width="44.5" height="2.1"/>
	<circle class="st23" cx="552.8" cy="41.1" r="1.6"/>
	<circle class="st23" cx="536.9" cy="41.1" r="1.6"/>
</g>
<g>
	<polygon class="st6" points="553.2,15.1 547,21.4 540.6,15.1 532.1,23.6 534.4,25.9 540.6,19.5 547,25.9 555.6,17.4 	"/>
	<polygon class="st6" points="557.6,20.5 550.2,13.1 557.6,13.1 	"/>
</g>
<path class="st24" d="M492.3,21.4c0,11.7-9.5,21-21,21c-11.5,0-21-9.3-21-21c0-11.7,9.3-21,21-21C483,0.4,492.3,9.7,492.3,21.4"/>
<g>
	<path class="st23" d="M471.1,31c0-0.4-0.2-0.6-0.6-0.8c-1.3-0.4-2.5-0.4-3.6-1.5c-0.2-0.4-0.2-0.8-0.4-1.3
		c-0.4-0.4-1.5-0.6-2.1-0.8h-2.7h-1.5c-0.6-0.2-1-1.1-1.5-1.7c0-0.2,0-0.6-0.4-0.6c-0.4-0.2-0.8,0.2-1.3,0c-0.2-0.2-0.2-0.4-0.2-0.6
		c0-0.6,0.4-1.3,0.8-1.7c0.6-0.4,1.3,0.2,1.9,0.2c0.2,0,0.2,0,0.4,0.2c0.6,0.2,0.8,1,0.8,1.7v0.4c0,0.2,0.2,0.2,0.4,0.2
		c0.2-1.1,0.2-2.1,0.4-3.2c0-1.3,1.3-2.5,2.3-2.9c0.4-0.2,0.6,0.2,1,0c1.3-0.4,4.4-1.7,3.8-3.4c-0.4-1.5-1.7-2.9-3.4-2.7
		c-0.4,0.2-0.6,0.4-1,0.6c-0.6,0.4-1.9,1.7-2.5,1.7c-1-0.2-1-1.7-0.8-2.3c0.2-0.8,2.1-3.6,3.4-3.1c0.2,0.2,0.6,0.6,0.8,0.8
		c0.4,0.2,1,0.2,1.7,0.2c0.2,0,0.4,0,0.6-0.2c0.2-0.2,0.2-0.2,0.2-0.4c0-0.6-0.6-1.3-1-1.7c-0.4-0.4-1-0.8-1.7-1
		c-2.1-0.6-5.5,0.2-7.1,1.7c-1.7,1.5-2.9,4-3.8,6.1c-0.4,1.3-0.8,2.9-1,4.4c-0.2,1-0.4,1.9,0.2,2.9c0.6,1.3,1.9,2.5,3.2,3.4
		c0.8,0.6,2.5,0.6,3.4,1.7c0.6,0.8,0.4,1.9,0.4,2.9c0,1.3,0.8,2.3,1.3,3.4c0.2,0.6,0.4,1.5,0.6,2.1c0,0.2,0.2,1.5,0.2,1.7
		c1.3,0.6,2.3,1.3,3.8,1.7c0.2,0,1-1.3,1-1.5c0.6-0.6,1-1.5,1.7-1.9c0.4-0.2,0.8-0.4,1.3-0.8c0.4-0.4,0.6-1.3,0.8-1.9
		C471.1,32.5,471.3,31.7,471.1,31"/>
	<path class="st23" d="M471.5,11.7c0.2,0,0.4-0.2,0.8-0.4c0.6-0.4,1.3-1,1.9-1.5c0.6-0.4,1.3-1.1,1.7-1.5c0.6-0.4,1-1.3,1.3-1.9
		c0.2-0.4,0.8-1.3,0.6-1.9c-0.2-0.4-1.3-0.6-1.7-0.8c-1.7-0.4-3.2-0.6-4.8-0.6c-0.6,0-1.5,0.2-1.7,0.8c-0.2,1.1,0.6,0.8,1.5,1.1
		c0,0,0.2,1.7,0.2,1.9c0.2,1.1-0.4,1.7-0.4,2.7c0,0.6,0,1.7,0.4,2.1H471.5z"/>
	<path class="st23" d="M489.1,26.4c0.2-0.4,0.2-1.1,0.4-1.5c0.2-1.1,0.2-2.1,0.2-3.2c0-2.1-0.2-4.2-0.8-6.1
		c-0.4-0.6-0.6-1.3-0.8-1.9c-0.4-1-1-2.1-1.9-2.9c-0.8-1-1.9-4-3.8-3.1c-0.6,0.2-1,1.1-1.5,1.5c-0.4,0.6-0.8,1.3-1.3,1.9
		c-0.2,0.2-0.4,0.6-0.2,0.8c0,0.2,0.2,0.2,0.4,0.2c0.4,0.2,0.6,0.2,1.1,0.4c0.2,0,0.4,0.2,0.2,0.4c0,0,0,0.2-0.2,0.2
		c-1.1,1-2.1,1.9-3.2,2.9c-0.2,0.2-0.4,0.6-0.4,0.8c0,0.2,0.2,0.2,0.2,0.4c0,0.2-0.2,0.2-0.4,0.4c-0.4,0.2-0.8,0.4-1,0.6
		c-0.2,0.4,0,1-0.2,1.5c-0.2,1-0.8,1.9-1.3,2.9c-0.4,0.6-0.6,1.3-1,1.9c0,0.8-0.2,1.5,0.2,2.1c1.1,1.5,2.9,0.6,4.4,1.3
		c0.4,0.2,0.8,0.2,1.1,0.6c0.6,0.6,0.6,1.7,0.8,2.3c0.2,0.8,0.4,1.7,0.8,2.5c0.2,1.1,0.6,2.1,0.8,2.9c1.9-1.5,3.6-3.1,4.8-5.2
		C487.9,29.8,488.5,28.1,489.1,26.4"/>
</g>
<circle class="st6" cx="246.7" cy="21.5" r="16.8"/>
<g>
	<path class="st26" d="M245,18.7c-1.6,0.9-2.1,3-1.2,4.6c1,1.6,3,2.1,4.6,1.2c1.6-0.9,2.1-3,1.2-4.6C248.7,18.3,246.6,17.7,245,18.7
		"/>
	<polygon class="st26" points="259.3,14.2 248.9,22.9 246.6,19.1 	"/>
</g>
<g>
	<path class="st26" d="M233.3,20.4h-5.5c0,0.4-0.1,0.7-0.1,1.1c0,0.4,0,0.8,0.1,1.1h5.5V20.4z"/>
	<path class="st26" d="M235.4,28.8l-1.1-2l-4.9,2.6c0.3,0.7,0.7,1.3,1.1,2L235.4,28.8z"/>
</g>
<g>
	<path class="st26" d="M239.1,10.5l2-1.1l-2.7-4.8c-0.7,0.3-1.3,0.7-2,1.1L239.1,10.5z"/>
	<path class="st26" d="M229.8,13.1l4.8,2.8l1.1-2l-4.8-2.8C230.5,11.7,230.1,12.4,229.8,13.1z"/>
	<path class="st26" d="M260.1,22.7h5.5c0-0.4,0.1-0.7,0.1-1.1c0-0.4,0-0.8-0.1-1.1h-5.5V22.7z"/>
	<path class="st26" d="M264.1,29.2l-4.9-2.5l-1,2l4.9,2.5C263.5,30.5,263.8,29.9,264.1,29.2z"/>
	<path class="st26" d="M257.3,5.8c-0.6-0.4-1.3-0.8-2-1.1l-2.8,4.8l1.9,1.1L257.3,5.8z"/>
	<path class="st26" d="M247.8,2.6c-0.4,0-0.7-0.1-1.1-0.1c-0.4,0-0.8,0-1.1,0.1v5.5h2.3V2.6z"/>
</g>
<path class="st25" d="M246.7,0.3c-11.7,0-21.2,9.5-21.2,21.2c0,11.7,9.5,21.2,21.2,21.2c11.7,0,21.2-9.5,21.2-21.2
	C268,9.8,258.4,0.3,246.7,0.3z M246.7,38.3c-9.3,0-16.8-7.5-16.8-16.8c0-9.3,7.5-16.8,16.8-16.8c9.3,0,16.8,7.5,16.8,16.8
	C263.5,30.8,256,38.3,246.7,38.3z"/>
<path class="st16" d="M246.2,20.6c-0.5,0.3-0.7,1-0.4,1.5c0.3,0.5,1,0.7,1.5,0.4c0.5-0.3,0.7-1,0.4-1.5
	C247.4,20.5,246.7,20.3,246.2,20.6"/>
<path class="st24" d="M381.9,32.3c1.8-1.8,4.7-1.8,6.5,0c1.8,1.8,1.8,4.7,0,6.5c-1.8,1.8-9,2.4-9,2.4S380.1,34.1,381.9,32.3z"/>
<path class="st9" d="M383.5,33.9c0.9-0.9,2.4-0.9,3.3,0c0.9,0.9,0.9,2.4,0,3.3c-0.9,0.9-4.1,0.8-4.1,0.8S382.6,34.9,383.5,33.9z"/>
<path class="st9" d="M406.4,4.5C404,7,382.7,28.2,382.7,28.2l9.8,9.8c0,0,21.2-21.2,23.7-23.7c1.3-1.3,2.4-5.1,3.1-8.4l-4.5-4.5
	C411.5,2.2,407.7,3.2,406.4,4.5z"/>
<g>
	<polygon class="st24" points="396.6,42.1 394.2,36.4 404,26.6 402.3,36.4 	"/>
	<polygon class="st24" points="378.6,24.1 384.3,26.6 394.2,16.8 384.3,18.4 	"/>
	<path class="st24" d="M414.8,1.5l4.5,4.5c0.6-3,1-5.5,1-5.5S417.7,0.8,414.8,1.5z"/>
	<polygon class="st24" points="392.5,38 389.3,38 382.7,31.5 382.7,28.2 	"/>
</g>
<g>
	<circle class="st24" cx="406.4" cy="14.3" r="2.3"/>
	<circle class="st24" cx="400.7" cy="20.1" r="2.3"/>
	<circle class="st24" cx="395" cy="25.8" r="2.3"/>
</g>
<path class="st25" d="M713.9-0.7h-36.6c-2,0-3.7,1.6-3.7,3.7v40.3l10.4-9.8h29.8c2,0,3.7-1.6,3.7-3.7V2.9
	C717.6,0.9,715.9-0.7,713.9-0.7z"/>
<g>
	<rect x="678.5" y="9" class="st26" width="34.2" height="2.4"/>
	<rect x="678.5" y="15.1" class="st26" width="34.2" height="2.4"/>
	<rect x="678.5" y="21.2" class="st26" width="19.5" height="2.4"/>
</g>
<g>
	<polygon class="st23" points="774.8,37.8 747.6,37.8 747.6,0.7 766.1,0.7 774.8,9.5 	"/>
</g>
<polygon class="st6" points="773.4,10.5 765.1,10.5 765.1,2.2 "/>
<rect x="780" y="30.8" transform="matrix(-0.7072 0.707 -0.707 -0.7072 1359.9254 -489.9379)" class="st24" width="2.7" height="11.7"/>
<circle class="st24" cx="770" cy="25.1" r="10.7"/>
<circle class="st23" cx="770" cy="25.1" r="8.8"/>
<rect x="781.2" y="33.5" transform="matrix(-0.7072 0.707 -0.707 -0.7072 1362.6654 -488.8657)" class="st24" width="2.7" height="8.5"/>
<g>
	<path class="st6" d="M771.9,27h-9.5c0.4,1.6,1.3,2.9,2.4,3.9h7V27z"/>
	<path class="st6" d="M762.5,23.1h9.5v-3.9h-7.1C763.6,20.2,762.9,21.6,762.5,23.1z"/>
	<path class="st6" d="M762.3,16.3h-8.9v1.9h7.1C761,17.6,761.6,16.9,762.3,16.3z"/>
	<path class="st6" d="M759.3,20.2h-5.9v1.9h5.3C758.9,21.5,759.1,20.8,759.3,20.2z"/>
	<path class="st6" d="M758.3,25.1c0-0.3,0-0.7,0.1-1h-5v1.9h5C758.3,25.8,758.3,25.4,758.3,25.1z"/>
	<path class="st6" d="M758.7,28h-5.3V30h5.9C759.1,29.4,758.9,28.7,758.7,28z"/>
</g>
<rect x="639" y="15.9" class="st9" width="4.7" height="26.8"/>
<rect x="632" y="24" class="st24" width="4.7" height="18.6"/>
<rect x="625" y="18.2" class="st9" width="4.7" height="24.5"/>
<rect x="618" y="25.2" class="st24" width="4.7" height="17.5"/>
<rect x="611" y="28.7" class="st9" width="4.7" height="14"/>
<rect x="604" y="26.4" class="st24" width="4.7" height="16.3"/>
<rect x="597" y="31" class="st9" width="4.7" height="11.7"/>
<g>
	<polygon class="st9" points="639.1,2 632,9.1 627.3,4.4 615.7,16.1 609.9,10.3 597.7,22.4 601,25.7 609.9,16.8 615.7,22.6 
		627.3,11 632,15.6 642.4,5.3 	"/>
	<polygon class="st9" points="643.6,0.7 633.2,0.7 643.6,11.2 	"/>
</g>
<path class="st25" d="M-751.1,95.8c-8.2,0-14.9,6.7-14.9,14.9c0,8.2,14.9,27.7,14.9,27.7s14.9-19.5,14.9-27.7
	C-736.2,102.5-742.9,95.8-751.1,95.8z M-751.1,118.2c-4.1,0-7.5-3.3-7.5-7.5c0-4.1,3.3-7.5,7.5-7.5c4.1,0,7.5,3.3,7.5,7.5
	C-743.6,114.8-747,118.2-751.1,118.2z"/>
<polygon class="st26" points="-686.6,127.1 -686.6,128.1 -688.6,128.1 -688.6,127.1 -689.6,119.1 -685.6,119.1 "/>
<path class="st26" d="M-691.8,118.1c-0.5-0.1-12.4-3.2-14.4-12.8c-0.9-4.2,0.2-6.7,1.3-8c1.3-1.6,3.1-2.2,4.4-2.2
	c1.7,0,2.9,0.5,3.8,1.4c1.1,1.1,1.1,2.5,1.1,2.7c0,1.6-1.1,4-4,4l0,0c-0.1,0-0.8,0-1.4-0.4c-1-0.5-1.5-1.4-1.5-2.6h2
	c0,0.6,0.2,0.8,0.4,0.9c0.2,0.1,0.5,0.1,0.5,0.1c1.9,0,2-1.7,2-2c0,0,0-0.7-0.5-1.3c-0.5-0.5-1.3-0.7-2.4-0.7
	c-0.6,0-1.9,0.3-2.8,1.5c-1.1,1.4-1.4,3.6-0.9,6.3c1.7,8.3,12.8,11.2,12.9,11.2L-691.8,118.1z"/>
<path class="st26" d="M-683.3,118.1l-0.6-1.9c0.1,0,10.1-3.3,12.9-11.4c0.9-2.5,0.8-4.4-0.2-5.8c-1-1.3-2.6-1.8-3.4-1.8
	c-3,0-3,1.9-3,2c0,0.5,0.2,2,2,2c0.5,0,1-0.2,1-1h2c0,2.2-1.8,3-3,3c-2.9,0-4-2.4-4-4c0-1.4,1-4,5-4c1.5,0,3.8,0.8,5.1,2.7
	c1,1.3,1.8,3.8,0.4,7.7C-672.3,114.5-682.9,117.9-683.3,118.1z"/>
<g>
	<path class="st25" d="M-682.6,132.1h-10v-2c0-1.1,4-3,4-3h2c0,0,4,1.9,4,3V132.1z"/>
	<path class="st25" d="M-677.6,96.1c0,8-2.1,25-10,25c-7.9,0-10-17-10-25L-677.6,96.1z"/>
</g>
<path class="st6" d="M-686.6,112.1h-2v-7.4l-2,0.7v-1.8l3.8-1.5h0.2V112.1z"/>
<rect x="-694.6" y="131.1" class="st26" width="14" height="8"/>
<rect x="-692.6" y="134.1" class="st6" width="10" height="2"/>
<path class="st26" d="M-634.6,138.1h-3v-33c0,0,0.6-5,1.5-5c1,0,1.5,5,1.5,5V138.1z"/>
<circle class="st26" cx="-636.1" cy="98.6" r="2.5"/>
<rect x="-637.6" y="102.1" class="st25" width="36" height="24"/>
<g>
	<rect x="-631.6" y="102.1" class="st26" width="6" height="6"/>
	<rect x="-625.6" y="108.1" class="st26" width="6" height="6"/>
	<rect x="-607.6" y="102.1" class="st26" width="6" height="6"/>
	<rect x="-619.6" y="102.1" class="st26" width="6" height="6"/>
	<rect x="-613.6" y="108.1" class="st26" width="6" height="6"/>
	<rect x="-631.6" y="114.1" class="st26" width="6" height="6"/>
	<rect x="-625.6" y="120.1" class="st26" width="6" height="6"/>
	<rect x="-637.6" y="108.1" class="st26" width="6" height="6"/>
	<rect x="-637.6" y="120.1" class="st26" width="6" height="6"/>
	<rect x="-607.6" y="114.1" class="st26" width="6" height="6"/>
	<rect x="-619.6" y="114.1" class="st26" width="6" height="6"/>
	<rect x="-613.6" y="120.1" class="st26" width="6" height="6"/>
</g>
<polygon class="st26" points="-563.7,95.1 -571.2,95.1 -560.5,114.4 -553,114.4 "/>
<polygon class="st25" points="-548.7,95.1 -559.4,114.4 -551.9,114.4 -541.2,95.1 "/>
<circle class="st26" cx="-556.2" cy="126.2" r="12.9"/>
<path class="st25" d="M-556.2,115.5c-5.9,0-10.7,4.8-10.7,10.7c0,5.9,4.8,10.7,10.7,10.7c5.9,0,10.7-4.8,10.7-10.7
	C-545.4,120.3-550.3,115.5-556.2,115.5z M-563.4,130.8c-0.3,0.2-0.7,0.1-0.8-0.2c0,0,0-0.1-0.1-0.1l-0.2-0.5c-0.1-0.3,0-0.6,0.3-0.7
	c0.3-0.1,0.5,0,0.7,0.2l0.3,0.5C-563.1,130.2-563.2,130.6-563.4,130.8z M-560.5,133.7c-0.3,0.4-0.9,0.5-1.3,0.2c0,0-0.1,0-0.1-0.1
	l-0.4-0.4c-0.4-0.3-0.4-0.9-0.1-1.3c0.3-0.3,0.8-0.4,1.2-0.1l0.4,0.3C-560.3,132.7-560.2,133.3-560.5,133.7z M-556.8,134.9
	c-0.1,0.6-0.7,0.9-1.2,0.8c0,0,0,0,0,0l-0.5-0.1c-0.6-0.1-0.9-0.7-0.8-1.3c0.1-0.5,0.7-0.9,1.2-0.8l0.5,0.1
	C-557,133.7-556.7,134.3-556.8,134.9z M-557.3,130.5v-7.9l-2.1,0.7v-1.9l4.1-1.6h0.2v10.7H-557.3z M-553.8,135.5l-0.5,0.1
	c-0.6,0.1-1.1-0.2-1.3-0.8c-0.1-0.6,0.2-1.1,0.8-1.3c0,0,0,0,0,0l0.5-0.1c0.6-0.1,1.1,0.2,1.2,0.8
	C-552.9,134.9-553.2,135.4-553.8,135.5z M-550.1,133.4c-0.1,0.1-0.3,0.2-0.4,0.4c-0.4,0.3-1,0.3-1.3-0.1c-0.3-0.4-0.3-1,0.1-1.3
	c0,0,0,0,0,0c0.1-0.1,0.3-0.2,0.5-0.3c0.4-0.3,1-0.2,1.2,0.2C-549.7,132.7-549.7,133.2-550.1,133.4z M-548,130.4
	c-0.1,0.3-0.5,0.5-0.8,0.4c-0.3-0.1-0.5-0.5-0.4-0.8c0,0,0-0.1,0.1-0.1l0.3-0.5c0.2-0.3,0.5-0.3,0.8-0.2c0.2,0.1,0.3,0.4,0.2,0.7
	L-548,130.4z"/>
<path class="st24" d="M55,135.9c0,1.7-1.3,3-3,3H26c-1.7,0-3-1.3-3-3v-36c0-1.7,1.3-3,3-3h26c1.7,0,3,1.3,3,3V135.9z"/>
<circle class="st6" cx="30" cy="102.9" r="3"/>
<circle class="st6" cx="39" cy="102.9" r="3"/>
<circle class="st6" cx="48" cy="102.9" r="3"/>
<polyline class="st6" points="33,133.9 33,135.9 27,135.9 27,133.9 "/>
<polyline class="st6" points="42,133.9 42,135.9 36,135.9 36,133.9 "/>
<polyline class="st6" points="51,133.9 51,135.9 45,135.9 45,133.9 "/>
<polyline class="st6" points="33,123.8 33,125.9 27,125.9 27,123.8 "/>
<polyline class="st6" points="42,123.8 42,125.9 36,125.9 36,123.8 "/>
<polyline class="st6" points="51,123.8 51,125.9 45,125.9 45,123.8 "/>
<polyline class="st6" points="33,113.9 33,115.9 27,115.9 27,113.9 "/>
<polyline class="st6" points="42,113.9 42,115.9 36,115.9 36,113.9 "/>
<polyline class="st6" points="51,113.9 51,115.9 45,115.9 45,113.9 "/>
<rect x="36" y="127.9" class="st25" width="6" height="6"/>
<g>
	<rect x="27" y="107.9" class="st23" width="6" height="6"/>
	<rect x="36" y="107.9" class="st23" width="6" height="6"/>
	<rect x="45" y="107.9" class="st23" width="6" height="6"/>
	<rect x="27" y="117.9" class="st23" width="6" height="6"/>
	<rect x="36" y="117.9" class="st23" width="6" height="6"/>
	<rect x="45" y="117.9" class="st23" width="6" height="6"/>
	<rect x="27" y="127.9" class="st23" width="6" height="6"/>
	<rect x="45" y="127.9" class="st23" width="6" height="6"/>
</g>
<g>
	<circle class="st25" cx="30" cy="102.9" r="2"/>
	<circle class="st25" cx="39" cy="102.9" r="2"/>
	<circle class="st25" cx="48" cy="102.9" r="2"/>
</g>
<polygon class="st6" points="-387.6,115.6 -388.4,111.7 -400.6,114.3 -400.6,101 -404.5,101 -404.5,113 -418,104.3 -420.1,107.6 
	-405.4,117.1 -416.7,131.9 -413.6,134.3 -402.6,119.9 -394.5,132.2 -391.2,130.1 -399.3,118 "/>
<circle class="st24" cx="-402.5" cy="116.6" r="6.8"/>
<g>
	<circle class="st23" cx="-402.5" cy="101" r="4.9"/>
	<circle class="st23" cx="-388" cy="113.7" r="4.9"/>
	<circle class="st23" cx="-419.1" cy="105.9" r="4.9"/>
	<circle class="st23" cx="-415.2" cy="133.1" r="4.9"/>
	<circle class="st23" cx="-392.8" cy="131.2" r="4.9"/>
</g>
<g>
	<path class="st9" d="M-317.1,95.3h-29.3c-1.2,0-2.1,0.9-2.1,2.1v6.3c0,1.2,0.9,2.1,2.1,2.1h29.3c1.1,0,2.1-0.9,2.1-2.1v-6.3
		C-315,96.3-316,95.3-317.1,95.3z"/>
	<path class="st9" d="M-317.1,107.9h-29.3c-1.2,0-2.1,0.9-2.1,2.1v6.3c0,1.2,0.9,2.1,2.1,2.1h29.3c1.1,0,2.1-0.9,2.1-2.1V110
		C-315,108.8-316,107.9-317.1,107.9z"/>
	<path class="st9" d="M-317.1,120.5h-29.3c-1.2,0-2.1,0.9-2.1,2.1v6.3c0,1.2,0.9,2.1,2.1,2.1h29.3c1.1,0,2.1-0.9,2.1-2.1v-6.3
		C-315,121.4-316,120.5-317.1,120.5z"/>
</g>
<path class="st23" d="M-309.6,127.9c0.1-0.4,0.1-0.8,0.1-1.2c0-0.3,0-0.8-0.1-1.2l2.4-1.8c0.2-0.2,0.3-0.5,0.2-0.7l-2.4-4.1
	c-0.1-0.2-0.4-0.3-0.7-0.2l-2.7,1.3c-0.6-0.5-1.4-0.9-2.1-1.3l-0.3-3c0-0.3-0.3-0.5-0.5-0.5h-4.7c-0.3,0-0.5,0.2-0.5,0.5l-0.3,3
	c-0.7,0.3-1.5,0.7-2.1,1.3l-2.7-1.3c-0.3-0.1-0.6,0-0.7,0.2l-2.4,4.1c-0.1,0.2-0.1,0.6,0.2,0.7l2.4,1.8c-0.1,0.4-0.1,0.8-0.1,1.2
	c0,0.3,0,0.8,0.1,1.2l-2.4,1.8c-0.2,0.2-0.3,0.5-0.2,0.7l2.4,4.1c0.1,0.2,0.4,0.3,0.7,0.2l2.7-1.3c0.6,0.5,1.4,0.9,2.1,1.3l0.3,3
	c0,0.3,0.3,0.5,0.5,0.5h4.7c0.3,0,0.5-0.2,0.5-0.5l0.3-3c0.7-0.3,1.5-0.7,2.1-1.3l2.7,1.3c0.3,0.1,0.6,0,0.7-0.2l2.4-4.1
	c0.1-0.2,0.1-0.6-0.2-0.7L-309.6,127.9z M-318.2,132.2c-3,0-5.4-2.4-5.4-5.4c0-3,2.4-5.4,5.4-5.4c3,0,5.4,2.4,5.4,5.4
	C-312.7,129.8-315.1,132.2-318.2,132.2z"/>
<path class="st24" d="M-318.2,120.5c-3.5,0-6.3,2.8-6.3,6.3c0,3.5,2.8,6.3,6.3,6.3c3.5,0,6.3-2.8,6.3-6.3
	C-311.9,123.3-314.7,120.5-318.2,120.5z M-318.2,129.9c-1.8,0-3.1-1.4-3.1-3.1c0-1.8,1.4-3.1,3.1-3.1c1.8,0,3.1,1.4,3.1,3.1
	C-315,128.5-316.4,129.9-318.2,129.9z"/>
<path class="st24" d="M-13.8,105.8c0,0.6-0.5,1.1-1.1,1.1h-34c-0.6,0-1.1-0.5-1.1-1.1v-7.4c0-0.6,0.5-1.1,1.1-1.1h34
	c0.6,0,1.1,0.5,1.1,1.1V105.8z"/>
<rect x="-49.9" y="102.6" class="st6" width="36.1" height="30.8"/>
<path class="st24" d="M-7.8,118.7l-3-3c-0.5-0.5-1.2-0.5-1.7,0l-1.4,1.4l4.7,4.7l1.4-1.4C-7.3,119.9-7.3,119.1-7.8,118.7"/>
<rect x="-29.6" y="125" transform="matrix(-0.7071 0.7071 -0.7071 -0.7071 55.935 233.4302)" class="st23" width="18.5" height="6.6"/>
<rect x="-14.3" y="117.3" transform="matrix(0.707 -0.7073 0.7073 0.707 -89.0006 26.38)" class="st6" width="3.3" height="6.6"/>
<polygon class="st6" points="-29.2,132.5 -30.8,138.7 -24.6,137.2 "/>
<polygon class="st24" points="-30,135.6 -30.8,138.7 -27.7,137.9 "/>
<g>
	<polygon class="st23" points="-24.7,124.9 -38.3,124.9 -38.3,127 -26.8,127 	"/>
	<polygon class="st23" points="-21.2,121.5 -21.2,120.7 -38.3,120.7 -38.3,122.8 -22.5,122.8 	"/>
	<rect x="-38.3" y="112.2" class="st23" width="17" height="2.1"/>
	<rect x="-38.3" y="107.9" class="st23" width="17" height="2.1"/>
	<rect x="-42.5" y="107.9" class="st23" width="2.1" height="2.1"/>
	<rect x="-42.5" y="112.2" class="st23" width="2.1" height="2.1"/>
	<rect x="-42.5" y="124.9" class="st23" width="2.1" height="2.1"/>
	<path class="st23" d="M-38.3,124.9v2.1h7.4c0-0.7,0.1-1.4,0.2-2.1H-38.3z"/>
	<rect x="-42.5" y="116.4" class="st23" width="2.1" height="2.1"/>
	<rect x="-42.5" y="120.7" class="st23" width="2.1" height="2.1"/>
	<rect x="-38.3" y="116.4" class="st23" width="17" height="2.1"/>
</g>
<path class="st23" d="M951.5,1.7h-32.6c-2.6,0-4.7,2.1-4.7,4.7v19.8c0,2.6,2.1,4.7,4.7,4.7h32.6c2.6,0,4.7-2.1,4.7-4.7V6.4
	C956.2,3.8,954.1,1.7,951.5,1.7z"/>
<path class="st24" d="M915.5,3.2c-0.5,0.6-0.9,1.3-1.1,2.1l20.8,15.1L956,5.3c-0.2-0.8-0.6-1.5-1.1-2.1l-19.7,14.3L915.5,3.2z"/>
<path class="st6" d="M958.5,14.5h-32.6c-2.6,0-4.7,2.1-4.7,4.7V39c0,2.6,2.1,4.7,4.7,4.7h32.6c2.6,0,4.7-2.1,4.7-4.7V19.2
	C963.2,16.6,961.1,14.5,958.5,14.5z"/>
<path class="st24" d="M922.5,16c-0.5,0.6-0.9,1.3-1.1,2.1l20.8,15.1L963,18.1c-0.2-0.8-0.6-1.5-1.1-2.1l-19.7,14.3L922.5,16z"/>
<circle class="st24" cx="863.1" cy="9.3" r="8.5"/>
<circle class="st24" cx="837.7" cy="9.3" r="8.5"/>
<path class="st23" d="M882.4,22l-21.6,4.2h-20.7L818.5,22l6.1-11.1c1.6-2.7,4.4-4.4,7.5-4.4h37c3.1,0,5.9,1.7,7.5,4.4L882.4,22z"/>
<circle class="st24" cx="870.1" cy="29" r="14.1"/>
<circle class="st24" cx="830.6" cy="29" r="14.1"/>
<circle class="st24" cx="850.4" cy="26.2" r="7.1"/>
<circle class="st20" cx="850.4" cy="26.2" r="2.8"/>
<g>
	<circle class="st6" cx="870.1" cy="29" r="9.9"/>
	<circle class="st6" cx="830.6" cy="29" r="9.9"/>
</g>
<g>
	<path class="st9" d="M875.3,25.8c-1.4-1.6-3.2-2.4-5.2-2.4c-2,0-3.9,0.8-5.2,2.4c-0.6,0.6-0.4,1.4,0.1,2c0.6,0.6,1.4,0.4,2-0.1
		c1.7-1.8,4.7-1.8,6.3,0c0.3,0.3,0.7,0.4,1,0.4c0.3,0,0.7-0.1,1-0.4C875.9,27.2,875.9,26.4,875.3,25.8z"/>
	<path class="st9" d="M830.6,23.4c-2,0-4,0.8-5.2,2.4c-0.6,0.6-0.4,1.4,0.1,2c0.6,0.6,1.4,0.4,2-0.1c1.7-1.8,4.7-1.8,6.3,0
		c0.3,0.3,0.7,0.4,1,0.4c0.3,0,0.7-0.1,1-0.4c0.6-0.6,0.6-1.4,0.1-2C834.6,24.2,832.6,23.4,830.6,23.4z"/>
</g>
<path class="st27" d="M-483,134c-0.7,2.2-3,3.4-5.1,2.7l-7.8-2.4c-2.2-0.7-3.3-3-2.7-5.1l2.8-9.1c0.7-2.1,3-3.4,5.1-2.7l7.8,2.4
	c2.2,0.7,3.3,3,2.7,5.1L-483,134z"/>
<rect x="-510.9" y="111.1" class="st24" width="4.1" height="13.6"/>
<rect x="-457.9" y="96.1" class="st24" width="4.1" height="43.5"/>
<polygon class="st23" points="-506.9,112 -506.9,123.7 -457.9,137.8 -457.9,97.9 "/>
<polygon class="st6" points="-504.1,114.1 -504.1,117.1 -460.6,110.1 -460.6,101.5 "/>
<g>
	<polygon class="st24" points="-85.7,138.4 -115.9,138.4 -115.9,99.6 -94.3,99.6 -85.7,108.2 	"/>
</g>
<g>
	<polygon class="st23" points="-81.3,134.1 -111.5,134.1 -111.5,95.3 -90,95.3 -81.3,103.9 	"/>
</g>
<polygon class="st6" points="-83,105 -91,105 -91,96.9 "/>
<polygon class="st24" points="-87.8,112.5 -95.4,112.5 -92.8,115.1 -95.4,117.8 -99.7,113.5 -106.3,120 -103.9,122.4 -99.7,118 
	-95.4,122.4 -90.4,117.5 -87.8,120.1 "/>
<g>
	<path class="st24" d="M-145.7,129.2c0,9.3-9.3,9.3-20.8,9.3c-11.5,0-20.8,0-20.8-9.3c0-9.3,9.3-20.8,20.8-20.8
		C-155,108.4-145.7,119.9-145.7,129.2z"/>
	<path class="st24" d="M-159.6,98.6c-2.2,2.4-1.2-5.1-5.8,0c-2.2,2.4-1.2-5.1-5.8,0c-2,2.2-1.3-3.6-4.5-1.2l3.3,12.2h11.6l3.5-12.7
		C-157.8,97-158.6,97.5-159.6,98.6z"/>
</g>
<path class="st6" d="M-164.8,127.7c0-0.6-0.2-1-0.5-1.3c-0.3-0.3-0.8-0.6-1.6-0.9c-0.7-0.3-1.4-0.6-1.9-0.8c-0.5-0.3-1-0.6-1.4-0.9
	c-0.4-0.4-0.7-0.8-0.9-1.3c-0.2-0.5-0.3-1.1-0.3-1.7c0-1.1,0.4-2.1,1.1-2.8c0.7-0.7,1.7-1.2,2.9-1.3v-2.2h1.6v2.2
	c1.2,0.2,2.1,0.7,2.8,1.5c0.7,0.8,1,1.9,1,3.2h-2.9c0-0.8-0.2-1.4-0.5-1.8c-0.3-0.4-0.8-0.6-1.3-0.6c-0.6,0-1,0.2-1.3,0.5
	c-0.3,0.3-0.5,0.8-0.5,1.3c0,0.5,0.1,0.9,0.4,1.2c0.3,0.3,0.9,0.6,1.7,1c0.8,0.3,1.5,0.6,2,0.9c0.5,0.3,1,0.6,1.3,1
	c0.4,0.4,0.6,0.8,0.8,1.2c0.2,0.5,0.3,1,0.3,1.6c0,1.2-0.4,2.1-1.1,2.8c-0.7,0.7-1.7,1.1-3,1.3v2h-1.6v-2c-1.4-0.1-2.5-0.6-3.2-1.5
	c-0.8-0.8-1.1-2-1.1-3.3h2.9c0,0.8,0.2,1.4,0.6,1.9c0.4,0.4,0.9,0.6,1.7,0.6c0.6,0,1.1-0.2,1.4-0.5S-164.8,128.3-164.8,127.7z"/>
<g>
	<path class="st28" d="M-178.1,133.8c-0.5-2.6-0.6-5.2-0.3-7.8c0.6-5,2.3-10.2,5.1-14.4c0.3-0.5,0.7-1.3,1.2-1.6
		c0.4-0.3,0.5-0.2,1,0c0.9,0.2,1.7,0.4,2.6,0.5c2.6,0.3,5.3,0.1,7.7-0.9"/>
	<path class="st28" d="M-181.6,122.2c0-3.5,4.4-11.8,9.3-12.7"/>
</g>
<rect x="-252.3" y="129.2" class="st24" width="9.9" height="8.3"/>
<path class="st24" d="M-229.2,139.1h-36.3c0,0,0-3.3,3.3-3.3c3.3,0,26.4,0,29.7,0C-229.2,135.8-229.2,139.1-229.2,139.1z"/>
<rect x="-277.1" y="96.2" class="st24" width="59.4" height="34.7"/>
<rect x="-273.8" y="99.5" class="st6" width="52.8" height="28.1"/>
</svg>
