<?xml version="1.0" encoding="utf-8"?>
<!-- Generator: Adobe Illustrator 19.1.0, SVG Export Plug-In . SVG Version: 6.00 Build 0)  -->
<svg version="1.1" id="Layer_1" xmlns="http://www.w3.org/2000/svg" xmlns:xlink="http://www.w3.org/1999/xlink" x="0px" y="0px"
	 viewBox="0 0 37 42" style="enable-background:new 0 0 37 42;" xml:space="preserve">
<style type="text/css">
	.st0{fill:#3EB6FF;}
	.st1{fill:#0059B1;}
	.st2{fill:#A16BB8;}
	.st3{fill:#724A84;}
	.st4{fill:#FF5647;}
	.st5{fill:#E6B7FF;}
	.st6{fill:#FFFFFF;}
	.st7{fill:#D7F4FF;}
	.st8{fill:#53AEE6;}
	.st9{fill:#E9E9E9;}
	.st10{fill:#0B66A2;}
	.st11{fill:#E54B42;}
	.st12{fill:#A4C600;}
	.st13{fill:#8EAC00;}
	.st14{fill:#7F9100;}
	.st15{fill:#42B6D7;}
	.st16{fill:#F7FAFB;}
	.st17{fill:#318EA8;}
	.st18{fill:#6AD58B;}
	.st19{fill:#57AA6D;}
	.st20{fill:#EFEFEF;}
	.st21{fill:#D8D8D8;}
	.st22{fill:#E0E0E0;}
	.st23{fill:#36A1DE;}
	.st24{fill:#213F5E;}
	.st25{fill:#65C099;}
	.st26{fill:#467F63;}
	.st27{fill:none;stroke:#213F5E;stroke-width:2;}
	.st28{fill:none;stroke:#36A1DE;stroke-width:2;stroke-linecap:round;}
</style>
<path class="st0" d="M-86.2-501.9c0,11.7-9.5,21-21,21c-11.5,0-21-9.3-21-21c0-11.7,9.3-21,21-21C-95.5-522.9-86.2-513.6-86.2-501.9
	"/>
<g>
	<path class="st1" d="M-107.4-492.3c0-0.4-0.2-0.6-0.6-0.8c-1.3-0.4-2.5-0.4-3.6-1.5c-0.2-0.4-0.2-0.8-0.4-1.3
		c-0.4-0.4-1.5-0.6-2.1-0.8h-2.7h-1.5c-0.6-0.2-1.1-1-1.5-1.7c0-0.2,0-0.6-0.4-0.6c-0.4-0.2-0.8,0.2-1.3,0c-0.2-0.2-0.2-0.4-0.2-0.6
		c0-0.6,0.4-1.3,0.8-1.7c0.6-0.4,1.3,0.2,1.9,0.2c0.2,0,0.2,0,0.4,0.2c0.6,0.2,0.8,1,0.8,1.7v0.4c0,0.2,0.2,0.2,0.4,0.2
		c0.2-1.1,0.2-2.1,0.4-3.2c0-1.3,1.3-2.5,2.3-2.9c0.4-0.2,0.6,0.2,1.1,0c1.3-0.4,4.4-1.7,3.8-3.4c-0.4-1.5-1.7-2.9-3.4-2.7
		c-0.4,0.2-0.6,0.4-1.1,0.6c-0.6,0.4-1.9,1.7-2.5,1.7c-1-0.2-1-1.7-0.8-2.3c0.2-0.8,2.1-3.6,3.4-3.1c0.2,0.2,0.6,0.6,0.8,0.8
		c0.4,0.2,1,0.2,1.7,0.2c0.2,0,0.4,0,0.6-0.2c0.2-0.2,0.2-0.2,0.2-0.4c0-0.6-0.6-1.3-1.1-1.7c-0.4-0.4-1-0.8-1.7-1
		c-2.1-0.6-5.5,0.2-7.1,1.7c-1.7,1.5-2.9,4-3.8,6.1c-0.4,1.3-0.8,2.9-1,4.4c-0.2,1.1-0.4,1.9,0.2,2.9c0.6,1.3,1.9,2.5,3.1,3.4
		c0.8,0.6,2.5,0.6,3.4,1.7c0.6,0.8,0.4,1.9,0.4,2.9c0,1.3,0.8,2.3,1.3,3.4c0.2,0.6,0.4,1.5,0.6,2.1c0,0.2,0.2,1.5,0.2,1.7
		c1.3,0.6,2.3,1.3,3.8,1.7c0.2,0,1-1.3,1-1.5c0.6-0.6,1.1-1.5,1.7-1.9c0.4-0.2,0.8-0.4,1.3-0.8c0.4-0.4,0.6-1.3,0.8-1.9
		C-107.4-490.8-107.2-491.6-107.4-492.3"/>
	<path class="st1" d="M-107-511.6c0.2,0,0.4-0.2,0.8-0.4c0.6-0.4,1.3-1,1.9-1.5c0.6-0.4,1.3-1.1,1.7-1.5c0.6-0.4,1-1.3,1.3-1.9
		c0.2-0.4,0.8-1.3,0.6-1.9c-0.2-0.4-1.3-0.6-1.7-0.8c-1.7-0.4-3.2-0.6-4.8-0.6c-0.6,0-1.5,0.2-1.7,0.8c-0.2,1.1,0.6,0.8,1.5,1.1
		c0,0,0.2,1.7,0.2,1.9c0.2,1.1-0.4,1.7-0.4,2.7c0,0.6,0,1.7,0.4,2.1H-107z"/>
	<path class="st1" d="M-89.4-496.9c0.2-0.4,0.2-1,0.4-1.5c0.2-1.1,0.2-2.1,0.2-3.2c0-2.1-0.2-4.2-0.8-6.1c-0.4-0.6-0.6-1.3-0.8-1.9
		c-0.4-1-1-2.1-1.9-2.9c-0.8-1-1.9-4-3.8-3.1c-0.6,0.2-1,1.1-1.5,1.5c-0.4,0.6-0.8,1.3-1.3,1.9c-0.2,0.2-0.4,0.6-0.2,0.8
		c0,0.2,0.2,0.2,0.4,0.2c0.4,0.2,0.6,0.2,1.1,0.4c0.2,0,0.4,0.2,0.2,0.4c0,0,0,0.2-0.2,0.2c-1.1,1-2.1,1.9-3.2,2.9
		c-0.2,0.2-0.4,0.6-0.4,0.8c0,0.2,0.2,0.2,0.2,0.4c0,0.2-0.2,0.2-0.4,0.4c-0.4,0.2-0.8,0.4-1,0.6c-0.2,0.4,0,1-0.2,1.5
		c-0.2,1-0.8,1.9-1.3,2.9c-0.4,0.6-0.6,1.3-1,1.9c0,0.8-0.2,1.5,0.2,2.1c1.1,1.5,2.9,0.6,4.4,1.3c0.4,0.2,0.8,0.2,1.1,0.6
		c0.6,0.6,0.6,1.7,0.8,2.3c0.2,0.8,0.4,1.7,0.8,2.5c0.2,1.1,0.6,2.1,0.8,2.9c1.9-1.5,3.6-3.1,4.8-5.2
		C-90.6-493.5-90-495.2-89.4-496.9"/>
</g>
<g>
	<polygon class="st2" points="-32.6,-480.5 -65.1,-480.5 -65.1,-523.2 -42.8,-523.2 -32.6,-513 	"/>
</g>
<polygon class="st3" points="-34.2,-510.3 -43.8,-510.3 -43.8,-520 "/>
<g>
	<rect x="-57" y="-504.9" class="st3" width="17.3" height="2"/>
	<rect x="-57" y="-500.8" class="st3" width="13.2" height="2"/>
	<rect x="-57" y="-496.8" class="st3" width="17.3" height="2"/>
	<rect x="-57" y="-492.7" class="st3" width="13.2" height="2"/>
</g>
<g>
	
		<rect x="29.4" y="-496.9" transform="matrix(-0.7071 0.7071 -0.7071 -0.7071 -291.2468 -855.3511)" class="st3" width="4.2" height="17.8"/>
	<circle class="st3" cx="14.2" cy="-505.3" r="16.7"/>
</g>
<rect x="31.2" y="-492.7" transform="matrix(-0.7072 0.707 -0.707 -0.7072 -286.9947 -853.6703)" class="st4" width="4.2" height="12.8"/>
<circle class="st5" cx="14.2" cy="-505.3" r="13.6"/>
<path class="st6" d="M21.4-511.4c-1.8-2.1-4.4-3.3-7.2-3.3c-2.8,0-5.4,1.3-7.2,3.3c-0.4,0.4-0.3,1.1,0.1,1.5
	c0.4,0.4,1.1,0.3,1.5-0.1c1.5-1.7,3.4-2.6,5.6-2.6c2.2,0,4.2,0.9,5.6,2.6c0.2,0.2,0.5,0.4,0.8,0.4c0.2,0,0.5-0.1,0.6-0.2
	C21.7-510.2,21.7-511,21.4-511.4z"/>
<path class="st0" d="M180.6-523.5h-35.6c-2,0-3.6,1.6-3.6,3.6v39.1l10.1-9.5h29c2,0,3.6-1.6,3.6-3.6v-26.1
	C184.2-521.9,182.6-523.5,180.6-523.5z"/>
<g>
	<rect x="146.3" y="-514" class="st1" width="33.2" height="2.4"/>
	<rect x="146.3" y="-508" class="st1" width="33.2" height="2.4"/>
	<rect x="146.3" y="-502.1" class="st1" width="19" height="2.4"/>
</g>
<path class="st5" d="M108-523H72.8c-1.9,0-3.5,1.6-3.5,3.5v38.7l10-9.4H108c1.9,0,3.5-1.6,3.5-3.5v-25.8
	C111.5-521.5,110-523,108-523z"/>
<g>
	<rect x="74" y="-513.6" class="st3" width="32.9" height="2.3"/>
	<rect x="74" y="-507.8" class="st3" width="32.9" height="2.3"/>
	<rect x="74" y="-501.9" class="st3" width="18.8" height="2.3"/>
</g>
<path class="st0" d="M251.1-500.1c0.1-0.7,0.2-1.4,0.2-2.2c0-0.8-0.1-1.5-0.2-2.2l4.6-3.3c0.4-0.3,0.6-0.9,0.3-1.4l-4.5-7.6
	c-0.3-0.5-0.8-0.7-1.3-0.4l-5.1,2.4c-1.2-0.9-2.5-1.6-3.9-2.2l-0.5-5.6c-0.1-0.5-0.5-0.9-1-0.9h-8.8c-0.5,0-1,0.4-1,0.9l-0.5,5.6
	c-1.4,0.6-2.8,1.3-3.9,2.2l-5.1-2.4c-0.5-0.2-1.1,0-1.3,0.4l-4.4,7.6c-0.3,0.5-0.1,1.1,0.3,1.4l4.6,3.3c-0.1,0.7-0.2,1.4-0.2,2.2
	c0,0.8,0.1,1.5,0.2,2.2l-4.8,3.3c-0.4,0.3-0.6,0.9-0.3,1.4l4.4,7.6c0.3,0.5,0.8,0.7,1.3,0.4l5.1-2.4c1.2,0.9,2.5,1.6,3.9,2.2
	l0.5,5.6c0.1,0.5,0.5,0.9,1,0.9h8.8c0.5,0,1-0.4,1-0.9l0.5-5.6c1.4-0.6,2.8-1.3,3.9-2.2l5.1,2.4c0.5,0.2,1.1,0,1.3-0.4l4.4-7.6
	c0.3-0.5,0.1-1.1-0.3-1.4L251.1-500.1z M235.1-492.1c-5.6,0-10.2-4.6-10.2-10.2c0-5.6,4.6-10.2,10.2-10.2c5.6,0,10.2,4.6,10.2,10.2
	C245.3-496.7,240.7-492.1,235.1-492.1z"/>
<path class="st1" d="M235.1-514.6c-6.7,0-12.3,5.5-12.3,12.3c0,6.7,5.5,12.3,12.3,12.3c6.7,0,12.3-5.5,12.3-12.3
	C247.4-509.1,241.9-514.6,235.1-514.6z M235.1-497.2c-2.9,0-5.1-2.2-5.1-5.1c0-2.9,2.2-5.1,5.1-5.1c2.9,0,5.1,2.2,5.1,5.1
	C240.2-499.5,238-497.2,235.1-497.2z"/>
<g>
	<polygon class="st0" points="314.5,-484.6 286.1,-484.6 286.1,-523 305.4,-523 314.5,-513.9 	"/>
</g>
<polygon class="st6" points="312.9,-512.9 304.3,-512.9 304.3,-521.5 "/>
<g>
	
		<rect x="319.9" y="-491.8" transform="matrix(-0.7073 0.7069 -0.7069 -0.7073 205.1196 -1056.4573)" class="st1" width="2.8" height="12.1"/>
	<circle class="st1" cx="309.4" cy="-497.7" r="11.1"/>
	<circle class="st0" cx="309.4" cy="-497.7" r="9.1"/>
</g>
<rect x="321.1" y="-489" transform="matrix(-0.707 0.7072 -0.7072 -0.707 207.7661 -1055.3037)" class="st1" width="2.8" height="8.8"/>
<g>
	<path class="st6" d="M311.4-495.7h-9.8c0.4,1.6,1.3,3,2.5,4h7.3V-495.7z"/>
	<path class="st6" d="M301.6-499.8h9.8v-4H304C302.8-502.8,302-501.4,301.6-499.8z"/>
	<path class="st6" d="M301.4-506.8h-9.2v2h7.4C300.1-505.5,300.7-506.2,301.4-506.8z"/>
	<path class="st6" d="M298.4-502.8h-6.2v2h5.5C297.9-501.5,298.1-502.2,298.4-502.8z"/>
	<path class="st6" d="M297.3-497.7c0-0.3,0-0.7,0.1-1h-5.2v2h5.2C297.3-497,297.3-497.4,297.3-497.7z"/>
	<path class="st6" d="M297.7-494.7h-5.5v2h6.2C298.1-493.3,297.9-494,297.7-494.7z"/>
</g>
<g>
	<circle class="st3" cx="402.7" cy="-514" r="8.4"/>
	<circle class="st3" cx="377.5" cy="-514" r="8.4"/>
	<g>
		<path class="st3" d="M421.8-501.4l-21.4,4.2h-20.5l-21.4-4.2l6-11c1.5-2.7,4.3-4.3,7.4-4.3h36.6c3.1,0,5.9,1.7,7.4,4.3
			L421.8-501.4z"/>
		<circle class="st3" cx="409.6" cy="-494.4" r="14"/>
		<circle class="st3" cx="370.5" cy="-494.4" r="14"/>
		<circle class="st3" cx="390.1" cy="-497.2" r="7"/>
	</g>
</g>
<circle class="st4" cx="390.1" cy="-497.2" r="2.8"/>
<g>
	<circle class="st5" cx="409.6" cy="-494.4" r="9.8"/>
	<circle class="st5" cx="370.5" cy="-494.4" r="9.8"/>
</g>
<g>
	<path class="st6" d="M414.8-497.7c-1.4-1.5-3.2-2.4-5.2-2.4c-2,0-3.9,0.8-5.2,2.4c-0.6,0.6-0.4,1.4,0.1,2c0.6,0.6,1.4,0.4,2-0.1
		c1.7-1.8,4.6-1.8,6.3,0c0.3,0.3,0.7,0.4,1,0.4c0.3,0,0.7-0.1,1-0.4C415.4-496.3,415.4-497.1,414.8-497.7z"/>
	<path class="st6" d="M370.5-500c-2,0-3.9,0.8-5.2,2.4c-0.6,0.6-0.4,1.4,0.1,2c0.6,0.6,1.4,0.4,2-0.1c1.7-1.8,4.6-1.8,6.3,0
		c0.3,0.3,0.7,0.4,1,0.4c0.3,0,0.7-0.1,1-0.4c0.6-0.6,0.6-1.4,0.1-2C374.5-499.2,372.5-500,370.5-500z"/>
</g>
<rect x="495.9" y="-507.8" class="st0" width="4.7" height="27"/>
<rect x="488.9" y="-499.5" class="st1" width="4.7" height="18.8"/>
<rect x="481.8" y="-505.4" class="st0" width="4.7" height="24.7"/>
<rect x="474.8" y="-498.4" class="st1" width="4.7" height="17.6"/>
<rect x="467.7" y="-494.8" class="st0" width="4.7" height="14.1"/>
<rect x="460.7" y="-497.2" class="st1" width="4.7" height="16.5"/>
<rect x="453.6" y="-492.5" class="st0" width="4.7" height="11.8"/>
<g>
	<polygon class="st0" points="496,-521.7 488.9,-514.6 484.2,-519.3 472.4,-507.5 466.5,-513.4 454.3,-501.2 457.6,-497.9 
		466.5,-506.8 472.4,-500.9 484.2,-512.7 488.9,-508 499.3,-518.5 	"/>
	<polygon class="st0" points="500.6,-523 490,-523 500.6,-512.5 	"/>
</g>
<circle class="st1" cx="552" cy="-502.5" r="21.2"/>
<circle class="st0" cx="552" cy="-502.5" r="16.9"/>
<rect x="550.9" y="-516.3" class="st1" width="2.1" height="13.8"/>
<rect x="554.2" y="-504" transform="matrix(0.7071 -0.7071 0.7071 0.7071 515.6052 246.5326)" class="st1" width="2.4" height="9.7"/>
<circle class="st1" cx="552" cy="-502.5" r="2.1"/>
<circle class="st6" cx="552" cy="-502.5" r="1.1"/>
<path class="st1" d="M603.4-496.2v11c0,2.4,2,4.4,4.4,4.4h30.8c2.4,0,4.4-2,4.4-4.4v-11H603.4z"/>
<path class="st0" d="M643-496.2c0,2.4-2,4.4-4.4,4.4h-30.8c-2.4,0-4.4-2-4.4-4.4l3.3-13.2c0.2-2.3,2-4.4,4.4-4.4h24.2
	c2.4,0,4.1,1.9,4.4,4.4L643-496.2z"/>
<circle class="st7" cx="635.3" cy="-486.3" r="2.2"/>
<g>
	<ellipse class="st1" cx="624.9" cy="-516.7" rx="6.1" ry="5.9"/>
	<ellipse class="st1" cx="626.2" cy="-506.6" rx="5" ry="4.9"/>
	<ellipse class="st1" cx="619.4" cy="-511.2" rx="5" ry="4.9"/>
	<ellipse class="st1" cx="639.8" cy="-511.5" rx="4.3" ry="4.2"/>
	<ellipse class="st1" cx="634.1" cy="-508.1" rx="4.3" ry="4.2"/>
	<ellipse class="st1" cx="634.5" cy="-514.8" rx="4.7" ry="4.5"/>
	<ellipse class="st1" cx="629.2" cy="-512.1" rx="5" ry="4.9"/>
</g>
<path class="st3" d="M696.4-503.6h13.8l6.4,6.4v-18c0-2.3-1.9-4.2-4.2-4.2h-15.9c-2.3,0-4.2,1.9-4.2,4.2v7.4
	C692.1-505.6,694-503.6,696.4-503.6z"/>
<path class="st4" d="M694.3-506.8h-13.8l-6.4,6.4v-18c0-2.3,1.9-4.2,4.2-4.2h15.9c2.3,0,4.2,1.9,4.2,4.2v7.4
	C698.5-508.7,696.6-506.8,694.3-506.8z"/>
<g>
	<circle class="st2" cx="682.6" cy="-494.1" r="5.3"/>
	<circle class="st2" cx="708" cy="-494.1" r="5.3"/>
</g>
<g>
	<path class="st3" d="M691.1-482.5c0,0-2.3-4.2-8.5-4.2c-6.1,0-8.5,4.2-8.5,4.2v2.1h16.9V-482.5L691.1-482.5z"/>
	<path class="st3" d="M716.5-482.5c0,0-2.3-4.2-8.5-4.2c-6.1,0-8.5,4.2-8.5,4.2v2.1h16.9V-482.5z"/>
</g>
<circle class="st7" cx="767.8" cy="-501.9" r="16.8"/>
<g>
	<path class="st1" d="M766.1-504.8c-1.6,0.9-2.1,3-1.2,4.6c1,1.6,3,2.2,4.7,1.2c1.6-0.9,2.1-3,1.2-4.6
		C769.8-505.2,767.7-505.7,766.1-504.8"/>
	<polygon class="st1" points="780.5,-509.2 770,-500.5 767.7,-504.4 	"/>
</g>
<g>
	<path class="st1" d="M754.4-503h-5.6c0,0.4-0.1,0.7-0.1,1.1c0,0.4,0,0.8,0.1,1.1h5.6V-503z"/>
	<path class="st1" d="M756.5-494.5l-1.1-2l-4.9,2.6c0.3,0.7,0.7,1.4,1.1,2L756.5-494.5z"/>
</g>
<g>
	<path class="st1" d="M760.2-513l2-1.1l-2.8-4.8c-0.7,0.3-1.3,0.7-2,1.1L760.2-513z"/>
	<path class="st1" d="M750.8-510.4l4.8,2.8l1.1-2l-4.8-2.8C751.5-511.7,751.1-511.1,750.8-510.4z"/>
	<path class="st1" d="M781.3-500.7h5.6c0-0.4,0.1-0.7,0.1-1.1c0-0.4,0-0.8-0.1-1.1h-5.6V-500.7z"/>
	<path class="st1" d="M785.3-494.2l-5-2.5l-1,2l5,2.5C784.6-492.8,785-493.5,785.3-494.2z"/>
	<path class="st1" d="M778.5-517.7c-0.6-0.4-1.3-0.8-2-1.1l-2.8,4.8l2,1.1L778.5-517.7z"/>
	<path class="st1" d="M768.9-520.9c-0.4,0-0.7-0.1-1.1-0.1c-0.4,0-0.8,0-1.1,0.1v5.6h2.3V-520.9z"/>
</g>
<path class="st0" d="M767.8-523.2c-11.8,0-21.3,9.6-21.3,21.3c0,11.8,9.6,21.3,21.3,21.3c11.8,0,21.3-9.6,21.3-21.3
	C789.2-513.6,779.6-523.2,767.8-523.2z M767.8-485c-9.3,0-16.8-7.5-16.8-16.8c0-9.3,7.5-16.8,16.8-16.8s16.8,7.5,16.8,16.8
	C784.7-492.6,777.1-485,767.8-485z"/>
<path class="st7" d="M767.3-502.8c-0.5,0.3-0.7,1-0.4,1.5c0.3,0.5,1,0.7,1.6,0.4c0.5-0.3,0.7-1,0.4-1.5
	C768.5-503,767.8-503.1,767.3-502.8"/>
<path class="st0" d="M870.6-484.1c0,1.6-1.3,2.8-2.8,2.8h-45.3c-1.6,0-2.8-1.3-2.8-2.8v-31.2c0-1.6,1.3-2.8,2.8-2.8h45.3
	c1.6,0,2.8,1.3,2.8,2.8V-484.1z"/>
<path class="st0" d="M857.9-513.8c0,1.6-1.3,2.8-2.8,2.8h-19.8c-1.6,0-2.8-1.3-2.8-2.8v-7.1c0-1.6,1.3-2.8,2.8-2.8H855
	c1.6,0,2.8,1.3,2.8,2.8V-513.8z"/>
<circle class="st7" cx="863.5" cy="-511" r="2.8"/>
<circle class="st7" cx="845.1" cy="-499.7" r="14.2"/>
<circle class="st1" cx="845.1" cy="-499.7" r="11.3"/>
<path class="st0" d="M839.5-494c0,1.7,0.4,3.2,1,4.7c1.4,0.6,3,1,4.7,1c6.3,0,11.3-5.1,11.3-11.3c0-1.7-0.4-3.2-1-4.7
	c-1.4-0.6-3-1-4.7-1C844.5-505.3,839.5-500.2,839.5-494z"/>
<path class="st8" d="M-77.8-341.1c0,1.5-1.3,2.8-2.8,2.8h-44.8c-1.5,0-2.8-1.3-2.8-2.8v-30.8c0-1.5,1.3-2.8,2.8-2.8h44.8
	c1.5,0,2.8,1.3,2.8,2.8V-341.1z"/>
<path class="st8" d="M-90.4-370.5c0,1.5-1.3,2.8-2.8,2.8h-19.6c-1.5,0-2.8-1.3-2.8-2.8v-7c0-1.5,1.3-2.8,2.8-2.8h19.6
	c1.5,0,2.8,1.3,2.8,2.8V-370.5z"/>
<circle class="st9" cx="-84.8" cy="-367.7" r="2.8"/>
<circle class="st9" cx="-103" cy="-356.5" r="14"/>
<circle class="st10" cx="-103" cy="-356.5" r="11.2"/>
<path class="st8" d="M-108.6-350.9c0,1.6,0.4,3.2,1,4.6c1.4,0.6,3,1,4.6,1c6.2,0,11.2-5,11.2-11.2c0-1.6-0.4-3.2-1-4.6
	c-1.4-0.6-3-1-4.6-1C-103.6-362.1-108.6-357.1-108.6-350.9z"/>
<g>
	<path class="st4" d="M929.3-505.2h-2.5c0-9.2,5.1-9.6,9.2-9.9c4-0.3,7-0.6,7-7.5h2.5c0,9.3-5.1,9.7-9.3,10
		C932.2-512.3,929.3-512.1,929.3-505.2z"/>
</g>
<rect x="900.6" y="-505.2" class="st3" width="54.8" height="24.9"/>
<g>
	<rect x="903.1" y="-502.7" class="st5" width="5" height="5"/>
	<rect x="910.6" y="-502.7" class="st5" width="5" height="5"/>
	<rect x="918.1" y="-502.7" class="st5" width="5" height="5"/>
	<rect x="925.5" y="-502.7" class="st5" width="5" height="5"/>
	<rect x="933" y="-502.7" class="st5" width="5" height="5"/>
	<rect x="940.5" y="-502.7" class="st5" width="5" height="5"/>
	<rect x="947.9" y="-502.7" class="st5" width="5" height="5"/>
	<rect x="903.1" y="-487.8" class="st5" width="5" height="5"/>
	<rect x="910.6" y="-487.8" class="st5" width="5" height="5"/>
	<rect x="918.1" y="-487.8" class="st5" width="19.9" height="5"/>
	<rect x="940.5" y="-487.8" class="st5" width="5" height="5"/>
	<rect x="947.9" y="-487.8" class="st5" width="5" height="5"/>
	<rect x="903.1" y="-495.2" class="st5" width="8.7" height="5"/>
	<rect x="914.3" y="-495.2" class="st5" width="5" height="5"/>
	<rect x="921.8" y="-495.2" class="st5" width="5" height="5"/>
	<rect x="929.3" y="-495.2" class="st5" width="5" height="5"/>
	<rect x="936.7" y="-495.2" class="st5" width="5" height="5"/>
	<rect x="944.2" y="-495.2" class="st5" width="8.7" height="5"/>
</g>
<path class="st2" d="M985.9-500.9c0,13.5,18.1,20.4,18.1,20.4s18.1-6.8,18.1-20.4c0-5.6,0-19.2,0-19.2c-4.5,0-18.1-3.4-18.1-3.4
	s-13.6,3.4-18.1,3.4C985.9-520.2,985.9-506.5,985.9-500.9z"/>
<path class="st3" d="M1022.1-500.9c0,13.5-18.1,20.4-18.1,20.4v-43c0,0,13.6,3.4,18.1,3.4C1022.1-520.2,1022.1-506.5,1022.1-500.9z"
	/>
<path class="st4" d="M1017.6-500.9c0,8.2-9.7,13.6-13.6,15.4c-3.9-1.8-13.6-7.3-13.6-15.4v-15.2c4.7-0.7,10.8-2.1,13.6-2.8
	c2.8,0.7,8.8,2.1,13.6,2.8V-500.9z"/>
<path class="st11" d="M1017.6-500.9c0,8.2-9.7,13.6-13.6,15.4l0-33.4c2.8,0.7,8.8,2.1,13.6,2.8V-500.9z"/>
<circle class="st6" cx="988.1" cy="-516.8" r="1.1"/>
<circle class="st6" cx="996" cy="-519.1" r="1.1"/>
<circle class="st6" cx="1004" cy="-521.3" r="1.1"/>
<circle class="st6" cx="988.1" cy="-510" r="1.1"/>
<circle class="st6" cx="988.1" cy="-503.2" r="1.1"/>
<circle class="st6" cx="989.3" cy="-496.4" r="1.1"/>
<circle class="st6" cx="992.6" cy="-490.8" r="1.1"/>
<circle class="st6" cx="998.3" cy="-486.2" r="1.1"/>
<circle class="st6" cx="1019.8" cy="-516.8" r="1.1"/>
<circle class="st6" cx="1011.9" cy="-519.1" r="1.1"/>
<circle class="st6" cx="1019.8" cy="-510" r="1.1"/>
<circle class="st6" cx="1019.8" cy="-503.2" r="1.1"/>
<circle class="st6" cx="1018.7" cy="-496.4" r="1.1"/>
<circle class="st6" cx="1015.3" cy="-490.8" r="1.1"/>
<circle class="st6" cx="1009.6" cy="-486.2" r="1.1"/>
<polygon class="st6" points="1004,-500 1018.4,-510.1 1018.4,-514.6 1004,-504.5 "/>
<path class="st6" d="M1004-504.5l-12.4,8.4c0.5,1.1,1.2,2.2,2.1,3.1l10.3-7V-504.5z"/>
<polygon class="st6" points="999.4,-510 997.2,-507.2 994.9,-510 997.2,-512.8 "/>
<polygon class="st6" points="1013,-496.4 1010.8,-493.6 1008.5,-496.4 1010.8,-499.2 "/>
<path class="st3" d="M1073.5-492.4c0.1-0.4,0.1-0.9,0.1-1.3c0-0.5,0-0.9-0.1-1.3l2.7-1.9c0.3-0.2,0.4-0.6,0.2-0.9l-2.6-4.4
	c-0.2-0.3-0.5-0.4-0.8-0.3l-3,1.4c-0.7-0.6-1.4-1-2.3-1.3l-0.3-3.3c0-0.3-0.3-0.6-0.6-0.6h-5.1c-0.3,0-0.6,0.3-0.6,0.6l-0.4,3.4
	c-0.9,0.3-1.5,0.8-2.3,1.3l-3-1.3c-0.3-0.1-0.7,0-0.8,0.3l-2.6,4.4c-0.2,0.3-0.1,0.7,0.2,0.9l2.7,1.9c-0.1,0.4-0.1,0.9-0.1,1.3
	c0,0.5,0,0.9,0.1,1.3l-2.7,1.9c-0.3,0.2-0.4,0.6-0.2,0.9l2.6,4.4c0.2,0.3,0.5,0.4,0.8,0.3l3-1.3c0.7,0.6,1.4,1,2.3,1.3l0.3,3.3
	c0,0.3,0.3,0.6,0.6,0.6h5.1c0.3,0,0.6-0.3,0.6-0.6l0.3-3.3c0.9-0.3,1.5-0.8,2.3-1.3l3,1.3c0.3,0.1,0.7,0,0.8-0.3l2.6-4.4
	c0.2-0.3,0.1-0.7-0.2-0.9L1073.5-492.4z M1064.3-489c-2.7,0-4.8-2.1-4.8-4.8c0-2.7,2.1-4.8,4.8-4.8c2.7,0,4.8,2.1,4.8,4.8
	C1069.1-491.1,1067-489,1064.3-489z"/>
<path class="st4" d="M1089.2-510.8c0.1-0.5,0.1-0.9,0.1-1.2s0-0.8-0.1-1.2l2.4-1.7c0.3-0.2,0.3-0.5,0.2-0.8l-2.4-4.1
	c-0.2-0.3-0.5-0.4-0.8-0.2l-2.8,1.2c-0.7-0.5-1.3-0.9-2.1-1.2l-0.3-3c0.1-0.3-0.1-0.5-0.4-0.5h-4.7c-0.3,0-0.6,0.2-0.6,0.5l-0.3,3
	c-0.8,0.3-1.4,0.7-2.1,1.2l-2.8-1.2c-0.3-0.1-0.6,0-0.8,0.2l-2.4,4.1c-0.2,0.3-0.1,0.6,0.2,0.8l2.4,1.7c0,0.5,0,0.9,0,1.2
	s0,0.8,0.1,1.2l-2.4,1.7c-0.3,0.2-0.3,0.5-0.2,0.8l2.4,4.1c0.2,0.3,0.5,0.4,0.8,0.2l2.8-1.2c0.7,0.5,1.3,0.9,2.1,1.2l0.3,3
	c0,0.3,0.3,0.5,0.6,0.5h4.7c0.3,0,0.6-0.2,0.6-0.5l0.3-3c0.8-0.3,1.4-0.7,2.1-1.2l2.8,1.2c0.3,0.1,0.6,0,0.8-0.2l2.4-4.1
	c0.2-0.3,0.1-0.6-0.2-0.8L1089.2-510.8z M1080.6-507.2c-2.7,0-4.8-2.1-4.8-4.8c0-2.7,2.1-4.8,4.8-4.8c2.7,0,4.8,2.1,4.8,4.8
	C1085.4-509.3,1083.3-507.2,1080.6-507.2z"/>
<rect x="-3.3" y="-366.3" class="st12" width="4.9" height="28.2"/>
<rect x="-10.6" y="-357.8" class="st13" width="4.9" height="19.6"/>
<rect x="-18" y="-363.9" class="st12" width="4.9" height="25.8"/>
<rect x="-25.3" y="-356.5" class="st13" width="4.9" height="18.4"/>
<rect x="-32.7" y="-352.9" class="st12" width="4.9" height="14.7"/>
<rect x="-40" y="-355.3" class="st13" width="4.9" height="17.2"/>
<rect x="-47.4" y="-350.4" class="st12" width="4.9" height="12.3"/>
<g>
	<polygon class="st12" points="-3.1,-380.9 -10.6,-373.5 -15.5,-378.4 -27.8,-366.1 -33.9,-372.2 -46.7,-359.5 -43.2,-356 
		-33.9,-365.4 -27.8,-359.2 -15.5,-371.5 -10.6,-366.6 0.3,-377.5 	"/>
	<polygon class="st12" points="1.6,-382.3 -9.4,-382.3 1.6,-371.2 	"/>
</g>
<circle class="st9" cx="52.8" cy="-359.8" r="16.8"/>
<g>
	<path class="st10" d="M51.1-362.7c-1.6,0.9-2.1,3-1.2,4.6c1,1.6,3,2.1,4.6,1.2c1.6-0.9,2.1-3,1.2-4.6
		C54.8-363.1,52.7-363.6,51.1-362.7"/>
	<polygon class="st10" points="65.4,-367.1 54.9,-358.4 52.6,-362.3 	"/>
</g>
<g>
	<path class="st10" d="M39.4-360.9h-5.5c0,0.4-0.1,0.7-0.1,1.1c0,0.4,0,0.8,0.1,1.1h5.5V-360.9z"/>
	<path class="st10" d="M41.5-352.5l-1.1-2l-4.9,2.6c0.3,0.7,0.7,1.3,1.1,2L41.5-352.5z"/>
</g>
<g>
	<path class="st10" d="M45.1-370.9l2-1.1l-2.7-4.8c-0.7,0.3-1.3,0.7-2,1.1L45.1-370.9z"/>
	<path class="st10" d="M35.8-368.3l4.8,2.8l1.1-2l-4.8-2.8C36.5-369.6,36.1-369,35.8-368.3z"/>
	<path class="st10" d="M66.2-358.7h5.5c0-0.4,0.1-0.7,0.1-1.1c0-0.4,0-0.8-0.1-1.1h-5.5V-358.7z"/>
	<path class="st10" d="M70.2-352.2l-4.9-2.5l-1,2l4.9,2.5C69.5-350.8,69.8-351.5,70.2-352.2z"/>
	<path class="st10" d="M63.3-375.6c-0.6-0.4-1.3-0.8-2-1.1l-2.8,4.8l1.9,1.1L63.3-375.6z"/>
	<path class="st10" d="M53.9-378.7c-0.4,0-0.7-0.1-1.1-0.1c-0.4,0-0.8,0-1.1,0.1v5.5h2.3V-378.7z"/>
</g>
<path class="st8" d="M52.8-381c-11.7,0-21.2,9.5-21.2,21.2c0,11.7,9.5,21.2,21.2,21.2c11.7,0,21.2-9.5,21.2-21.2
	C74-371.5,64.5-381,52.8-381z M52.8-343c-9.3,0-16.8-7.5-16.8-16.8c0-9.3,7.5-16.8,16.8-16.8c9.3,0,16.8,7.5,16.8,16.8
	C69.5-350.5,62-343,52.8-343z"/>
<path class="st9" d="M52.2-360.7c-0.5,0.3-0.7,1-0.4,1.5c0.3,0.5,1,0.7,1.5,0.4c0.5-0.3,0.7-1,0.4-1.5
	C53.5-360.9,52.8-361.1,52.2-360.7"/>
<path class="st14" d="M104.1-353.8v11.3c0,2.5,2,4.5,4.5,4.5h31.6c2.5,0,4.5-2,4.5-4.5v-11.3H104.1z"/>
<path class="st12" d="M144.7-353.8c0,2.5-2,4.5-4.5,4.5h-31.6c-2.5,0-4.5-2-4.5-4.5l3.4-13.5c0.2-2.4,2-4.5,4.5-4.5h24.8
	c2.5,0,4.2,2,4.5,4.5L144.7-353.8z"/>
<circle class="st9" cx="136.8" cy="-343.7" r="2.3"/>
<g>
	<ellipse class="st9" cx="126.1" cy="-374.8" rx="6.2" ry="6.1"/>
	<ellipse class="st9" cx="127.5" cy="-364.5" rx="5.1" ry="5"/>
	<ellipse class="st9" cx="120.5" cy="-369.1" rx="5.1" ry="5"/>
	<ellipse class="st9" cx="141.4" cy="-369.5" rx="4.4" ry="4.3"/>
	<ellipse class="st9" cx="135.6" cy="-366" rx="4.4" ry="4.3"/>
	<ellipse class="st9" cx="135.9" cy="-372.9" rx="4.8" ry="4.6"/>
	<ellipse class="st9" cx="130.5" cy="-370.1" rx="5.1" ry="5"/>
</g>
<path class="st15" d="M-78.8-199.1c0,1.5-1.2,2.8-2.8,2.8h-44.4c-1.5,0-2.8-1.2-2.8-2.8v-30.6c0-1.5,1.2-2.8,2.8-2.8h44.4
	c1.5,0,2.8,1.2,2.8,2.8V-199.1z"/>
<path class="st15" d="M-91.3-228.3c0,1.5-1.2,2.8-2.8,2.8h-19.4c-1.5,0-2.8-1.2-2.8-2.8v-6.9c0-1.5,1.2-2.8,2.8-2.8h19.4
	c1.5,0,2.8,1.2,2.8,2.8V-228.3z"/>
<circle class="st16" cx="-85.8" cy="-225.5" r="2.8"/>
<circle class="st16" cx="-103.8" cy="-214.4" r="13.9"/>
<circle class="st17" cx="-103.8" cy="-214.4" r="11.1"/>
<path class="st15" d="M-109.4-208.8c0,1.6,0.4,3.2,1,4.6c1.4,0.6,2.9,1,4.6,1c6.1,0,11.1-5,11.1-11.1c0-1.6-0.4-3.2-1-4.6
	c-1.4-0.6-2.9-1-4.6-1C-104.4-219.9-109.4-215-109.4-208.8z"/>
<rect x="-6.8" y="-223.2" class="st18" width="4.7" height="26.8"/>
<rect x="-13.8" y="-215" class="st19" width="4.7" height="18.7"/>
<rect x="-20.8" y="-220.8" class="st18" width="4.7" height="24.5"/>
<rect x="-27.8" y="-213.8" class="st19" width="4.7" height="17.5"/>
<rect x="-34.8" y="-210.3" class="st18" width="4.7" height="14"/>
<rect x="-41.8" y="-212.7" class="st19" width="4.7" height="16.3"/>
<rect x="-48.8" y="-208" class="st18" width="4.7" height="11.7"/>
<g>
	<polygon class="st18" points="-6.7,-237 -13.8,-229.9 -18.5,-234.6 -30.2,-222.9 -36,-228.8 -48.1,-216.6 -44.9,-213.4 -36,-222.2 
		-30.2,-216.4 -18.5,-228.1 -13.8,-223.4 -3.5,-233.8 	"/>
	<polygon class="st18" points="-2.2,-238.3 -12.7,-238.3 -2.2,-227.8 	"/>
</g>
<circle class="st16" cx="49.1" cy="-217.2" r="16.5"/>
<g>
	<path class="st17" d="M47.4-220.1c-1.6,0.9-2.1,2.9-1.2,4.5c0.9,1.6,3,2.1,4.6,1.2c1.6-0.9,2.1-2.9,1.2-4.5
		C51-220.5,49-221,47.4-220.1"/>
	<polygon class="st17" points="61.5,-224.4 51.2,-215.9 48.9,-219.7 	"/>
</g>
<g>
	<path class="st17" d="M35.9-218.3h-5.4c0,0.4-0.1,0.7-0.1,1.1c0,0.4,0,0.7,0.1,1.1h5.4V-218.3z"/>
	<path class="st17" d="M38-210.1l-1-2l-4.8,2.6c0.3,0.7,0.7,1.3,1,2L38-210.1z"/>
</g>
<g>
	<path class="st17" d="M41.6-228.1l1.9-1.1l-2.7-4.7c-0.7,0.3-1.3,0.7-1.9,1.1L41.6-228.1z"/>
	<path class="st17" d="M32.4-225.6l4.7,2.7l1.1-1.9l-4.7-2.7C33.1-226.9,32.7-226.2,32.4-225.6z"/>
	<path class="st17" d="M62.2-216.1h5.4c0-0.4,0.1-0.7,0.1-1.1c0-0.4,0-0.7-0.1-1.1h-5.4V-216.1z"/>
	<path class="st17" d="M66.1-209.7l-4.9-2.5l-1,2l4.8,2.5C65.5-208.4,65.8-209.1,66.1-209.7z"/>
	<path class="st17" d="M59.4-232.7c-0.6-0.4-1.3-0.8-1.9-1.1l-2.8,4.7l1.9,1.1L59.4-232.7z"/>
	<path class="st17" d="M50.1-235.9c-0.4,0-0.7-0.1-1.1-0.1c-0.4,0-0.7,0-1.1,0.1v5.4h2.2V-235.9z"/>
</g>
<path class="st15" d="M49.1-238.1c-11.5,0-20.9,9.3-20.9,20.9c0,11.5,9.3,20.9,20.9,20.9c11.5,0,20.9-9.3,20.9-20.9
	C69.9-228.8,60.6-238.1,49.1-238.1z M49.1-200.8c-9.1,0-16.5-7.4-16.5-16.5c0-9.1,7.4-16.5,16.5-16.5c9.1,0,16.5,7.4,16.5,16.5
	C65.5-208.2,58.1-200.8,49.1-200.8z"/>
<path class="st16" d="M48.5-218.2c-0.5,0.3-0.7,1-0.4,1.5c0.3,0.5,1,0.7,1.5,0.4c0.5-0.3,0.7-1,0.4-1.5
	C49.7-218.3,49-218.5,48.5-218.2"/>
<path class="st19" d="M101.1-211.4v11.2c0,2.5,2,4.5,4.5,4.5h31.3c2.5,0,4.5-2,4.5-4.5v-11.2H101.1z"/>
<path class="st18" d="M141.3-211.4c0,2.5-2,4.5-4.5,4.5h-31.3c-2.5,0-4.5-2-4.5-4.5l3.4-13.4c0.2-2.3,2-4.5,4.5-4.5h24.6
	c2.5,0,4.1,2,4.5,4.5L141.3-211.4z"/>
<circle class="st16" cx="133.5" cy="-201.4" r="2.2"/>
<g>
	<ellipse class="st20" cx="122.9" cy="-232.2" rx="6.2" ry="6"/>
	<ellipse class="st20" cx="124.3" cy="-222" rx="5.1" ry="5"/>
	<ellipse class="st20" cx="117.4" cy="-226.6" rx="5.1" ry="5"/>
	<ellipse class="st20" cx="138.1" cy="-226.9" rx="4.4" ry="4.2"/>
	<ellipse class="st20" cx="132.3" cy="-223.5" rx="4.4" ry="4.2"/>
	<ellipse class="st20" cx="132.7" cy="-230.3" rx="4.7" ry="4.6"/>
	<ellipse class="st20" cx="127.3" cy="-227.5" rx="5.1" ry="5"/>
</g>
<g>
	
		<rect x="207.9" y="-355.1" transform="matrix(-0.707 0.7072 -0.7072 -0.707 113.9261 -739.1812)" class="st12" width="4.3" height="18.3"/>
	<circle class="st12" cx="192.3" cy="-363.8" r="17.2"/>
</g>
<rect x="209.7" y="-350.8" transform="matrix(-0.7072 0.707 -0.707 -0.7072 118.3312 -737.4203)" class="st14" width="4.3" height="13.2"/>
<circle class="st9" cx="192.3" cy="-363.8" r="14"/>
<path class="st6" d="M199.7-370c-1.8-2.1-4.5-3.4-7.4-3.4c-2.9,0-5.6,1.3-7.4,3.4c-0.4,0.4-0.3,1.2,0.1,1.5c0.4,0.4,1.2,0.3,1.5-0.1
	c1.5-1.7,3.5-2.7,5.8-2.7c2.3,0,4.3,1,5.8,2.7c0.2,0.2,0.5,0.4,0.9,0.4c0.2,0,0.5-0.1,0.6-0.2C200-368.8,200-369.6,199.7-370z"/>
<path class="st8" d="M247.4-358.6c0,13.4,18,20.2,18,20.2s18-6.7,18-20.2c0-5.5,0-19.1,0-19.1c-4.4,0-18-3.4-18-3.4
	s-13.5,3.4-18,3.4C247.4-377.7,247.4-364.1,247.4-358.6z"/>
<path class="st10" d="M283.3-358.6c0,13.4-18,20.2-18,20.2V-381c0,0,13.5,3.4,18,3.4C283.3-377.7,283.3-364.1,283.3-358.6z"/>
<path class="st9" d="M278.8-358.6c0,8.1-9.6,13.5-13.5,15.3c-3.9-1.8-13.5-7.2-13.5-15.3v-15c4.7-0.7,10.7-2.1,13.5-2.8
	c2.7,0.7,8.8,2.1,13.5,2.8V-358.6z"/>
<path class="st21" d="M278.8-358.5c0,8.1-9.6,13.5-13.5,15.3l0-33.1c2.7,0.7,8.8,2.1,13.5,2.8V-358.5z"/>
<circle class="st6" cx="249.7" cy="-374.3" r="1.1"/>
<circle class="st6" cx="257.5" cy="-376.5" r="1.1"/>
<circle class="st6" cx="265.4" cy="-378.8" r="1.1"/>
<circle class="st6" cx="249.7" cy="-367.6" r="1.1"/>
<circle class="st6" cx="249.7" cy="-360.8" r="1.1"/>
<circle class="st6" cx="250.8" cy="-354.1" r="1.1"/>
<circle class="st6" cx="254.2" cy="-348.5" r="1.1"/>
<circle class="st6" cx="259.8" cy="-344" r="1.1"/>
<circle class="st6" cx="281.1" cy="-374.3" r="1.1"/>
<circle class="st6" cx="273.2" cy="-376.5" r="1.1"/>
<circle class="st6" cx="281.1" cy="-367.6" r="1.1"/>
<circle class="st6" cx="281.1" cy="-360.8" r="1.1"/>
<circle class="st6" cx="280" cy="-354.1" r="1.1"/>
<circle class="st6" cx="276.6" cy="-348.5" r="1.1"/>
<circle class="st6" cx="271" cy="-344" r="1.1"/>
<polygon class="st6" points="265.4,-357.6 278.8,-366.8 278.8,-371.3 265.4,-362.1 "/>
<path class="st6" d="M265.4-362.1l-12.3,8.4c0.5,1.1,1.2,2.1,2,3.1l10.3-7L265.4-362.1z"/>
<polygon class="st6" points="260.9,-367.6 258.6,-364.7 256.4,-367.6 258.6,-370.4 "/>
<polygon class="st6" points="274.4,-354.1 272.1,-351.3 269.9,-354.1 272.1,-356.9 "/>
<circle class="st14" cx="358.2" cy="-372.5" r="8.4"/>
<circle class="st14" cx="332.9" cy="-372.5" r="8.4"/>
<path class="st12" d="M377.5-359.9l-21.5,4.2h-20.7l-21.5-4.2l6-11.1c1.5-2.7,4.4-4.4,7.5-4.4h36.8c3.1,0,5.9,1.7,7.5,4.4
	L377.5-359.9z"/>
<circle class="st14" cx="365.2" cy="-352.8" r="14.1"/>
<circle class="st14" cx="325.9" cy="-352.8" r="14.1"/>
<circle class="st14" cx="345.5" cy="-355.7" r="7"/>
<circle class="st9" cx="345.5" cy="-355.7" r="2.8"/>
<g>
	<circle class="st9" cx="365.2" cy="-352.8" r="9.8"/>
	<circle class="st9" cx="325.9" cy="-352.8" r="9.8"/>
</g>
<g>
	<path class="st6" d="M370.4-356.1c-1.4-1.5-3.2-2.4-5.2-2.4c-2,0-3.9,0.8-5.2,2.4c-0.6,0.6-0.4,1.4,0.1,2c0.6,0.6,1.4,0.4,2-0.1
		c1.7-1.8,4.6-1.8,6.3,0c0.3,0.3,0.7,0.4,1,0.4c0.3,0,0.7-0.1,1-0.4C371-354.7,371-355.5,370.4-356.1z"/>
	<path class="st6" d="M325.9-358.5c-2,0-3.9,0.8-5.2,2.4c-0.6,0.6-0.4,1.4,0.1,2c0.6,0.6,1.4,0.4,2-0.1c1.7-1.8,4.6-1.8,6.3,0
		c0.3,0.3,0.7,0.4,1,0.4c0.3,0,0.7-0.1,1-0.4c0.6-0.6,0.6-1.4,0.1-2C329.8-357.6,327.8-358.5,325.9-358.5z"/>
</g>
<path class="st10" d="M431.5-362.1h13.8l6.4,6.4v-18c0-2.3-1.9-4.2-4.2-4.2h-15.9c-2.3,0-4.2,1.9-4.2,4.2v7.4
	C427.3-364,429.2-362.1,431.5-362.1z"/>
<path class="st12" d="M429.4-365.3h-13.8l-6.4,6.4v-18c0-2.3,1.9-4.2,4.2-4.2h15.9c2.3,0,4.2,1.9,4.2,4.2v7.4
	C433.6-367.2,431.7-365.3,429.4-365.3z"/>
<g>
	<circle class="st12" cx="417.7" cy="-352.6" r="5.3"/>
	<circle class="st12" cx="443.2" cy="-352.6" r="5.3"/>
</g>
<g>
	<path class="st10" d="M426.2-340.9c0,0-2.3-4.2-8.5-4.2c-6.1,0-8.5,4.2-8.5,4.2v2.1h16.9V-340.9L426.2-340.9z"/>
	<path class="st10" d="M451.6-340.9c0,0-2.3-4.2-8.5-4.2c-6.1,0-8.5,4.2-8.5,4.2v2.1h16.9V-340.9z"/>
</g>
<path class="st14" d="M502.5-350.5c0.1-0.4,0.1-0.8,0.1-1.3c0-0.5,0-0.8-0.1-1.3l2.6-1.9c0.3-0.2,0.4-0.6,0.2-0.8l-2.5-4.3
	c-0.2-0.3-0.5-0.4-0.7-0.3l-2.9,1.4c-0.7-0.6-1.4-0.9-2.2-1.3l-0.3-3.2c0-0.3-0.3-0.6-0.6-0.6h-5c-0.3,0-0.6,0.3-0.6,0.6l-0.4,3.3
	c-0.8,0.3-1.5,0.7-2.2,1.3l-2.9-1.3c-0.3-0.1-0.7,0-0.7,0.3l-2.5,4.3c-0.2,0.3-0.1,0.7,0.2,0.8l2.6,1.9c-0.1,0.4-0.1,0.8-0.1,1.3
	c0,0.5,0,0.8,0.1,1.3l-2.6,1.9c-0.3,0.2-0.4,0.6-0.2,0.8l2.5,4.3c0.2,0.3,0.5,0.4,0.7,0.3l2.9-1.3c0.7,0.6,1.4,0.9,2.2,1.3l0.3,3.2
	c0,0.3,0.3,0.6,0.6,0.6h5c0.3,0,0.6-0.3,0.6-0.6l0.3-3.2c0.8-0.3,1.5-0.8,2.2-1.3l2.9,1.3c0.3,0.1,0.7,0,0.7-0.3l2.5-4.3
	c0.2-0.3,0.1-0.7-0.2-0.8L502.5-350.5z M493.5-347.1c-2.6,0-4.7-2.1-4.7-4.7c0-2.6,2.1-4.7,4.7-4.7c2.6,0,4.7,2.1,4.7,4.7
	C498.2-349.2,496.1-347.1,493.5-347.1z"/>
<path class="st12" d="M517.8-368.4c0.1-0.5,0.1-0.8,0.1-1.2c0-0.4,0-0.7-0.1-1.2l2.3-1.7c0.3-0.2,0.3-0.5,0.2-0.7l-2.3-4
	c-0.2-0.3-0.5-0.4-0.8-0.2l-2.7,1.2c-0.7-0.5-1.3-0.8-2.1-1.2l-0.3-2.9c0.1-0.3-0.1-0.5-0.4-0.5h-4.6c-0.3,0-0.6,0.2-0.6,0.5
	l-0.3,2.9c-0.7,0.3-1.4,0.7-2.1,1.2l-2.7-1.2c-0.3-0.1-0.6,0-0.7,0.2l-2.3,4c-0.2,0.3-0.1,0.6,0.2,0.7l2.3,1.7c0,0.5,0,0.8,0,1.2
	c0,0.4,0,0.7,0.1,1.2l-2.3,1.7c-0.3,0.2-0.3,0.5-0.2,0.8l2.3,4c0.2,0.3,0.5,0.4,0.7,0.2l2.7-1.2c0.7,0.5,1.3,0.8,2.1,1.2l0.3,2.9
	c0,0.3,0.3,0.5,0.6,0.5h4.6c0.3,0,0.6-0.2,0.6-0.5l0.3-2.9c0.7-0.3,1.4-0.7,2.1-1.2l2.7,1.2c0.3,0.1,0.6,0,0.8-0.2l2.3-4
	c0.2-0.3,0.1-0.6-0.2-0.8L517.8-368.4z M509.4-364.9c-2.6,0-4.7-2.1-4.7-4.7c0-2.6,2.1-4.7,4.7-4.7c2.6,0,4.7,2.1,4.7,4.7
	C514.1-367,512.1-364.9,509.4-364.9z"/>
<g>
	<path class="st8" d="M580.2-363.7h-2.5c0-9.2,5.1-9.6,9.2-9.9c4.1-0.3,7-0.6,7-7.6h2.5c0,9.3-5.2,9.7-9.3,10.1
		C583.2-370.8,580.2-370.6,580.2-363.7z"/>
</g>
<rect x="551.5" y="-363.7" class="st10" width="55" height="25"/>
<g>
	<rect x="554" y="-361.2" class="st8" width="5" height="5"/>
	<rect x="561.5" y="-361.2" class="st8" width="5" height="5"/>
	<rect x="569" y="-361.2" class="st8" width="5" height="5"/>
	<rect x="576.5" y="-361.2" class="st8" width="5" height="5"/>
	<rect x="584" y="-361.2" class="st8" width="5" height="5"/>
	<rect x="591.5" y="-361.2" class="st8" width="5" height="5"/>
	<rect x="599" y="-361.2" class="st8" width="5" height="5"/>
	<rect x="554" y="-346.2" class="st8" width="5" height="5"/>
	<rect x="561.5" y="-346.2" class="st8" width="5" height="5"/>
	<rect x="569" y="-346.2" class="st8" width="20" height="5"/>
	<rect x="591.5" y="-346.2" class="st8" width="5" height="5"/>
	<rect x="599" y="-346.2" class="st8" width="5" height="5"/>
	<rect x="554" y="-353.7" class="st8" width="8.8" height="5"/>
	<rect x="565.2" y="-353.7" class="st8" width="5" height="5"/>
	<rect x="572.7" y="-353.7" class="st8" width="5" height="5"/>
	<rect x="580.2" y="-353.7" class="st8" width="5" height="5"/>
	<rect x="587.7" y="-353.7" class="st8" width="5" height="5"/>
	<rect x="595.2" y="-353.7" class="st8" width="8.8" height="5"/>
</g>
<g>
	
		<rect x="204.6" y="-212.8" transform="matrix(-0.707 0.7072 -0.7072 -0.707 208.6976 -494.0975)" class="st15" width="4.2" height="17.9"/>
	<circle class="st15" cx="189.2" cy="-221.3" r="16.8"/>
</g>
<rect x="206.3" y="-208.5" transform="matrix(-0.7072 0.707 -0.707 -0.7072 212.97 -492.3476)" class="st17" width="4.2" height="12.9"/>
<circle class="st20" cx="189.2" cy="-221.3" r="13.7"/>
<path class="st6" d="M196.5-227.4c-1.8-2.1-4.4-3.4-7.3-3.4c-2.8,0-5.5,1.3-7.3,3.4c-0.4,0.4-0.3,1.2,0.1,1.5
	c0.4,0.4,1.2,0.3,1.5-0.1c1.5-1.7,3.5-2.6,5.7-2.6c2.2,0,4.2,0.9,5.7,2.6c0.2,0.2,0.5,0.4,0.8,0.4c0.2,0,0.5-0.1,0.6-0.2
	C196.8-226.2,196.8-227,196.5-227.4z"/>
<path class="st15" d="M245.4-216.8c0,12.9,17.3,19.5,17.3,19.5s17.3-6.5,17.3-19.5c0-5.4,0-18.4,0-18.4c-4.3,0-17.3-3.3-17.3-3.3
	s-13.1,3.3-17.3,3.3C245.4-235.3,245.4-222.2,245.4-216.8z"/>
<path class="st17" d="M280.1-216.8c0,12.9-17.3,19.5-17.3,19.5v-41.2c0,0,13.1,3.3,17.3,3.3C280.1-235.3,280.1-222.2,280.1-216.8z"
	/>
<path class="st20" d="M275.8-216.8c0,7.8-9.3,13-13,14.8c-3.7-1.8-13-6.9-13-14.8v-14.5c4.5-0.7,10.4-2.1,13-2.7
	c2.7,0.6,8.5,2,13,2.7V-216.8z"/>
<path class="st22" d="M275.8-216.8c0,7.8-9.3,13-13,14.8l0-32c2.7,0.6,8.5,2,13,2.7V-216.8z"/>
<circle class="st6" cx="247.6" cy="-232" r="1.1"/>
<circle class="st6" cx="255.2" cy="-234.2" r="1.1"/>
<circle class="st6" cx="262.8" cy="-236.4" r="1.1"/>
<circle class="st6" cx="247.6" cy="-225.5" r="1.1"/>
<circle class="st6" cx="247.6" cy="-219" r="1.1"/>
<circle class="st6" cx="248.7" cy="-212.5" r="1.1"/>
<circle class="st6" cx="251.9" cy="-207.1" r="1.1"/>
<circle class="st6" cx="257.4" cy="-202.7" r="1.1"/>
<circle class="st6" cx="277.9" cy="-232" r="1.1"/>
<circle class="st6" cx="270.4" cy="-234.2" r="1.1"/>
<circle class="st6" cx="277.9" cy="-225.5" r="1.1"/>
<circle class="st6" cx="277.9" cy="-219" r="1.1"/>
<circle class="st6" cx="276.9" cy="-212.5" r="1.1"/>
<circle class="st6" cx="273.6" cy="-207.1" r="1.1"/>
<circle class="st6" cx="268.2" cy="-202.7" r="1.1"/>
<polygon class="st6" points="262.8,-215.9 275.8,-224.8 275.8,-229.1 262.8,-220.3 "/>
<path class="st6" d="M262.8-220.3l-11.9,8.1c0.5,1.1,1.2,2.1,2,3l9.9-6.7L262.8-220.3z"/>
<polygon class="st6" points="258.4,-225.5 256.3,-222.8 254.1,-225.5 256.3,-228.2 "/>
<polygon class="st6" points="271.4,-212.5 269.3,-209.8 267.1,-212.5 269.3,-215.2 "/>
<circle class="st19" cx="356.3" cy="-229.7" r="8.4"/>
<circle class="st19" cx="331.1" cy="-229.7" r="8.4"/>
<path class="st18" d="M375.5-217.1l-21.4,4.2h-20.6l-21.4-4.2l6-11.1c1.5-2.7,4.3-4.3,7.4-4.3h36.7c3.1,0,5.9,1.7,7.4,4.3
	L375.5-217.1z"/>
<circle class="st19" cx="363.3" cy="-210.1" r="14"/>
<circle class="st19" cx="324.1" cy="-210.1" r="14"/>
<circle class="st19" cx="343.7" cy="-212.9" r="7"/>
<circle class="st20" cx="343.7" cy="-212.9" r="2.8"/>
<g>
	<circle class="st20" cx="363.3" cy="-210.1" r="9.8"/>
	<circle class="st20" cx="324.1" cy="-210.1" r="9.8"/>
</g>
<g>
	<path class="st6" d="M368.5-213.3c-1.4-1.5-3.2-2.4-5.2-2.4c-2,0-3.9,0.8-5.2,2.4c-0.6,0.6-0.4,1.4,0.1,2c0.6,0.6,1.4,0.4,2-0.1
		c1.7-1.8,4.6-1.8,6.3,0c0.3,0.3,0.7,0.4,1,0.4c0.3,0,0.7-0.1,1-0.4C369.1-211.9,369.1-212.8,368.5-213.3z"/>
	<path class="st6" d="M324.1-215.7c-2,0-3.9,0.8-5.2,2.4c-0.6,0.6-0.4,1.4,0.1,2c0.6,0.6,1.4,0.4,2-0.1c1.7-1.8,4.6-1.8,6.3,0
		c0.3,0.3,0.7,0.4,1,0.4c0.3,0,0.7-0.1,1-0.4c0.6-0.6,0.6-1.4,0.1-2C328-214.9,326.1-215.7,324.1-215.7z"/>
</g>
<path class="st17" d="M427.8-219.3h13.5l6.2,6.2v-17.7c0-2.3-1.9-4.2-4.2-4.2h-15.6c-2.3,0-4.2,1.9-4.2,4.2v7.3
	C423.7-221.2,425.5-219.3,427.8-219.3z"/>
<path class="st15" d="M425.7-222.4h-13.5l-6.2,6.2v-17.7c0-2.3,1.9-4.2,4.2-4.2h15.6c2.3,0,4.2,1.9,4.2,4.2v7.3
	C429.9-224.3,428-222.4,425.7-222.4z"/>
<g>
	<circle class="st15" cx="414.3" cy="-210" r="5.2"/>
	<circle class="st15" cx="439.2" cy="-210" r="5.2"/>
</g>
<g>
	<path class="st17" d="M422.6-198.6c0,0-2.3-4.2-8.3-4.2c-6,0-8.3,4.2-8.3,4.2v2.1h16.6V-198.6L422.6-198.6z"/>
	<path class="st17" d="M447.5-198.6c0,0-2.3-4.2-8.3-4.2c-6,0-8.3,4.2-8.3,4.2v2.1h16.6V-198.6z"/>
</g>
<path class="st19" d="M498.7-208c0.1-0.4,0.1-0.9,0.1-1.3c0-0.5,0-0.9-0.1-1.3l2.7-1.9c0.3-0.2,0.4-0.6,0.2-0.9l-2.6-4.4
	c-0.2-0.3-0.5-0.4-0.8-0.3l-2.9,1.4c-0.7-0.6-1.4-0.9-2.3-1.3l-0.3-3.2c0-0.3-0.3-0.6-0.6-0.6h-5c-0.3,0-0.6,0.3-0.6,0.6l-0.4,3.3
	c-0.9,0.3-1.5,0.8-2.3,1.3l-2.9-1.3c-0.3-0.1-0.7,0-0.8,0.3l-2.6,4.4c-0.2,0.3-0.1,0.7,0.2,0.9l2.7,1.9c-0.1,0.4-0.1,0.9-0.1,1.3
	c0,0.5,0,0.9,0.1,1.3l-2.7,1.9c-0.3,0.2-0.4,0.6-0.2,0.9l2.6,4.4c0.2,0.3,0.5,0.4,0.8,0.3l2.9-1.3c0.7,0.6,1.4,0.9,2.3,1.3l0.3,3.2
	c0,0.3,0.3,0.6,0.6,0.6h5c0.3,0,0.6-0.3,0.6-0.6l0.3-3.2c0.9-0.3,1.5-0.8,2.3-1.3l2.9,1.3c0.3,0.1,0.7,0,0.8-0.3l2.6-4.4
	c0.2-0.3,0.1-0.7-0.2-0.9L498.7-208z M489.6-204.6c-2.7,0-4.7-2.1-4.7-4.7c0-2.7,2.1-4.7,4.7-4.7c2.7,0,4.7,2.1,4.7,4.7
	C494.3-206.7,492.2-204.6,489.6-204.6z"/>
<path class="st18" d="M514.1-226.1c0.1-0.5,0.1-0.9,0.1-1.2c0-0.4,0-0.8-0.1-1.2l2.4-1.7c0.3-0.2,0.3-0.5,0.2-0.8l-2.4-4.1
	c-0.2-0.3-0.5-0.4-0.8-0.2l-2.7,1.2c-0.7-0.5-1.3-0.9-2.1-1.2l-0.3-2.9c0.1-0.3-0.1-0.5-0.4-0.5h-4.6c-0.3,0-0.6,0.2-0.6,0.5
	l-0.3,2.9c-0.8,0.3-1.4,0.7-2.1,1.2l-2.7-1.2c-0.3-0.1-0.6,0-0.8,0.2l-2.4,4.1c-0.2,0.3-0.1,0.6,0.2,0.8l2.4,1.7c0,0.5,0,0.9,0,1.2
	c0,0.4,0,0.8,0.1,1.2l-2.4,1.7c-0.3,0.2-0.3,0.5-0.2,0.8l2.4,4.1c0.2,0.3,0.5,0.4,0.8,0.2l2.7-1.2c0.7,0.5,1.3,0.9,2.1,1.2l0.3,2.9
	c0,0.3,0.3,0.5,0.6,0.5h4.6c0.3,0,0.6-0.2,0.6-0.5l0.3-2.9c0.8-0.3,1.4-0.7,2.1-1.2l2.7,1.2c0.3,0.1,0.6,0,0.8-0.2l2.4-4.1
	c0.2-0.3,0.1-0.6-0.2-0.8L514.1-226.1z M505.7-222.6c-2.7,0-4.7-2.1-4.7-4.7c0-2.7,2.1-4.7,4.7-4.7c2.7,0,4.7,2.1,4.7,4.7
	C510.4-224.7,508.3-222.6,505.7-222.6z"/>
<g>
	<path class="st15" d="M575.4-220.9h-2.4c0-9,5-9.3,9-9.7c4-0.3,6.8-0.5,6.8-7.4h2.4c0,9.1-5,9.5-9.1,9.8
		C578.2-227.8,575.4-227.6,575.4-220.9z"/>
</g>
<rect x="547.4" y="-220.9" class="st17" width="53.5" height="24.3"/>
<g>
	<rect x="549.8" y="-218.5" class="st15" width="4.9" height="4.9"/>
	<rect x="557.1" y="-218.5" class="st15" width="4.9" height="4.9"/>
	<rect x="564.4" y="-218.5" class="st15" width="4.9" height="4.9"/>
	<rect x="571.7" y="-218.5" class="st15" width="4.9" height="4.9"/>
	<rect x="579" y="-218.5" class="st15" width="4.9" height="4.9"/>
	<rect x="586.3" y="-218.5" class="st15" width="4.9" height="4.9"/>
	<rect x="593.6" y="-218.5" class="st15" width="4.9" height="4.9"/>
	<rect x="549.8" y="-203.9" class="st15" width="4.9" height="4.9"/>
	<rect x="557.1" y="-203.9" class="st15" width="4.9" height="4.9"/>
	<rect x="564.4" y="-203.9" class="st15" width="19.5" height="4.9"/>
	<rect x="586.3" y="-203.9" class="st15" width="4.9" height="4.9"/>
	<rect x="593.6" y="-203.9" class="st15" width="4.9" height="4.9"/>
	<rect x="549.8" y="-211.2" class="st15" width="8.5" height="4.9"/>
	<rect x="560.8" y="-211.2" class="st15" width="4.9" height="4.9"/>
	<rect x="568.1" y="-211.2" class="st15" width="4.9" height="4.9"/>
	<rect x="575.4" y="-211.2" class="st15" width="4.9" height="4.9"/>
	<rect x="582.7" y="-211.2" class="st15" width="4.9" height="4.9"/>
	<rect x="590" y="-211.2" class="st15" width="8.5" height="4.9"/>
</g>
<circle class="st12" cx="658.6" cy="-360.3" r="22.7"/>
<circle class="st9" cx="658.6" cy="-360.3" r="18.1"/>
<rect x="657.5" y="-375" class="st14" width="2.3" height="14.7"/>
<rect x="660.9" y="-361.8" transform="matrix(0.7069 -0.7073 0.7073 0.7069 446.3075 363.876)" class="st14" width="2.6" height="10.4"/>
<circle class="st14" cx="658.6" cy="-360.3" r="2.3"/>
<circle class="st9" cx="658.6" cy="-360.3" r="1.1"/>
<g>
	<polygon class="st8" points="744.6,-337.9 711.5,-337.9 711.5,-381.3 734.2,-381.3 744.6,-371 	"/>
</g>
<polygon class="st10" points="743,-368.3 733.2,-368.3 733.2,-378.1 "/>
<g>
	<rect x="719.7" y="-362.7" class="st10" width="17.6" height="2.1"/>
	<rect x="719.7" y="-358.6" class="st10" width="13.4" height="2.1"/>
	<rect x="719.7" y="-354.5" class="st10" width="17.6" height="2.1"/>
	<rect x="719.7" y="-350.3" class="st10" width="13.4" height="2.1"/>
</g>
<path class="st14" d="M826.6-349.7c0,0.8-0.6,2.8-1.4,2.8H783c-0.8,0-1.4-2-1.4-2.8v-29.5c0-0.8,0.6-1.4,1.4-1.4h42.2
	c0.8,0,1.4,0.6,1.4,1.4V-349.7z"/>
<rect x="784.4" y="-377.8" class="st9" width="39.4" height="25.3"/>
<g>
	<rect x="774.6" y="-341.2" class="st14" width="59" height="2.8"/>
	<polygon class="st14" points="826.6,-349.7 781.6,-349.7 774.6,-341.2 833.6,-341.2 	"/>
</g>
<polygon class="st12" points="784.4,-348.3 823.8,-348.3 826.6,-344 781.6,-344 "/>
<g>
	<polygon class="st8" points="893.9,-342.4 865.3,-342.4 865.3,-381.4 884.7,-381.4 893.9,-372.1 	"/>
</g>
<polygon class="st9" points="892.4,-371.1 883.7,-371.1 883.7,-379.8 "/>
<rect x="899.4" y="-349.8" transform="matrix(-0.7073 0.7069 -0.7069 -0.7073 1295.0002 -1223.5249)" class="st10" width="2.9" height="12.3"/>
<circle class="st10" cx="888.8" cy="-355.8" r="11.3"/>
<circle class="st8" cx="888.8" cy="-355.8" r="9.2"/>
<rect x="900.6" y="-346.9" transform="matrix(-0.707 0.7072 -0.7072 -0.707 1297.5532 -1222.5444)" class="st10" width="2.9" height="8.9"/>
<g>
	<path class="st9" d="M890.8-353.7h-9.9c0.4,1.6,1.3,3.1,2.6,4.1h7.4V-353.7z"/>
	<path class="st9" d="M880.9-357.8h9.9v-4.1h-7.5C882.1-360.9,881.3-359.4,880.9-357.8z"/>
	<path class="st9" d="M880.7-365h-9.3v2h7.5C879.4-363.6,880-364.4,880.7-365z"/>
	<path class="st9" d="M877.6-360.9h-6.2v2h5.5C877.1-359.5,877.3-360.3,877.6-360.9z"/>
	<path class="st9" d="M876.5-355.8c0-0.3,0-0.7,0.1-1h-5.2v2h5.2C876.5-355,876.5-355.4,876.5-355.8z"/>
	<path class="st9" d="M876.9-352.7h-5.5v2h6.2C877.3-351.3,877.1-352,876.9-352.7z"/>
</g>
<path class="st12" d="M1036.8-353.3c-3.7,0-6.7-3-6.7-6.7c0-3.7,3-6.7,6.7-6.7v-14.6c-11.8,0-21.4,9.6-21.4,21.4
	c0,11.8,9.6,21.4,21.4,21.4c4.9,0,9.6-1.7,13.3-4.6l-9-11.5C1039.8-353.8,1038.4-353.3,1036.8-353.3z"/>
<path class="st13" d="M1043.5-360h14.6c0-11.8-9.6-21.4-21.4-21.4v14.6C1040.5-366.8,1043.5-363.7,1043.5-360z"/>
<path class="st9" d="M1058.2-360h-14.6c0,2.1-1,4-2.6,5.3l9,11.5C1055-347.2,1058.2-353.3,1058.2-360z"/>
<rect x="935.8" y="-380.8" class="st8" width="49.6" height="42.2"/>
<rect x="942" y="-374.6" class="st9" width="37.2" height="6.2"/>
<g>
	<rect x="942" y="-363.4" class="st10" width="16.1" height="19.9"/>
	<rect x="963.1" y="-363.4" class="st10" width="16.1" height="19.9"/>
</g>
<g>
	<g id="XMLID_2_">
		<g>
			<path class="st17" d="M689.6-199.1v2.8h-58.1v-2.8l6.9-8.3v-29.1c0-0.8,0.6-1.4,1.4-1.4h41.5c0.8,0,1.4,0.6,1.4,1.4v29.1
				L689.6-199.1z"/>
		</g>
		<g>
		</g>
	</g>
</g>
<rect x="641.2" y="-235" class="st6" width="38.7" height="24.9"/>
<polygon class="st15" points="641.2,-206 679.9,-206 682.7,-201.8 638.4,-201.8 "/>
<path class="st17" d="M757.3-238.3H723c-1.9,0-3.4,1.5-3.4,3.4v37.7l9.8-9.1h27.9c1.9,0,3.4-1.5,3.4-3.4v-25.1
	C760.7-236.8,759.2-238.3,757.3-238.3z"/>
<g>
	<rect x="724.2" y="-229.2" class="st15" width="32" height="2.3"/>
	<rect x="724.2" y="-223.4" class="st15" width="32" height="2.3"/>
	<rect x="724.2" y="-217.7" class="st15" width="18.3" height="2.3"/>
</g>
<g>
	<g id="XMLID_1_">
		<g>
			<path class="st23" d="M834.1-56.3v2.8h-59v-2.8l7-8.4v-29.5c0-0.8,0.6-1.4,1.4-1.4h42.1c0.8,0,1.4,0.6,1.4,1.4v29.5L834.1-56.3z"
				/>
		</g>
		<g>
		</g>
	</g>
</g>
<path class="st23" d="M-77-56.1c0,1.5-1.3,2.8-2.8,2.8h-44.8c-1.5,0-2.8-1.3-2.8-2.8v-30.8c0-1.5,1.3-2.8,2.8-2.8h44.8
	c1.5,0,2.8,1.3,2.8,2.8V-56.1z"/>
<path class="st23" d="M-89.6-85.5c0,1.5-1.3,2.8-2.8,2.8H-112c-1.5,0-2.8-1.3-2.8-2.8v-7c0-1.5,1.3-2.8,2.8-2.8h19.6
	c1.5,0,2.8,1.3,2.8,2.8V-85.5z"/>
<circle class="st16" cx="-84" cy="-82.7" r="2.8"/>
<circle class="st16" cx="-102.2" cy="-71.5" r="14"/>
<circle class="st24" cx="-102.2" cy="-71.5" r="11.2"/>
<path class="st23" d="M-107.8-65.9c0,1.6,0.4,3.2,1,4.6c1.4,0.6,3,1,4.6,1c6.2,0,11.2-5,11.2-11.2c0-1.6-0.4-3.2-1-4.6
	c-1.4-0.6-3-1-4.6-1C-102.8-77.1-107.8-72.1-107.8-65.9z"/>
<rect x="-4.1" y="-80.8" class="st25" width="4.8" height="27.4"/>
<rect x="-11.2" y="-72.5" class="st26" width="4.8" height="19.1"/>
<rect x="-18.4" y="-78.4" class="st25" width="4.8" height="25"/>
<rect x="-25.5" y="-71.3" class="st26" width="4.8" height="17.9"/>
<rect x="-32.7" y="-67.7" class="st25" width="4.8" height="14.3"/>
<rect x="-39.8" y="-70.1" class="st26" width="4.8" height="16.7"/>
<rect x="-47" y="-65.3" class="st25" width="4.8" height="11.9"/>
<g>
	<polygon class="st25" points="-3.9,-95 -11.2,-87.7 -16,-92.5 -27.9,-80.6 -33.9,-86.6 -46.3,-74.1 -42.9,-70.8 -33.9,-79.9 
		-27.9,-73.9 -16,-85.8 -11.2,-81.1 -0.6,-91.7 	"/>
	<polygon class="st25" points="0.7,-96.3 -10,-96.3 0.7,-85.6 	"/>
</g>
<circle class="st16" cx="52.6" cy="-74.7" r="17.2"/>
<g>
	<path class="st24" d="M50.8-77.7c-1.7,1-2.2,3.1-1.2,4.7c1,1.7,3.1,2.2,4.8,1.2c1.7-1,2.2-3.1,1.2-4.7
		C54.6-78.1,52.5-78.7,50.8-77.7"/>
	<polygon class="st24" points="65.6,-82.3 54.8,-73.3 52.4,-77.3 	"/>
</g>
<g>
	<path class="st24" d="M38.8-75.9h-5.7c0,0.4-0.1,0.8-0.1,1.1c0,0.4,0,0.8,0.1,1.2h5.7V-75.9z"/>
	<path class="st24" d="M40.9-67.2l-1.1-2l-5,2.7c0.3,0.7,0.7,1.4,1.1,2L40.9-67.2z"/>
</g>
<g>
	<path class="st24" d="M44.7-86.1l2-1.2l-2.8-5c-0.7,0.3-1.4,0.7-2,1.1L44.7-86.1z"/>
	<path class="st24" d="M35.1-83.5l4.9,2.9l1.2-2l-4.9-2.9C35.8-84.8,35.4-84.2,35.1-83.5z"/>
	<path class="st24" d="M66.4-73.6h5.7c0-0.4,0.1-0.8,0.1-1.1c0-0.4,0-0.8-0.1-1.2h-5.7V-73.6z"/>
	<path class="st24" d="M70.5-66.9l-5.1-2.6l-1.1,2.1l5.1,2.6C69.8-65.5,70.1-66.2,70.5-66.9z"/>
	<path class="st24" d="M63.4-91c-0.6-0.4-1.3-0.8-2-1.2l-2.9,4.9l2,1.2L63.4-91z"/>
	<path class="st24" d="M53.7-94.2c-0.4,0-0.8-0.1-1.1-0.1c-0.4,0-0.8,0-1.2,0.1v5.7h2.3V-94.2z"/>
</g>
<path class="st23" d="M52.6-96.6c-12.1,0-21.8,9.8-21.8,21.8c0,12.1,9.8,21.8,21.8,21.8c12.1,0,21.8-9.8,21.8-21.8
	C74.4-86.8,64.6-96.6,52.6-96.6z M52.6-57.5c-9.5,0-17.2-7.7-17.2-17.2C35.3-84.3,43-92,52.6-92c9.5,0,17.2,7.7,17.2,17.2
	C69.8-65.2,62.1-57.5,52.6-57.5z"/>
<path class="st16" d="M52-75.7c-0.5,0.3-0.7,1-0.4,1.6c0.3,0.5,1,0.7,1.6,0.4c0.6-0.3,0.7-1,0.4-1.6C53.3-75.9,52.6-76,52-75.7"/>
<path class="st26" d="M104.4-68.9v11.2c0,2.5,2,4.5,4.5,4.5h31.3c2.5,0,4.5-2,4.5-4.5v-11.2H104.4z"/>
<path class="st25" d="M144.6-68.9c0,2.5-2,4.5-4.5,4.5h-31.3c-2.5,0-4.5-2-4.5-4.5l3.4-13.4c0.2-2.3,2-4.5,4.5-4.5h24.6
	c2.5,0,4.1,2,4.5,4.5L144.6-68.9z"/>
<circle class="st16" cx="136.8" cy="-58.9" r="2.2"/>
<g>
	<ellipse class="st20" cx="126.2" cy="-89.7" rx="6.2" ry="6"/>
	<ellipse class="st20" cx="127.6" cy="-79.5" rx="5.1" ry="5"/>
	<ellipse class="st20" cx="120.7" cy="-84.1" rx="5.1" ry="5"/>
	<ellipse class="st20" cx="141.4" cy="-84.4" rx="4.4" ry="4.2"/>
	<ellipse class="st20" cx="135.6" cy="-81" rx="4.4" ry="4.2"/>
	<ellipse class="st20" cx="135.9" cy="-87.8" rx="4.7" ry="4.6"/>
	<ellipse class="st20" cx="130.6" cy="-85" rx="5.1" ry="5"/>
</g>
<g>
	
		<rect x="207.4" y="-70.7" transform="matrix(-0.707 0.7072 -0.7072 -0.707 314.1422 -253.2504)" class="st25" width="4.3" height="18.3"/>
	<circle class="st25" cx="191.7" cy="-79.4" r="17.2"/>
</g>
<rect x="209.2" y="-66.4" transform="matrix(-0.7071 0.7071 -0.7071 -0.7071 318.4679 -251.4562)" class="st26" width="4.3" height="13.2"/>
<circle class="st20" cx="191.7" cy="-79.4" r="14"/>
<path class="st6" d="M199.1-85.6c-1.8-2.1-4.5-3.4-7.4-3.4c-2.9,0-5.6,1.3-7.4,3.4c-0.4,0.4-0.3,1.2,0.1,1.5
	c0.4,0.4,1.2,0.3,1.5-0.1c1.5-1.7,3.5-2.7,5.8-2.7c2.3,0,4.3,1,5.8,2.7c0.2,0.2,0.5,0.4,0.9,0.4c0.2,0,0.5-0.1,0.6-0.2
	C199.4-84.4,199.4-85.2,199.1-85.6z"/>
<path class="st23" d="M247.2-73.9c0,13.4,17.9,20.2,17.9,20.2s17.9-6.7,17.9-20.2c0-5.5,0-19.1,0-19.1c-4.4,0-17.9-3.4-17.9-3.4
	S251.7-93,247.2-93C247.2-93,247.2-79.4,247.2-73.9z"/>
<path class="st24" d="M283.1-73.9c0,13.4-17.9,20.2-17.9,20.2v-42.6c0,0,13.5,3.4,17.9,3.4C283.1-93,283.1-79.4,283.1-73.9z"/>
<path class="st20" d="M278.6-73.9c0,8.1-9.6,13.5-13.5,15.3c-3.9-1.8-13.5-7.2-13.5-15.3v-15c4.7-0.7,10.7-2.1,13.5-2.8
	c2.7,0.7,8.8,2.1,13.5,2.8V-73.9z"/>
<path class="st22" d="M278.6-73.9c0,8.1-9.6,13.5-13.5,15.3l0-33.1c2.7,0.7,8.8,2.1,13.5,2.8V-73.9z"/>
<circle class="st6" cx="249.5" cy="-89.6" r="1.1"/>
<circle class="st6" cx="257.3" cy="-91.8" r="1.1"/>
<circle class="st6" cx="265.2" cy="-94.1" r="1.1"/>
<circle class="st6" cx="249.5" cy="-82.9" r="1.1"/>
<circle class="st6" cx="249.5" cy="-76.1" r="1.1"/>
<circle class="st6" cx="250.6" cy="-69.4" r="1.1"/>
<circle class="st6" cx="254" cy="-63.8" r="1.1"/>
<circle class="st6" cx="259.6" cy="-59.3" r="1.1"/>
<circle class="st6" cx="280.9" cy="-89.6" r="1.1"/>
<circle class="st6" cx="273" cy="-91.8" r="1.1"/>
<circle class="st6" cx="280.9" cy="-82.9" r="1.1"/>
<circle class="st6" cx="280.9" cy="-76.1" r="1.1"/>
<circle class="st6" cx="279.8" cy="-69.4" r="1.1"/>
<circle class="st6" cx="276.4" cy="-63.8" r="1.1"/>
<circle class="st6" cx="270.8" cy="-59.3" r="1.1"/>
<polygon class="st6" points="265.2,-73 278.6,-82.1 278.6,-86.6 265.2,-77.4 "/>
<path class="st6" d="M265.2-77.4l-12.3,8.4c0.5,1.1,1.2,2.1,2,3.1l10.3-7L265.2-77.4z"/>
<polygon class="st6" points="260.7,-82.9 258.5,-80.1 256.2,-82.9 258.5,-85.7 "/>
<polygon class="st6" points="274.2,-69.4 271.9,-66.6 269.7,-69.4 271.9,-72.2 "/>
<circle class="st26" cx="359.5" cy="-87.2" r="8.5"/>
<circle class="st26" cx="334" cy="-87.2" r="8.5"/>
<path class="st25" d="M378.8-74.5l-21.6,4.2h-20.8l-21.6-4.2l6.1-11.2c1.6-2.7,4.4-4.4,7.5-4.4h37c3.1,0,5.9,1.7,7.5,4.4L378.8-74.5
	z"/>
<circle class="st26" cx="366.5" cy="-67.4" r="14.1"/>
<circle class="st26" cx="327" cy="-67.4" r="14.1"/>
<circle class="st26" cx="346.7" cy="-70.2" r="7.1"/>
<circle class="st20" cx="346.7" cy="-70.2" r="2.8"/>
<g>
	<circle class="st20" cx="366.5" cy="-67.4" r="9.9"/>
	<circle class="st20" cx="327" cy="-67.4" r="9.9"/>
</g>
<g>
	<path class="st6" d="M371.8-70.7c-1.4-1.6-3.2-2.4-5.2-2.4c-2,0-4,0.8-5.2,2.4c-0.6,0.6-0.4,1.4,0.1,2c0.6,0.6,1.4,0.4,2-0.1
		c1.7-1.8,4.7-1.8,6.4,0c0.3,0.3,0.7,0.4,1,0.4c0.3,0,0.7-0.1,1-0.4C372.3-69.2,372.3-70.1,371.8-70.7z"/>
	<path class="st6" d="M327-73.1c-2,0-4,0.8-5.2,2.4c-0.6,0.6-0.4,1.4,0.1,2c0.6,0.6,1.4,0.4,2-0.1c1.7-1.8,4.7-1.8,6.4,0
		c0.3,0.3,0.7,0.4,1,0.4c0.3,0,0.7-0.1,1-0.4c0.6-0.6,0.6-1.4,0.1-2C330.9-72.2,328.9-73.1,327-73.1z"/>
</g>
<path class="st24" d="M432.9-76.7h13.8l6.4,6.4v-18c0-2.3-1.9-4.2-4.2-4.2h-15.9c-2.3,0-4.2,1.9-4.2,4.2v7.4
	C428.7-78.6,430.6-76.7,432.9-76.7z"/>
<path class="st20" d="M430.8-79.9h-13.8l-6.4,6.4v-18c0-2.3,1.9-4.2,4.2-4.2h15.9c2.3,0,4.2,1.9,4.2,4.2v7.4
	C435-81.8,433.1-79.9,430.8-79.9z"/>
<g>
	<circle class="st20" cx="419.2" cy="-67.2" r="5.3"/>
	<circle class="st20" cx="444.6" cy="-67.2" r="5.3"/>
</g>
<g>
	<path class="st24" d="M427.6-55.5c0,0-2.3-4.2-8.5-4.2c-6.1,0-8.5,4.2-8.5,4.2v2.1h16.9V-55.5L427.6-55.5z"/>
	<path class="st24" d="M453-55.5c0,0-2.3-4.2-8.5-4.2c-6.1,0-8.5,4.2-8.5,4.2v2.1H453V-55.5z"/>
</g>
<path class="st26" d="M504.5-65.4c0.1-0.4,0.1-0.9,0.1-1.3c0-0.5,0-0.9-0.1-1.3l2.7-1.9c0.3-0.2,0.4-0.6,0.2-0.9l-2.6-4.4
	c-0.2-0.3-0.5-0.4-0.8-0.3l-3,1.4c-0.7-0.6-1.4-1-2.3-1.3l-0.3-3.3c0-0.3-0.3-0.6-0.6-0.6h-5.1c-0.3,0-0.6,0.3-0.6,0.6l-0.4,3.4
	c-0.9,0.3-1.5,0.8-2.3,1.3l-3-1.3c-0.3-0.1-0.7,0-0.8,0.3l-2.6,4.4c-0.2,0.3-0.1,0.7,0.2,0.9l2.7,1.9c-0.1,0.4-0.1,0.9-0.1,1.3
	c0,0.5,0,0.9,0.1,1.3l-2.7,1.9c-0.3,0.2-0.4,0.6-0.2,0.9l2.6,4.4c0.2,0.3,0.5,0.4,0.8,0.3l3-1.3c0.7,0.6,1.4,1,2.3,1.3l0.3,3.3
	c0,0.3,0.3,0.6,0.6,0.6h5.1c0.3,0,0.6-0.3,0.6-0.6l0.3-3.3c0.9-0.3,1.5-0.8,2.3-1.3l3,1.3c0.3,0.1,0.7,0,0.8-0.3l2.6-4.4
	c0.2-0.3,0.1-0.7-0.2-0.9L504.5-65.4z M495.3-61.9c-2.7,0-4.8-2.1-4.8-4.8c0-2.7,2.1-4.8,4.8-4.8c2.7,0,4.8,2.1,4.8,4.8
	C500.1-64,498-61.9,495.3-61.9z"/>
<path class="st25" d="M520.2-83.8c0.1-0.5,0.1-0.9,0.1-1.3c0-0.4,0-0.8-0.1-1.3l2.4-1.7c0.3-0.2,0.3-0.5,0.2-0.8l-2.4-4.1
	c-0.2-0.3-0.5-0.4-0.8-0.2l-2.8,1.3c-0.7-0.5-1.3-0.9-2.1-1.3l-0.3-3c0.1-0.3-0.1-0.5-0.4-0.5h-4.7c-0.3,0-0.6,0.2-0.6,0.5l-0.3,3
	c-0.8,0.3-1.4,0.7-2.1,1.3l-2.8-1.3c-0.3-0.1-0.6,0-0.8,0.2l-2.4,4.1c-0.2,0.3-0.1,0.6,0.2,0.8l2.4,1.7c0,0.5,0,0.9,0,1.3
	c0,0.4,0,0.8,0.1,1.3l-2.4,1.7c-0.3,0.2-0.3,0.5-0.2,0.8l2.4,4.1c0.2,0.3,0.5,0.4,0.8,0.2l2.8-1.3c0.7,0.5,1.3,0.9,2.1,1.3l0.3,3
	c0,0.3,0.3,0.5,0.6,0.5h4.7c0.3,0,0.6-0.2,0.6-0.5l0.3-3c0.8-0.3,1.4-0.7,2.1-1.3l2.8,1.3c0.3,0.1,0.6,0,0.8-0.2l2.4-4.1
	c0.2-0.3,0.1-0.6-0.2-0.8L520.2-83.8z M511.6-80.2c-2.7,0-4.8-2.1-4.8-4.8c0-2.7,2.1-4.8,4.8-4.8c2.7,0,4.8,2.1,4.8,4.8
	C516.4-82.3,514.3-80.2,511.6-80.2z"/>
<g>
	<path class="st23" d="M582.5-78.2H580c0-9.2,5.1-9.6,9.2-9.9c4.1-0.3,7-0.6,7-7.5h2.5c0,9.3-5.1,9.7-9.3,10
		C585.4-85.3,582.5-85.1,582.5-78.2z"/>
</g>
<rect x="553.8" y="-78.2" class="st24" width="54.9" height="24.9"/>
<g>
	<rect x="556.3" y="-75.7" class="st23" width="5" height="5"/>
	<rect x="563.7" y="-75.7" class="st23" width="5" height="5"/>
	<rect x="571.2" y="-75.7" class="st23" width="5" height="5"/>
	<rect x="578.7" y="-75.7" class="st23" width="5" height="5"/>
	<rect x="586.2" y="-75.7" class="st23" width="5" height="5"/>
	<rect x="593.7" y="-75.7" class="st23" width="5" height="5"/>
	<rect x="601.2" y="-75.7" class="st23" width="5" height="5"/>
	<rect x="556.3" y="-60.7" class="st23" width="5" height="5"/>
	<rect x="563.7" y="-60.7" class="st23" width="5" height="5"/>
	<rect x="571.2" y="-60.7" class="st23" width="20" height="5"/>
	<rect x="593.7" y="-60.7" class="st23" width="5" height="5"/>
	<rect x="601.2" y="-60.7" class="st23" width="5" height="5"/>
	<rect x="556.3" y="-68.2" class="st23" width="8.7" height="5"/>
	<rect x="567.5" y="-68.2" class="st23" width="5" height="5"/>
	<rect x="575" y="-68.2" class="st23" width="5" height="5"/>
	<rect x="582.5" y="-68.2" class="st23" width="5" height="5"/>
	<rect x="589.9" y="-68.2" class="st23" width="5" height="5"/>
	<rect x="597.4" y="-68.2" class="st23" width="8.7" height="5"/>
</g>
<circle class="st25" cx="660.2" cy="-74.6" r="21.5"/>
<circle class="st6" cx="660.2" cy="-74.6" r="17.2"/>
<rect x="659.1" y="-88.6" class="st26" width="2.2" height="14"/>
<rect x="662.4" y="-76.1" transform="matrix(0.707 -0.7072 0.7072 0.707 244.7263 448.508)" class="st26" width="2.5" height="9.9"/>
<circle class="st26" cx="660.2" cy="-74.6" r="2.2"/>
<circle class="st9" cx="660.2" cy="-74.6" r="1.1"/>
<g>
	<polygon class="st23" points="745.1,-53.4 712.4,-53.4 712.4,-96.3 734.9,-96.3 745.1,-86.1 	"/>
</g>
<polygon class="st24" points="743.6,-83.4 733.9,-83.4 733.9,-93.1 "/>
<g>
	<rect x="720.6" y="-77.9" class="st24" width="17.4" height="2"/>
	<rect x="720.6" y="-73.8" class="st24" width="13.3" height="2"/>
	<rect x="720.6" y="-69.7" class="st24" width="17.4" height="2"/>
	<rect x="720.6" y="-65.6" class="st24" width="13.3" height="2"/>
</g>
<rect x="785" y="-92.9" class="st6" width="39.3" height="25.3"/>
<polygon class="st24" points="785,-63.4 824.3,-63.4 827.1,-59.2 782.2,-59.2 "/>
<rect x="937.1" y="-95.6" class="st23" width="50.1" height="42.6"/>
<rect x="943.4" y="-89.4" class="st9" width="37.6" height="6.3"/>
<g>
	<rect x="943.4" y="-78.1" class="st24" width="16.3" height="20.1"/>
	<rect x="964.7" y="-78.1" class="st24" width="16.3" height="20.1"/>
</g>
<g>
	<rect x="1182.5" y="-95.7" class="st24" width="2.1" height="38.1"/>
	
		<rect x="1179.8" y="-67.8" transform="matrix(-0.7071 -0.7071 0.7071 -0.7071 2058.4622 732.1547)" class="st24" width="2.1" height="15"/>
	
		<rect x="1185.1" y="-67.8" transform="matrix(0.7071 -0.7071 0.7071 0.7071 389.9907 821.0893)" class="st24" width="2.1" height="15"/>
</g>
<rect x="1162.3" y="-92.6" class="st24" width="42.4" height="29.7"/>
<g>
	<rect x="1161.3" y="-93.6" class="st23" width="44.5" height="4.2"/>
	<rect x="1161.3" y="-64" class="st23" width="44.5" height="2.1"/>
	<circle class="st23" cx="1191.5" cy="-55" r="1.6"/>
	<circle class="st23" cx="1175.6" cy="-55" r="1.6"/>
</g>
<g>
	<polygon class="st6" points="1191.9,-81 1185.6,-74.7 1179.3,-81 1170.7,-72.5 1173,-70.2 1179.3,-76.6 1185.6,-70.2 1194.2,-78.7 
			"/>
	<polygon class="st6" points="1196.2,-75.6 1188.8,-83 1196.2,-83 	"/>
</g>
<path class="st24" d="M1130.9-74.7c0,11.7-9.5,21-21,21s-21-9.3-21-21c0-11.7,9.3-21,21-21S1130.9-86.4,1130.9-74.7"/>
<g>
	<path class="st23" d="M1109.7-65.1c0-0.4-0.2-0.6-0.6-0.8c-1.3-0.4-2.5-0.4-3.6-1.5c-0.2-0.4-0.2-0.8-0.4-1.3
		c-0.4-0.4-1.5-0.6-2.1-0.8h-2.7h-1.5c-0.6-0.2-1-1.1-1.5-1.7c0-0.2,0-0.6-0.4-0.6c-0.4-0.2-0.8,0.2-1.3,0c-0.2-0.2-0.2-0.4-0.2-0.6
		c0-0.6,0.4-1.3,0.8-1.7c0.6-0.4,1.3,0.2,1.9,0.2c0.2,0,0.2,0,0.4,0.2c0.6,0.2,0.8,1,0.8,1.7v0.4c0,0.2,0.2,0.2,0.4,0.2
		c0.2-1.1,0.2-2.1,0.4-3.2c0-1.3,1.3-2.5,2.3-2.9c0.4-0.2,0.6,0.2,1,0c1.3-0.4,4.4-1.7,3.8-3.4c-0.4-1.5-1.7-2.9-3.4-2.7
		c-0.4,0.2-0.6,0.4-1,0.6c-0.6,0.4-1.9,1.7-2.5,1.7c-1-0.2-1-1.7-0.8-2.3c0.2-0.8,2.1-3.6,3.4-3.1c0.2,0.2,0.6,0.6,0.8,0.8
		c0.4,0.2,1,0.2,1.7,0.2c0.2,0,0.4,0,0.6-0.2c0.2-0.2,0.2-0.2,0.2-0.4c0-0.6-0.6-1.3-1-1.7s-1-0.8-1.7-1c-2.1-0.6-5.5,0.2-7.1,1.7
		c-1.7,1.5-2.9,4-3.8,6.1c-0.4,1.3-0.8,2.9-1,4.4c-0.2,1-0.4,1.9,0.2,2.9c0.6,1.3,1.9,2.5,3.2,3.4c0.8,0.6,2.5,0.6,3.4,1.7
		c0.6,0.8,0.4,1.9,0.4,2.9c0,1.3,0.8,2.3,1.3,3.4c0.2,0.6,0.4,1.5,0.6,2.1c0,0.2,0.2,1.5,0.2,1.7c1.3,0.6,2.3,1.3,3.8,1.7
		c0.2,0,1-1.3,1-1.5c0.6-0.6,1-1.5,1.7-1.9c0.4-0.2,0.8-0.4,1.3-0.8c0.4-0.4,0.6-1.3,0.8-1.9C1109.7-63.6,1109.9-64.4,1109.7-65.1"
		/>
	<path class="st23" d="M1110.1-84.4c0.2,0,0.4-0.2,0.8-0.4c0.6-0.4,1.3-1,1.9-1.5c0.6-0.4,1.3-1.1,1.7-1.5c0.6-0.4,1-1.3,1.3-1.9
		c0.2-0.4,0.8-1.3,0.6-1.9c-0.2-0.4-1.3-0.6-1.7-0.8c-1.7-0.4-3.2-0.6-4.8-0.6c-0.6,0-1.5,0.2-1.7,0.8c-0.2,1.1,0.6,0.8,1.5,1.1
		c0,0,0.2,1.7,0.2,1.9c0.2,1.1-0.4,1.7-0.4,2.7c0,0.6,0,1.7,0.4,2.1H1110.1z"/>
	<path class="st23" d="M1127.8-69.7c0.2-0.4,0.2-1.1,0.4-1.5c0.2-1.1,0.2-2.1,0.2-3.2c0-2.1-0.2-4.2-0.8-6.1
		c-0.4-0.6-0.6-1.3-0.8-1.9c-0.4-1-1-2.1-1.9-2.9c-0.8-1-1.9-4-3.8-3.1c-0.6,0.2-1,1.1-1.5,1.5c-0.4,0.6-0.8,1.3-1.3,1.9
		c-0.2,0.2-0.4,0.6-0.2,0.8c0,0.2,0.2,0.2,0.4,0.2c0.4,0.2,0.6,0.2,1.1,0.4c0.2,0,0.4,0.2,0.2,0.4c0,0,0,0.2-0.2,0.2
		c-1.1,1-2.1,1.9-3.2,2.9c-0.2,0.2-0.4,0.6-0.4,0.8c0,0.2,0.2,0.2,0.2,0.4c0,0.2-0.2,0.2-0.4,0.4c-0.4,0.2-0.8,0.4-1,0.6
		c-0.2,0.4,0,1-0.2,1.5c-0.2,1-0.8,1.9-1.3,2.9c-0.4,0.6-0.6,1.3-1,1.9c0,0.8-0.2,1.5,0.2,2.1c1.1,1.5,2.9,0.6,4.4,1.3
		c0.4,0.2,0.8,0.2,1.1,0.6c0.6,0.6,0.6,1.7,0.8,2.3c0.2,0.8,0.4,1.7,0.8,2.5c0.2,1.1,0.6,2.1,0.8,2.9c1.9-1.5,3.6-3.1,4.8-5.2
		C1126.5-66.3,1127.2-68,1127.8-69.7"/>
</g>
<circle class="st6" cx="885.4" cy="-74.6" r="16.8"/>
<g>
	<path class="st26" d="M883.7-77.4c-1.6,0.9-2.1,3-1.2,4.6c1,1.6,3,2.1,4.6,1.2c1.6-0.9,2.1-3,1.2-4.6
		C887.4-77.8,885.3-78.4,883.7-77.4"/>
	<polygon class="st26" points="898,-81.9 887.5,-73.2 885.2,-77 	"/>
</g>
<g>
	<path class="st26" d="M872-75.7h-5.5c0,0.4-0.1,0.7-0.1,1.1c0,0.4,0,0.8,0.1,1.1h5.5V-75.7z"/>
	<path class="st26" d="M874.1-67.3l-1.1-2l-4.9,2.6c0.3,0.7,0.7,1.3,1.1,2L874.1-67.3z"/>
</g>
<g>
	<path class="st26" d="M877.7-85.6l2-1.1l-2.7-4.8c-0.7,0.3-1.3,0.7-2,1.1L877.7-85.6z"/>
	<path class="st26" d="M868.4-83l4.8,2.8l1.1-2l-4.8-2.8C869.1-84.4,868.7-83.7,868.4-83z"/>
	<path class="st26" d="M898.8-73.4h5.5c0-0.4,0.1-0.7,0.1-1.1c0-0.4,0-0.8-0.1-1.1h-5.5V-73.4z"/>
	<path class="st26" d="M902.8-66.9l-4.9-2.5l-1,2l4.9,2.5C902.1-65.6,902.4-66.2,902.8-66.9z"/>
	<path class="st26" d="M895.9-90.3c-0.6-0.4-1.3-0.8-2-1.1l-2.8,4.8l1.9,1.1L895.9-90.3z"/>
	<path class="st26" d="M886.5-93.5c-0.4,0-0.7-0.1-1.1-0.1c-0.4,0-0.8,0-1.1,0.1v5.5h2.3V-93.5z"/>
</g>
<path class="st25" d="M885.4-95.8c-11.7,0-21.2,9.5-21.2,21.2c0,11.7,9.5,21.2,21.2,21.2s21.2-9.5,21.2-21.2
	C906.6-86.3,897.1-95.8,885.4-95.8z M885.4-57.8c-9.3,0-16.8-7.5-16.8-16.8c0-9.3,7.5-16.8,16.8-16.8s16.8,7.5,16.8,16.8
	C902.1-65.3,894.6-57.8,885.4-57.8z"/>
<path class="st16" d="M884.8-75.5c-0.5,0.3-0.7,1-0.4,1.5c0.3,0.5,1,0.7,1.5,0.4c0.5-0.3,0.7-1,0.4-1.5
	C886.1-75.6,885.4-75.8,884.8-75.5"/>
<path class="st24" d="M1020.5-63.8c1.8-1.8,4.7-1.8,6.5,0c1.8,1.8,1.8,4.7,0,6.5c-1.8,1.8-9,2.4-9,2.4S1018.7-62,1020.5-63.8z"/>
<path class="st9" d="M1022.2-62.2c0.9-0.9,2.4-0.9,3.3,0c0.9,0.9,0.9,2.4,0,3.3c-0.9,0.9-4.1,0.8-4.1,0.8S1021.3-61.2,1022.2-62.2z"
	/>
<path class="st9" d="M1045.1-91.6c-2.5,2.5-23.7,23.7-23.7,23.7l9.8,9.8c0,0,21.2-21.2,23.7-23.7c1.3-1.3,2.4-5.1,3.1-8.4l-4.5-4.5
	C1050.1-93.9,1046.3-92.9,1045.1-91.6z"/>
<g>
	<polygon class="st24" points="1035.2,-54 1032.8,-59.7 1042.6,-69.5 1041,-59.7 	"/>
	<polygon class="st24" points="1017.3,-72 1023,-69.5 1032.8,-79.3 1023,-77.7 	"/>
	<path class="st24" d="M1053.4-94.6l4.5,4.5c0.6-3,1-5.5,1-5.5S1056.4-95.3,1053.4-94.6z"/>
	<polygon class="st24" points="1031.2,-58.1 1027.9,-58.1 1021.4,-64.6 1021.4,-67.9 	"/>
</g>
<g>
	<circle class="st24" cx="1045.1" cy="-81.8" r="2.3"/>
	<circle class="st24" cx="1039.3" cy="-76" r="2.3"/>
	<circle class="st24" cx="1033.6" cy="-70.3" r="2.3"/>
</g>
<path class="st25" d="M1352.5-96.8h-36.6c-2,0-3.7,1.6-3.7,3.7v40.3l10.4-9.8h29.8c2,0,3.7-1.6,3.7-3.7v-26.8
	C1356.2-95.2,1354.6-96.8,1352.5-96.8z"/>
<g>
	<rect x="1317.2" y="-87.1" class="st26" width="34.2" height="2.4"/>
	<rect x="1317.2" y="-81" class="st26" width="34.2" height="2.4"/>
	<rect x="1317.2" y="-74.9" class="st26" width="19.5" height="2.4"/>
</g>
<g>
	<polygon class="st23" points="1413.5,-58.3 1386.2,-58.3 1386.2,-95.4 1404.7,-95.4 1413.5,-86.6 	"/>
</g>
<polygon class="st6" points="1412,-85.6 1403.7,-85.6 1403.7,-93.9 "/>
<rect x="1418.7" y="-65.3" transform="matrix(-0.7072 0.707 -0.707 -0.7072 2382.2695 -1105.5304)" class="st24" width="2.7" height="11.7"/>
<circle class="st24" cx="1408.6" cy="-71" r="10.7"/>
<circle class="st23" cx="1408.6" cy="-71" r="8.8"/>
<rect x="1419.8" y="-62.6" transform="matrix(-0.7072 0.707 -0.707 -0.7072 2385.0095 -1104.4581)" class="st24" width="2.7" height="8.5"/>
<g>
	<path class="st6" d="M1410.6-69.1h-9.5c0.4,1.6,1.3,2.9,2.4,3.9h7V-69.1z"/>
	<path class="st6" d="M1401.1-73h9.5v-3.9h-7.1C1402.3-75.9,1401.5-74.5,1401.1-73z"/>
	<path class="st6" d="M1400.9-79.8h-8.9v1.9h7.1C1399.6-78.5,1400.2-79.2,1400.9-79.8z"/>
	<path class="st6" d="M1398-75.9h-5.9v1.9h5.3C1397.5-74.6,1397.7-75.3,1398-75.9z"/>
	<path class="st6" d="M1396.9-71c0-0.3,0-0.7,0.1-1h-5v1.9h5C1396.9-70.3,1396.9-70.7,1396.9-71z"/>
	<path class="st6" d="M1397.3-68.1h-5.3v1.9h5.9C1397.7-66.7,1397.5-67.4,1397.3-68.1z"/>
</g>
<rect x="1277.6" y="-80.2" class="st9" width="4.7" height="26.8"/>
<rect x="1270.6" y="-72.1" class="st24" width="4.7" height="18.6"/>
<rect x="1263.6" y="-77.9" class="st9" width="4.7" height="24.5"/>
<rect x="1256.7" y="-70.9" class="st24" width="4.7" height="17.5"/>
<rect x="1249.7" y="-67.4" class="st9" width="4.7" height="14"/>
<rect x="1242.7" y="-69.7" class="st24" width="4.7" height="16.3"/>
<rect x="1235.7" y="-65.1" class="st9" width="4.7" height="11.7"/>
<g>
	<polygon class="st9" points="1277.7,-94.1 1270.6,-87 1266,-91.7 1254.3,-80 1248.5,-85.8 1236.4,-73.7 1239.6,-70.4 1248.5,-79.3 
		1254.3,-73.5 1266,-85.1 1270.6,-80.5 1281,-90.8 	"/>
	<polygon class="st9" points="1282.3,-95.4 1271.8,-95.4 1282.3,-84.9 	"/>
</g>
<path class="st25" d="M-112.5-0.3c-8.2,0-14.9,6.7-14.9,14.9c0,8.2,14.9,27.7,14.9,27.7s14.9-19.5,14.9-27.7
	C-97.5,6.4-104.2-0.3-112.5-0.3z M-112.5,22.1c-4.1,0-7.5-3.3-7.5-7.5c0-4.1,3.3-7.5,7.5-7.5c4.1,0,7.5,3.3,7.5,7.5
	C-105,18.7-108.3,22.1-112.5,22.1z"/>
<polygon class="st26" points="-48,31 -48,32 -50,32 -50,31 -51,23 -47,23 "/>
<path class="st26" d="M-53.2,22c-0.5-0.1-12.4-3.2-14.4-12.8c-0.9-4.2,0.2-6.7,1.3-8C-65-0.4-63.2-1-62-1c1.7,0,2.9,0.5,3.8,1.4
	c1.1,1.1,1.1,2.5,1.1,2.7c0,1.6-1.1,4-4,4l0,0c-0.1,0-0.8,0-1.4-0.4C-63.4,6.1-64,5.2-64,4h2c0,0.6,0.2,0.8,0.4,0.9
	C-61.3,5-61.1,5-61.1,5c1.9,0,2-1.7,2-2c0,0,0-0.7-0.5-1.3C-60.1,1.2-60.9,1-62,1c-0.6,0-1.9,0.3-2.8,1.5c-1.1,1.4-1.4,3.6-0.9,6.3
	C-63.9,17.1-52.8,20-52.7,20L-53.2,22z"/>
<path class="st26" d="M-44.7,22l-0.6-1.9c0.1,0,10.1-3.3,12.9-11.4c0.9-2.5,0.8-4.4-0.2-5.8C-33.5,1.5-35.1,1-36,1c-3,0-3,1.9-3,2
	c0,0.5,0.2,2,2,2c0.5,0,1-0.2,1-1h2c0,2.2-1.8,3-3,3c-2.9,0-4-2.4-4-4c0-1.4,1-4,5-4c1.5,0,3.8,0.8,5.1,2.7c1,1.3,1.8,3.8,0.4,7.7
	C-33.6,18.4-44.2,21.8-44.7,22z"/>
<g>
	<path class="st25" d="M-44,36h-10v-2c0-1.1,4-3,4-3h2c0,0,4,1.9,4,3V36z"/>
	<path class="st25" d="M-39,0c0,8-2.1,25-10,25S-59,8-59,0L-39,0z"/>
</g>
<path class="st6" d="M-48,16h-2V8.6l-2,0.7V7.5l3.8-1.5h0.2V16z"/>
<rect x="-56" y="35" class="st26" width="14" height="8"/>
<rect x="-54" y="38" class="st6" width="10" height="2"/>
<path class="st26" d="M4,42H1V9c0,0,0.6-5,1.5-5C3.5,4,4,9,4,9V42z"/>
<circle class="st26" cx="2.5" cy="2.5" r="2.5"/>
<rect x="1" y="6" class="st25" width="36" height="24"/>
<g>
	<rect x="7" y="6" class="st26" width="6" height="6"/>
	<rect x="13" y="12" class="st26" width="6" height="6"/>
	<rect x="31" y="6" class="st26" width="6" height="6"/>
	<rect x="19" y="6" class="st26" width="6" height="6"/>
	<rect x="25" y="12" class="st26" width="6" height="6"/>
	<rect x="7" y="18" class="st26" width="6" height="6"/>
	<rect x="13" y="24" class="st26" width="6" height="6"/>
	<rect x="1" y="12" class="st26" width="6" height="6"/>
	<rect x="1" y="24" class="st26" width="6" height="6"/>
	<rect x="31" y="18" class="st26" width="6" height="6"/>
	<rect x="19" y="18" class="st26" width="6" height="6"/>
	<rect x="25" y="24" class="st26" width="6" height="6"/>
</g>
<polygon class="st26" points="75,-1 67.4,-1 78.2,18.3 85.7,18.3 "/>
<polygon class="st25" points="90,-1 79.2,18.3 86.8,18.3 97.5,-1 "/>
<circle class="st26" cx="82.5" cy="30.1" r="12.9"/>
<path class="st25" d="M82.5,19.4c-5.9,0-10.7,4.8-10.7,10.7s4.8,10.7,10.7,10.7c5.9,0,10.7-4.8,10.7-10.7S88.4,19.4,82.5,19.4z
	 M75.2,34.7c-0.3,0.2-0.7,0.1-0.8-0.2c0,0,0-0.1-0.1-0.1l-0.2-0.5c-0.1-0.3,0-0.6,0.3-0.7c0.3-0.1,0.5,0,0.7,0.2l0.3,0.5
	C75.6,34.1,75.5,34.5,75.2,34.7z M78.1,37.6c-0.3,0.4-0.9,0.5-1.3,0.2c0,0-0.1,0-0.1-0.1l-0.4-0.4c-0.4-0.3-0.4-0.9-0.1-1.3
	c0.3-0.3,0.8-0.4,1.2-0.1l0.4,0.3C78.3,36.6,78.4,37.2,78.1,37.6z M81.9,38.8c-0.1,0.6-0.7,0.9-1.2,0.8c0,0,0,0,0,0l-0.5-0.1
	c-0.6-0.1-0.9-0.7-0.8-1.3c0.1-0.5,0.7-0.9,1.2-0.8l0.5,0.1C81.6,37.6,82,38.2,81.9,38.8z M81.4,34.4v-7.9l-2.1,0.7v-1.9l4.1-1.6
	h0.2v10.7H81.4z M84.9,39.4l-0.5,0.1c-0.6,0.1-1.1-0.2-1.3-0.8c-0.1-0.6,0.2-1.1,0.8-1.3c0,0,0,0,0,0l0.5-0.1
	c0.6-0.1,1.1,0.2,1.2,0.8C85.8,38.8,85.4,39.3,84.9,39.4z M88.6,37.3c-0.1,0.1-0.3,0.2-0.4,0.4c-0.4,0.3-1,0.3-1.3-0.1
	c-0.3-0.4-0.3-1,0.1-1.3c0,0,0,0,0,0c0.1-0.1,0.3-0.2,0.5-0.3c0.4-0.3,1-0.2,1.2,0.2C89,36.6,88.9,37.1,88.6,37.3z M90.6,34.3
	c-0.1,0.3-0.5,0.5-0.8,0.4c-0.3-0.1-0.5-0.5-0.4-0.8c0,0,0-0.1,0.1-0.1l0.3-0.5c0.2-0.3,0.5-0.3,0.8-0.2c0.2,0.1,0.3,0.4,0.2,0.7
	L90.6,34.3z"/>
<path class="st24" d="M693.6,39.8c0,1.7-1.3,3-3,3h-26c-1.7,0-3-1.3-3-3v-36c0-1.7,1.3-3,3-3h26c1.7,0,3,1.3,3,3V39.8z"/>
<circle class="st6" cx="668.6" cy="6.8" r="3"/>
<circle class="st6" cx="677.6" cy="6.8" r="3"/>
<circle class="st6" cx="686.6" cy="6.8" r="3"/>
<polyline class="st6" points="671.6,37.8 671.6,39.8 665.6,39.8 665.6,37.8 "/>
<polyline class="st6" points="680.6,37.8 680.6,39.8 674.6,39.8 674.6,37.8 "/>
<polyline class="st6" points="689.6,37.8 689.6,39.8 683.6,39.8 683.6,37.8 "/>
<polyline class="st6" points="671.6,27.7 671.6,29.8 665.6,29.8 665.6,27.7 "/>
<polyline class="st6" points="680.6,27.7 680.6,29.8 674.6,29.8 674.6,27.7 "/>
<polyline class="st6" points="689.6,27.7 689.6,29.8 683.6,29.8 683.6,27.7 "/>
<polyline class="st6" points="671.6,17.8 671.6,19.8 665.6,19.8 665.6,17.8 "/>
<polyline class="st6" points="680.6,17.8 680.6,19.8 674.6,19.8 674.6,17.8 "/>
<polyline class="st6" points="689.6,17.8 689.6,19.8 683.6,19.8 683.6,17.8 "/>
<rect x="674.6" y="31.8" class="st25" width="6" height="6"/>
<g>
	<rect x="665.6" y="11.8" class="st23" width="6" height="6"/>
	<rect x="674.6" y="11.8" class="st23" width="6" height="6"/>
	<rect x="683.6" y="11.8" class="st23" width="6" height="6"/>
	<rect x="665.6" y="21.8" class="st23" width="6" height="6"/>
	<rect x="674.6" y="21.8" class="st23" width="6" height="6"/>
	<rect x="683.6" y="21.8" class="st23" width="6" height="6"/>
	<rect x="665.6" y="31.8" class="st23" width="6" height="6"/>
	<rect x="683.6" y="31.8" class="st23" width="6" height="6"/>
</g>
<g>
	<circle class="st25" cx="668.6" cy="6.8" r="2"/>
	<circle class="st25" cx="677.6" cy="6.8" r="2"/>
	<circle class="st25" cx="686.6" cy="6.8" r="2"/>
</g>
<polygon class="st6" points="251.1,19.5 250.3,15.6 238,18.2 238,4.9 234.2,4.9 234.2,16.9 220.6,8.2 218.5,11.5 233.3,21 
	221.9,35.8 225,38.2 236,23.8 244.2,36.1 247.5,34 239.3,21.9 "/>
<circle class="st24" cx="236.1" cy="20.5" r="6.8"/>
<g>
	<circle class="st23" cx="236.1" cy="4.9" r="4.9"/>
	<circle class="st23" cx="250.7" cy="17.6" r="4.9"/>
	<circle class="st23" cx="219.6" cy="9.8" r="4.9"/>
	<circle class="st23" cx="223.5" cy="37" r="4.9"/>
	<circle class="st23" cx="245.8" cy="35.1" r="4.9"/>
</g>
<g>
	<path class="st9" d="M321.5-0.8h-29.3c-1.2,0-2.1,0.9-2.1,2.1v6.3c0,1.2,0.9,2.1,2.1,2.1h29.3c1.1,0,2.1-0.9,2.1-2.1V1.3
		C323.6,0.2,322.7-0.8,321.5-0.8z"/>
	<path class="st9" d="M321.5,11.8h-29.3c-1.2,0-2.1,0.9-2.1,2.1v6.3c0,1.2,0.9,2.1,2.1,2.1h29.3c1.1,0,2.1-0.9,2.1-2.1v-6.3
		C323.6,12.7,322.7,11.8,321.5,11.8z"/>
	<path class="st9" d="M321.5,24.4h-29.3c-1.2,0-2.1,0.9-2.1,2.1v6.3c0,1.2,0.9,2.1,2.1,2.1h29.3c1.1,0,2.1-0.9,2.1-2.1v-6.3
		C323.6,25.3,322.7,24.4,321.5,24.4z"/>
</g>
<path class="st23" d="M329.1,31.8c0.1-0.4,0.1-0.8,0.1-1.2c0-0.3,0-0.8-0.1-1.2l2.4-1.8c0.2-0.2,0.3-0.5,0.2-0.7l-2.4-4.1
	c-0.1-0.2-0.4-0.3-0.7-0.2l-2.7,1.3c-0.6-0.5-1.4-0.9-2.1-1.3l-0.3-3c0-0.3-0.3-0.5-0.5-0.5h-4.7c-0.3,0-0.5,0.2-0.5,0.5l-0.3,3
	c-0.7,0.3-1.5,0.7-2.1,1.3l-2.7-1.3c-0.3-0.1-0.6,0-0.7,0.2l-2.4,4.1c-0.1,0.2-0.1,0.6,0.2,0.7l2.4,1.8c-0.1,0.4-0.1,0.8-0.1,1.2
	c0,0.3,0,0.8,0.1,1.2l-2.4,1.8c-0.2,0.2-0.3,0.5-0.2,0.7l2.4,4.1c0.1,0.2,0.4,0.3,0.7,0.2l2.7-1.3c0.6,0.5,1.4,0.9,2.1,1.3l0.3,3
	c0,0.3,0.3,0.5,0.5,0.5h4.7c0.3,0,0.5-0.2,0.5-0.5l0.3-3c0.7-0.3,1.5-0.7,2.1-1.3l2.7,1.3c0.3,0.1,0.6,0,0.7-0.2l2.4-4.1
	c0.1-0.2,0.1-0.6-0.2-0.7L329.1,31.8z M320.5,36.1c-3,0-5.4-2.4-5.4-5.4c0-3,2.4-5.4,5.4-5.4c3,0,5.4,2.4,5.4,5.4
	C325.9,33.7,323.5,36.1,320.5,36.1z"/>
<path class="st24" d="M320.5,24.4c-3.5,0-6.3,2.8-6.3,6.3c0,3.5,2.8,6.3,6.3,6.3c3.5,0,6.3-2.8,6.3-6.3
	C326.8,27.2,323.9,24.4,320.5,24.4z M320.5,33.8c-1.8,0-3.1-1.4-3.1-3.1c0-1.8,1.4-3.1,3.1-3.1c1.8,0,3.1,1.4,3.1,3.1
	C323.6,32.4,322.3,33.8,320.5,33.8z"/>
<path class="st24" d="M624.8,9.7c0,0.6-0.5,1.1-1.1,1.1h-34c-0.6,0-1.1-0.5-1.1-1.1V2.2c0-0.6,0.5-1.1,1.1-1.1h34
	c0.6,0,1.1,0.5,1.1,1.1V9.7z"/>
<rect x="588.7" y="6.5" class="st6" width="36.1" height="30.8"/>
<path class="st24" d="M630.9,22.6l-3-3c-0.5-0.5-1.2-0.5-1.7,0l-1.4,1.4l4.7,4.7l1.4-1.4C631.3,23.8,631.3,23,630.9,22.6"/>
<rect x="609" y="28.9" transform="matrix(-0.7071 0.7071 -0.7071 -0.7071 1078.2197 -382.2061)" class="st23" width="18.5" height="6.6"/>
<rect x="624.3" y="21.2" transform="matrix(0.707 -0.7073 0.7073 0.707 166.1184 449.9034)" class="st6" width="3.3" height="6.6"/>
<polygon class="st6" points="609.4,36.4 607.8,42.6 614,41.1 "/>
<polygon class="st24" points="608.6,39.5 607.8,42.6 611,41.8 "/>
<g>
	<polygon class="st23" points="614,28.8 600.4,28.8 600.4,30.9 611.9,30.9 	"/>
	<polygon class="st23" points="617.4,25.4 617.4,24.6 600.4,24.6 600.4,26.7 616.1,26.7 	"/>
	<rect x="600.4" y="16.1" class="st23" width="17" height="2.1"/>
	<rect x="600.4" y="11.8" class="st23" width="17" height="2.1"/>
	<rect x="596.1" y="11.8" class="st23" width="2.1" height="2.1"/>
	<rect x="596.1" y="16.1" class="st23" width="2.1" height="2.1"/>
	<rect x="596.1" y="28.8" class="st23" width="2.1" height="2.1"/>
	<path class="st23" d="M600.4,28.8v2.1h7.4c0-0.7,0.1-1.4,0.2-2.1H600.4z"/>
	<rect x="596.1" y="20.3" class="st23" width="2.1" height="2.1"/>
	<rect x="596.1" y="24.6" class="st23" width="2.1" height="2.1"/>
	<rect x="600.4" y="20.3" class="st23" width="17" height="2.1"/>
</g>
<path class="st23" d="M1590.2-94.4h-32.6c-2.6,0-4.7,2.1-4.7,4.7v19.8c0,2.6,2.1,4.7,4.7,4.7h32.6c2.6,0,4.7-2.1,4.7-4.7v-19.8
	C1594.8-92.3,1592.7-94.4,1590.2-94.4z"/>
<path class="st24" d="M1554.1-92.9c-0.5,0.6-0.9,1.3-1.1,2.1l20.8,15.1l20.8-15.1c-0.2-0.8-0.6-1.5-1.1-2.1l-19.7,14.3L1554.1-92.9z
	"/>
<path class="st6" d="M1597.2-81.6h-32.6c-2.6,0-4.7,2.1-4.7,4.7v19.8c0,2.6,2.1,4.7,4.7,4.7h32.6c2.6,0,4.7-2.1,4.7-4.7v-19.8
	C1601.8-79.5,1599.7-81.6,1597.2-81.6z"/>
<path class="st24" d="M1561.1-80.1c-0.5,0.6-0.9,1.3-1.1,2.1l20.8,15.1l20.8-15.1c-0.2-0.8-0.6-1.5-1.1-2.1l-19.7,14.3L1561.1-80.1z
	"/>
<circle class="st24" cx="1501.7" cy="-86.8" r="8.5"/>
<circle class="st24" cx="1476.3" cy="-86.8" r="8.5"/>
<path class="st23" d="M1521-74.1l-21.6,4.2h-20.7l-21.6-4.2l6.1-11.1c1.6-2.7,4.4-4.4,7.5-4.4h37c3.1,0,5.9,1.7,7.5,4.4L1521-74.1z"
	/>
<circle class="st24" cx="1508.8" cy="-67.1" r="14.1"/>
<circle class="st24" cx="1469.3" cy="-67.1" r="14.1"/>
<circle class="st24" cx="1489" cy="-69.9" r="7.1"/>
<circle class="st20" cx="1489" cy="-69.9" r="2.8"/>
<g>
	<circle class="st6" cx="1508.8" cy="-67.1" r="9.9"/>
	<circle class="st6" cx="1469.3" cy="-67.1" r="9.9"/>
</g>
<g>
	<path class="st9" d="M1514-70.3c-1.4-1.6-3.2-2.4-5.2-2.4c-2,0-3.9,0.8-5.2,2.4c-0.6,0.6-0.4,1.4,0.1,2c0.6,0.6,1.4,0.4,2-0.1
		c1.7-1.8,4.7-1.8,6.3,0c0.3,0.3,0.7,0.4,1,0.4c0.3,0,0.7-0.1,1-0.4C1514.6-68.9,1514.6-69.7,1514-70.3z"/>
	<path class="st9" d="M1469.3-72.7c-2,0-4,0.8-5.2,2.4c-0.6,0.6-0.4,1.4,0.1,2c0.6,0.6,1.4,0.4,2-0.1c1.7-1.8,4.7-1.8,6.3,0
		c0.3,0.3,0.7,0.4,1,0.4c0.3,0,0.7-0.1,1-0.4c0.6-0.6,0.6-1.4,0.1-2C1473.2-71.9,1471.2-72.7,1469.3-72.7z"/>
</g>
<path class="st27" d="M155.7,37.9c-0.7,2.2-3,3.4-5.1,2.7l-7.8-2.4c-2.2-0.7-3.3-3-2.7-5.1l2.8-9.1c0.7-2.1,3-3.4,5.1-2.7l7.8,2.4
	c2.2,0.7,3.3,3,2.7,5.1L155.7,37.9z"/>
<rect x="127.7" y="15" class="st24" width="4.1" height="13.6"/>
<rect x="180.7" class="st24" width="4.1" height="43.5"/>
<polygon class="st23" points="131.8,15.9 131.8,27.6 180.7,41.7 180.7,1.8 "/>
<polygon class="st6" points="134.5,18 134.5,21 178,14 178,5.4 "/>
<g>
	<polygon class="st24" points="553,42.3 522.8,42.3 522.8,3.5 544.4,3.5 553,12.1 	"/>
</g>
<g>
	<polygon class="st23" points="557.3,38 527.1,38 527.1,-0.8 548.7,-0.8 557.3,7.8 	"/>
</g>
<polygon class="st6" points="555.7,8.9 547.6,8.9 547.6,0.8 "/>
<polygon class="st24" points="550.8,16.4 543.3,16.4 545.9,19 543.3,21.7 539,17.4 532.4,23.9 534.8,26.3 539,21.9 543.3,26.3 
	548.2,21.4 550.8,24 "/>
<g>
	<path class="st24" d="M493,33.1c0,9.3-9.3,9.3-20.8,9.3c-11.5,0-20.8,0-20.8-9.3c0-9.3,9.3-20.8,20.8-20.8
		C483.6,12.3,493,23.8,493,33.1z"/>
	<path class="st24" d="M479.1,2.5c-2.2,2.4-1.2-5.1-5.8,0c-2.2,2.4-1.2-5.1-5.8,0c-2,2.2-1.3-3.6-4.5-1.2l3.3,12.2h11.6l3.5-12.7
		C480.8,0.9,480.1,1.4,479.1,2.5z"/>
</g>
<path class="st6" d="M473.8,31.6c0-0.6-0.2-1-0.5-1.3c-0.3-0.3-0.8-0.6-1.6-0.9c-0.7-0.3-1.4-0.6-1.9-0.8c-0.5-0.3-1-0.6-1.4-0.9
	c-0.4-0.4-0.7-0.8-0.9-1.3c-0.2-0.5-0.3-1.1-0.3-1.7c0-1.1,0.4-2.1,1.1-2.8c0.7-0.7,1.7-1.2,2.9-1.3v-2.2h1.6v2.2
	c1.2,0.2,2.1,0.7,2.8,1.5c0.7,0.8,1,1.9,1,3.2h-2.9c0-0.8-0.2-1.4-0.5-1.8c-0.3-0.4-0.8-0.6-1.3-0.6c-0.6,0-1,0.2-1.3,0.5
	c-0.3,0.3-0.5,0.8-0.5,1.3c0,0.5,0.1,0.9,0.4,1.2c0.3,0.3,0.9,0.6,1.7,1c0.8,0.3,1.5,0.6,2,0.9c0.5,0.3,1,0.6,1.3,1
	c0.4,0.4,0.6,0.8,0.8,1.2c0.2,0.5,0.3,1,0.3,1.6c0,1.2-0.4,2.1-1.1,2.8c-0.7,0.7-1.7,1.1-3,1.3v2h-1.6v-2c-1.4-0.1-2.5-0.6-3.2-1.5
	c-0.8-0.8-1.1-2-1.1-3.3h2.9c0,0.8,0.2,1.4,0.6,1.9c0.4,0.4,0.9,0.6,1.7,0.6c0.6,0,1.1-0.2,1.4-0.5
	C473.6,32.6,473.8,32.2,473.8,31.6z"/>
<g>
	<path class="st28" d="M460.5,37.7c-0.5-2.6-0.6-5.2-0.3-7.8c0.6-5,2.3-10.2,5.1-14.4c0.3-0.5,0.7-1.3,1.2-1.6c0.4-0.3,0.5-0.2,1,0
		c0.9,0.2,1.7,0.4,2.6,0.5c2.6,0.3,5.3,0.1,7.7-0.9"/>
	<path class="st28" d="M457.1,26.1c0-3.5,4.4-11.8,9.3-12.7"/>
</g>
<rect x="386.3" y="33.1" class="st24" width="9.9" height="8.3"/>
<path class="st24" d="M409.4,43h-36.3c0,0,0-3.3,3.3-3.3c3.3,0,26.4,0,29.7,0C409.4,39.7,409.4,43,409.4,43z"/>
<rect x="361.6" y="0.1" class="st24" width="59.4" height="34.7"/>
<rect x="364.9" y="3.4" class="st6" width="52.8" height="28.1"/>
</svg>
