<?xml version="1.0" encoding="utf-8"?>
<!-- Generator: Adobe Illustrator 19.1.0, SVG Export Plug-In . SVG Version: 6.00 Build 0)  -->
<svg version="1.1" id="Layer_1" xmlns="http://www.w3.org/2000/svg" xmlns:xlink="http://www.w3.org/1999/xlink" x="0px" y="0px"
	 viewBox="0 0 55 42.5" style="enable-background:new 0 0 55 42.5;" xml:space="preserve">
<style type="text/css">
	.st0{fill:#3EB6FF;}
	.st1{fill:#0059B1;}
	.st2{fill:#A16BB8;}
	.st3{fill:#724A84;}
	.st4{fill:#FF5647;}
	.st5{fill:#E6B7FF;}
	.st6{fill:#FFFFFF;}
	.st7{fill:#D7F4FF;}
	.st8{fill:#53AEE6;}
	.st9{fill:#E9E9E9;}
	.st10{fill:#0B66A2;}
	.st11{fill:#E54B42;}
	.st12{fill:#A4C600;}
	.st13{fill:#8EAC00;}
	.st14{fill:#7F9100;}
	.st15{fill:#42B6D7;}
	.st16{fill:#F7FAFB;}
	.st17{fill:#318EA8;}
	.st18{fill:#6AD58B;}
	.st19{fill:#57AA6D;}
	.st20{fill:#EFEFEF;}
	.st21{fill:#D8D8D8;}
	.st22{fill:#E0E0E0;}
	.st23{fill:#36A1DE;}
	.st24{fill:#213F5E;}
	.st25{fill:#65C099;}
	.st26{fill:#467F63;}
	.st27{fill:none;stroke:#213F5E;stroke-width:2;}
	.st28{fill:none;stroke:#36A1DE;stroke-width:2;stroke-linecap:round;}
</style>
<path class="st0" d="M-637.7-120.8c0,11.7-9.5,21-21,21c-11.5,0-21-9.3-21-21c0-11.7,9.3-21,21-21
	C-647-141.8-637.7-132.4-637.7-120.8"/>
<g>
	<path class="st1" d="M-658.9-111.1c0-0.4-0.2-0.6-0.6-0.8c-1.3-0.4-2.5-0.4-3.6-1.5c-0.2-0.4-0.2-0.8-0.4-1.3
		c-0.4-0.4-1.5-0.6-2.1-0.8h-2.7h-1.5c-0.6-0.2-1.1-1-1.5-1.7c0-0.2,0-0.6-0.4-0.6c-0.4-0.2-0.8,0.2-1.3,0c-0.2-0.2-0.2-0.4-0.2-0.6
		c0-0.6,0.4-1.3,0.8-1.7c0.6-0.4,1.3,0.2,1.9,0.2c0.2,0,0.2,0,0.4,0.2c0.6,0.2,0.8,1,0.8,1.7v0.4c0,0.2,0.2,0.2,0.4,0.2
		c0.2-1.1,0.2-2.1,0.4-3.2c0-1.3,1.3-2.5,2.3-2.9c0.4-0.2,0.6,0.2,1.1,0c1.3-0.4,4.4-1.7,3.8-3.4c-0.4-1.5-1.7-2.9-3.4-2.7
		c-0.4,0.2-0.6,0.4-1.1,0.6c-0.6,0.4-1.9,1.7-2.5,1.7c-1-0.2-1-1.7-0.8-2.3c0.2-0.8,2.1-3.6,3.4-3.1c0.2,0.2,0.6,0.6,0.8,0.8
		c0.4,0.2,1,0.2,1.7,0.2c0.2,0,0.4,0,0.6-0.2c0.2-0.2,0.2-0.2,0.2-0.4c0-0.6-0.6-1.3-1.1-1.7c-0.4-0.4-1-0.8-1.7-1
		c-2.1-0.6-5.5,0.2-7.1,1.7c-1.7,1.5-2.9,4-3.8,6.1c-0.4,1.3-0.8,2.9-1,4.4c-0.2,1.1-0.4,1.9,0.2,2.9c0.6,1.3,1.9,2.5,3.1,3.4
		c0.8,0.6,2.5,0.6,3.4,1.7c0.6,0.8,0.4,1.9,0.4,2.9c0,1.3,0.8,2.3,1.3,3.4c0.2,0.6,0.4,1.5,0.6,2.1c0,0.2,0.2,1.5,0.2,1.7
		c1.3,0.6,2.3,1.3,3.8,1.7c0.2,0,1-1.3,1-1.5c0.6-0.6,1.1-1.5,1.7-1.9c0.4-0.2,0.8-0.4,1.3-0.8c0.4-0.4,0.6-1.3,0.8-1.9
		C-658.9-109.6-658.7-110.5-658.9-111.1"/>
	<path class="st1" d="M-658.5-130.4c0.2,0,0.4-0.2,0.8-0.4c0.6-0.4,1.3-1,1.9-1.5c0.6-0.4,1.3-1.1,1.7-1.5c0.6-0.4,1-1.3,1.3-1.9
		c0.2-0.4,0.8-1.3,0.6-1.9c-0.2-0.4-1.3-0.6-1.7-0.8c-1.7-0.4-3.2-0.6-4.8-0.6c-0.6,0-1.5,0.2-1.7,0.8c-0.2,1.1,0.6,0.8,1.5,1.1
		c0,0,0.2,1.7,0.2,1.9c0.2,1.1-0.4,1.7-0.4,2.7c0,0.6,0,1.7,0.4,2.1H-658.5z"/>
	<path class="st1" d="M-640.9-115.7c0.2-0.4,0.2-1,0.4-1.5c0.2-1.1,0.2-2.1,0.2-3.2c0-2.1-0.2-4.2-0.8-6.1c-0.4-0.6-0.6-1.3-0.8-1.9
		c-0.4-1-1-2.1-1.9-2.9c-0.8-1-1.9-4-3.8-3.1c-0.6,0.2-1,1.1-1.5,1.5c-0.4,0.6-0.8,1.3-1.3,1.9c-0.2,0.2-0.4,0.6-0.2,0.8
		c0,0.2,0.2,0.2,0.4,0.2c0.4,0.2,0.6,0.2,1.1,0.4c0.2,0,0.4,0.2,0.2,0.4c0,0,0,0.2-0.2,0.2c-1.1,1-2.1,1.9-3.2,2.9
		c-0.2,0.2-0.4,0.6-0.4,0.8s0.2,0.2,0.2,0.4c0,0.2-0.2,0.2-0.4,0.4c-0.4,0.2-0.8,0.4-1,0.6c-0.2,0.4,0,1-0.2,1.5
		c-0.2,1-0.8,1.9-1.3,2.9c-0.4,0.6-0.6,1.3-1,1.9c0,0.8-0.2,1.5,0.2,2.1c1.1,1.5,2.9,0.6,4.4,1.3c0.4,0.2,0.8,0.2,1.1,0.6
		c0.6,0.6,0.6,1.7,0.8,2.3c0.2,0.8,0.4,1.7,0.8,2.5c0.2,1.1,0.6,2.1,0.8,2.9c1.9-1.5,3.6-3.1,4.8-5.2
		C-642.1-112.4-641.5-114-640.9-115.7"/>
</g>
<g>
	<polygon class="st2" points="-584.1,-99.3 -616.6,-99.3 -616.6,-142 -594.3,-142 -584.1,-131.9 	"/>
</g>
<polygon class="st3" points="-585.6,-129.2 -595.3,-129.2 -595.3,-138.8 "/>
<g>
	<rect x="-608.5" y="-123.7" class="st3" width="17.3" height="2"/>
	<rect x="-608.5" y="-119.7" class="st3" width="13.2" height="2"/>
	<rect x="-608.5" y="-115.6" class="st3" width="17.3" height="2"/>
	<rect x="-608.5" y="-111.5" class="st3" width="13.2" height="2"/>
</g>
<g>
	
		<rect x="-522.1" y="-115.7" transform="matrix(-0.7071 0.7071 -0.7071 -0.7071 -963.1817 185.2855)" class="st3" width="4.2" height="17.8"/>
	<circle class="st3" cx="-537.3" cy="-124.2" r="16.7"/>
</g>
<rect x="-520.3" y="-111.5" transform="matrix(-0.7072 0.707 -0.707 -0.7072 -959.042 186.9457)" class="st4" width="4.2" height="12.8"/>
<circle class="st5" cx="-537.3" cy="-124.2" r="13.6"/>
<path class="st6" d="M-530.1-130.2c-1.8-2.1-4.4-3.3-7.2-3.3c-2.8,0-5.4,1.3-7.2,3.3c-0.4,0.4-0.3,1.1,0.1,1.5
	c0.4,0.4,1.1,0.3,1.5-0.1c1.5-1.7,3.4-2.6,5.6-2.6c2.2,0,4.2,0.9,5.6,2.6c0.2,0.2,0.5,0.4,0.8,0.4c0.2,0,0.5-0.1,0.6-0.2
	C-529.8-129.1-529.8-129.8-530.1-130.2z"/>
<path class="st0" d="M-370.8-142.3h-35.6c-2,0-3.6,1.6-3.6,3.6v39.1l10.1-9.5h29c2,0,3.6-1.6,3.6-3.6v-26.1
	C-367.3-140.7-368.9-142.3-370.8-142.3z"/>
<g>
	<rect x="-405.2" y="-132.8" class="st1" width="33.2" height="2.4"/>
	<rect x="-405.2" y="-126.9" class="st1" width="33.2" height="2.4"/>
	<rect x="-405.2" y="-121" class="st1" width="19" height="2.4"/>
</g>
<path class="st5" d="M-443.5-141.9h-35.2c-1.9,0-3.5,1.6-3.5,3.5v38.7l10-9.4h28.7c1.9,0,3.5-1.6,3.5-3.5v-25.8
	C-440-140.3-441.5-141.9-443.5-141.9z"/>
<g>
	<rect x="-477.5" y="-132.5" class="st3" width="32.9" height="2.3"/>
	<rect x="-477.5" y="-126.6" class="st3" width="32.9" height="2.3"/>
	<rect x="-477.5" y="-120.8" class="st3" width="18.8" height="2.3"/>
</g>
<path class="st0" d="M-300.4-118.9c0.1-0.7,0.2-1.4,0.2-2.2c0-0.8-0.1-1.5-0.2-2.2l4.6-3.3c0.4-0.3,0.6-0.9,0.3-1.4l-4.5-7.6
	c-0.3-0.5-0.8-0.7-1.3-0.4l-5.1,2.4c-1.2-0.9-2.5-1.6-3.9-2.2l-0.5-5.6c-0.1-0.5-0.5-0.9-1-0.9h-8.8c-0.5,0-1,0.4-1,0.9l-0.5,5.6
	c-1.4,0.6-2.8,1.3-3.9,2.2l-5.1-2.4c-0.5-0.2-1.1,0-1.3,0.4l-4.4,7.6c-0.3,0.5-0.1,1.1,0.3,1.4l4.6,3.3c-0.1,0.7-0.2,1.4-0.2,2.2
	c0,0.8,0.1,1.5,0.2,2.2l-4.8,3.3c-0.4,0.3-0.6,0.9-0.3,1.4l4.4,7.6c0.3,0.5,0.8,0.7,1.3,0.4l5.1-2.4c1.2,0.9,2.5,1.6,3.9,2.2
	l0.5,5.6c0.1,0.5,0.5,0.9,1,0.9h8.8c0.5,0,1-0.4,1-0.9l0.5-5.6c1.4-0.6,2.8-1.3,3.9-2.2l5.1,2.4c0.5,0.2,1.1,0,1.3-0.4l4.4-7.6
	c0.3-0.5,0.1-1.1-0.3-1.4L-300.4-118.9z M-316.4-110.9c-5.6,0-10.2-4.6-10.2-10.2c0-5.6,4.6-10.2,10.2-10.2
	c5.6,0,10.2,4.6,10.2,10.2C-306.2-115.5-310.8-110.9-316.4-110.9z"/>
<path class="st1" d="M-316.4-133.4c-6.7,0-12.3,5.5-12.3,12.3c0,6.7,5.5,12.3,12.3,12.3c6.7,0,12.3-5.5,12.3-12.3
	C-304.1-127.9-309.6-133.4-316.4-133.4z M-316.4-116.1c-2.9,0-5.1-2.2-5.1-5.1c0-2.9,2.2-5.1,5.1-5.1s5.1,2.2,5.1,5.1
	C-311.3-118.3-313.5-116.1-316.4-116.1z"/>
<g>
	<polygon class="st0" points="-237,-103.4 -265.4,-103.4 -265.4,-141.9 -246.1,-141.9 -237,-132.8 	"/>
</g>
<polygon class="st6" points="-238.5,-131.8 -247.1,-131.8 -247.1,-140.4 "/>
<g>
	
		<rect x="-231.6" y="-110.7" transform="matrix(-0.7073 0.7069 -0.7069 -0.7073 -466.9641 -15.8479)" class="st1" width="2.8" height="12.1"/>
	<circle class="st1" cx="-242.1" cy="-116.6" r="11.1"/>
	<circle class="st0" cx="-242.1" cy="-116.6" r="9.1"/>
</g>
<rect x="-230.4" y="-107.9" transform="matrix(-0.707 0.7072 -0.7072 -0.707 -464.0872 -14.6522)" class="st1" width="2.8" height="8.8"/>
<g>
	<path class="st6" d="M-240.1-114.6h-9.8c0.4,1.6,1.3,3,2.5,4h7.3V-114.6z"/>
	<path class="st6" d="M-249.9-118.6h9.8v-4h-7.4C-248.7-121.6-249.5-120.2-249.9-118.6z"/>
	<path class="st6" d="M-250.1-125.7h-9.2v2h7.4C-251.4-124.4-250.8-125.1-250.1-125.7z"/>
	<path class="st6" d="M-253.1-121.6h-6.2v2h5.5C-253.6-120.3-253.4-121-253.1-121.6z"/>
	<path class="st6" d="M-254.2-116.6c0-0.3,0-0.7,0.1-1h-5.2v2h5.2C-254.2-115.9-254.2-116.3-254.2-116.6z"/>
	<path class="st6" d="M-253.8-113.5h-5.5v2h6.2C-253.4-112.1-253.6-112.8-253.8-113.5z"/>
</g>
<g>
	<circle class="st3" cx="-148.8" cy="-132.8" r="8.4"/>
	<circle class="st3" cx="-174" cy="-132.8" r="8.4"/>
	<g>
		<path class="st3" d="M-129.7-120.3l-21.4,4.2h-20.5l-21.4-4.2l6-11c1.5-2.7,4.3-4.3,7.4-4.3h36.6c3.1,0,5.9,1.7,7.4,4.3
			L-129.7-120.3z"/>
		<circle class="st3" cx="-141.9" cy="-113.3" r="14"/>
		<circle class="st3" cx="-180.9" cy="-113.3" r="14"/>
		<circle class="st3" cx="-161.4" cy="-116.1" r="7"/>
	</g>
</g>
<circle class="st4" cx="-161.4" cy="-116.1" r="2.8"/>
<g>
	<circle class="st5" cx="-141.9" cy="-113.3" r="9.8"/>
	<circle class="st5" cx="-180.9" cy="-113.3" r="9.8"/>
</g>
<g>
	<path class="st6" d="M-136.7-116.5c-1.4-1.5-3.2-2.4-5.2-2.4c-2,0-3.9,0.8-5.2,2.4c-0.6,0.6-0.4,1.4,0.1,2c0.6,0.6,1.4,0.4,2-0.1
		c1.7-1.8,4.6-1.8,6.3,0c0.3,0.3,0.7,0.4,1,0.4c0.3,0,0.7-0.1,1-0.4C-136.1-115.1-136.1-115.9-136.7-116.5z"/>
	<path class="st6" d="M-180.9-118.9c-2,0-3.9,0.8-5.2,2.4c-0.6,0.6-0.4,1.4,0.1,2c0.6,0.6,1.4,0.4,2-0.1c1.7-1.8,4.6-1.8,6.3,0
		c0.3,0.3,0.7,0.4,1,0.4c0.3,0,0.7-0.1,1-0.4c0.6-0.6,0.6-1.4,0.1-2C-177-118-179-118.9-180.9-118.9z"/>
</g>
<rect x="-55.6" y="-126.6" class="st0" width="4.7" height="27"/>
<rect x="-62.6" y="-118.4" class="st1" width="4.7" height="18.8"/>
<rect x="-69.7" y="-124.2" class="st0" width="4.7" height="24.7"/>
<rect x="-76.7" y="-117.2" class="st1" width="4.7" height="17.6"/>
<rect x="-83.8" y="-113.7" class="st0" width="4.7" height="14.1"/>
<rect x="-90.8" y="-116" class="st1" width="4.7" height="16.5"/>
<rect x="-97.9" y="-111.3" class="st0" width="4.7" height="11.8"/>
<g>
	<polygon class="st0" points="-55.5,-140.6 -62.6,-133.4 -67.3,-138.1 -79.1,-126.4 -85,-132.2 -97.2,-120 -93.9,-116.7 -85,-125.7 
		-79.1,-119.8 -67.3,-131.5 -62.6,-126.8 -52.2,-137.3 	"/>
	<polygon class="st0" points="-50.9,-141.9 -61.4,-141.9 -50.9,-131.3 	"/>
</g>
<circle class="st1" cx="0.5" cy="-121.3" r="21.2"/>
<circle class="st0" cx="0.5" cy="-121.3" r="16.9"/>
<rect x="-0.6" y="-135.1" class="st1" width="2.1" height="13.8"/>
<rect x="2.7" y="-122.8" transform="matrix(0.7071 -0.7071 0.7071 0.7071 84.5442 -31.795)" class="st1" width="2.4" height="9.7"/>
<circle class="st1" cx="0.5" cy="-121.3" r="2.1"/>
<circle class="st6" cx="0.5" cy="-121.3" r="1.1"/>
<path class="st1" d="M51.9-115.1v11c0,2.4,2,4.4,4.4,4.4h30.8c2.4,0,4.4-2,4.4-4.4v-11H51.9z"/>
<path class="st0" d="M91.6-115.1c0,2.4-2,4.4-4.4,4.4H56.3c-2.4,0-4.4-2-4.4-4.4l3.3-13.2c0.2-2.3,2-4.4,4.4-4.4h24.2
	c2.4,0,4.1,1.9,4.4,4.4L91.6-115.1z"/>
<circle class="st7" cx="83.8" cy="-105.2" r="2.2"/>
<g>
	<ellipse class="st1" cx="73.4" cy="-135.6" rx="6.1" ry="5.9"/>
	<ellipse class="st1" cx="74.8" cy="-125.5" rx="5" ry="4.9"/>
	<ellipse class="st1" cx="67.9" cy="-130" rx="5" ry="4.9"/>
	<ellipse class="st1" cx="88.4" cy="-130.4" rx="4.3" ry="4.2"/>
	<ellipse class="st1" cx="82.6" cy="-127" rx="4.3" ry="4.2"/>
	<ellipse class="st1" cx="83" cy="-133.7" rx="4.7" ry="4.5"/>
	<ellipse class="st1" cx="77.7" cy="-131" rx="5" ry="4.9"/>
</g>
<path class="st3" d="M144.9-122.5h13.8l6.4,6.4v-18c0-2.3-1.9-4.2-4.2-4.2h-15.9c-2.3,0-4.2,1.9-4.2,4.2v7.4
	C140.6-124.4,142.6-122.5,144.9-122.5z"/>
<path class="st4" d="M142.8-125.7H129l-6.4,6.4v-18c0-2.3,1.9-4.2,4.2-4.2h15.9c2.3,0,4.2,1.9,4.2,4.2v7.4
	C147-127.6,145.1-125.7,142.8-125.7z"/>
<g>
	<circle class="st2" cx="131.1" cy="-113" r="5.3"/>
	<circle class="st2" cx="156.5" cy="-113" r="5.3"/>
</g>
<g>
	<path class="st3" d="M139.6-101.3c0,0-2.3-4.2-8.5-4.2c-6.1,0-8.5,4.2-8.5,4.2v2.1h16.9V-101.3L139.6-101.3z"/>
	<path class="st3" d="M165-101.3c0,0-2.3-4.2-8.5-4.2c-6.1,0-8.5,4.2-8.5,4.2v2.1H165V-101.3z"/>
</g>
<circle class="st7" cx="216.3" cy="-120.7" r="16.8"/>
<g>
	<path class="st1" d="M214.6-123.6c-1.6,0.9-2.1,3-1.2,4.6c1,1.6,3,2.2,4.7,1.2c1.6-0.9,2.1-3,1.2-4.6
		C218.3-124,216.2-124.6,214.6-123.6"/>
	<polygon class="st1" points="229,-128.1 218.5,-119.3 216.2,-123.2 	"/>
</g>
<g>
	<path class="st1" d="M202.9-121.8h-5.6c0,0.4-0.1,0.7-0.1,1.1c0,0.4,0,0.8,0.1,1.1h5.6V-121.8z"/>
	<path class="st1" d="M205-113.4l-1.1-2l-4.9,2.6c0.3,0.7,0.7,1.4,1.1,2L205-113.4z"/>
</g>
<g>
	<path class="st1" d="M208.7-131.8l2-1.1l-2.8-4.8c-0.7,0.3-1.3,0.7-2,1.1L208.7-131.8z"/>
	<path class="st1" d="M199.3-129.2l4.8,2.8l1.1-2l-4.8-2.8C200-130.6,199.6-129.9,199.3-129.2z"/>
	<path class="st1" d="M229.8-119.6h5.6c0-0.4,0.1-0.7,0.1-1.1c0-0.4,0-0.8-0.1-1.1h-5.6V-119.6z"/>
	<path class="st1" d="M233.8-113l-5-2.5l-1,2l5,2.5C233.1-111.7,233.5-112.3,233.8-113z"/>
	<path class="st1" d="M227-136.6c-0.6-0.4-1.3-0.8-2-1.1l-2.8,4.8l2,1.1L227-136.6z"/>
	<path class="st1" d="M217.5-139.7c-0.4,0-0.7-0.1-1.1-0.1c-0.4,0-0.8,0-1.1,0.1v5.6h2.3V-139.7z"/>
</g>
<path class="st0" d="M216.3-142c-11.8,0-21.3,9.6-21.3,21.3c0,11.8,9.6,21.3,21.3,21.3c11.8,0,21.3-9.6,21.3-21.3
	C237.7-132.5,228.1-142,216.3-142z M216.3-103.9c-9.3,0-16.8-7.5-16.8-16.8c0-9.3,7.5-16.8,16.8-16.8c9.3,0,16.8,7.5,16.8,16.8
	C233.2-111.4,225.6-103.9,216.3-103.9z"/>
<path class="st7" d="M215.8-121.7c-0.5,0.3-0.7,1-0.4,1.5c0.3,0.5,1,0.7,1.6,0.4c0.5-0.3,0.7-1,0.4-1.5
	C217-121.8,216.3-122,215.8-121.7"/>
<path class="st0" d="M319.1-102.9c0,1.6-1.3,2.8-2.8,2.8H271c-1.6,0-2.8-1.3-2.8-2.8v-31.2c0-1.6,1.3-2.8,2.8-2.8h45.3
	c1.6,0,2.8,1.3,2.8,2.8V-102.9z"/>
<path class="st0" d="M306.4-132.7c0,1.6-1.3,2.8-2.8,2.8h-19.8c-1.6,0-2.8-1.3-2.8-2.8v-7.1c0-1.6,1.3-2.8,2.8-2.8h19.8
	c1.6,0,2.8,1.3,2.8,2.8V-132.7z"/>
<circle class="st7" cx="312" cy="-129.8" r="2.8"/>
<circle class="st7" cx="293.6" cy="-118.5" r="14.2"/>
<circle class="st1" cx="293.6" cy="-118.5" r="11.3"/>
<path class="st0" d="M288-112.8c0,1.7,0.4,3.2,1,4.7c1.4,0.6,3,1,4.7,1c6.3,0,11.3-5.1,11.3-11.3c0-1.7-0.4-3.2-1-4.7
	c-1.4-0.6-3-1-4.7-1C293-124.2,288-119.1,288-112.8z"/>
<path class="st8" d="M-629.3,40c0,1.5-1.3,2.8-2.8,2.8h-44.8c-1.5,0-2.8-1.3-2.8-2.8V9.2c0-1.5,1.3-2.8,2.8-2.8h44.8
	c1.5,0,2.8,1.3,2.8,2.8V40z"/>
<path class="st8" d="M-641.9,10.6c0,1.5-1.3,2.8-2.8,2.8h-19.6c-1.5,0-2.8-1.3-2.8-2.8v-7c0-1.5,1.3-2.8,2.8-2.8h19.6
	c1.5,0,2.8,1.3,2.8,2.8V10.6z"/>
<circle class="st9" cx="-636.3" cy="13.4" r="2.8"/>
<circle class="st9" cx="-654.5" cy="24.6" r="14"/>
<circle class="st10" cx="-654.5" cy="24.6" r="11.2"/>
<path class="st8" d="M-660.1,30.2c0,1.6,0.4,3.2,1,4.6c1.4,0.6,3,1,4.6,1c6.2,0,11.2-5,11.2-11.2c0-1.6-0.4-3.2-1-4.6
	c-1.4-0.6-3-1-4.6-1C-655.1,19-660.1,24-660.1,30.2z"/>
<g>
	<path class="st4" d="M377.8-124h-2.5c0-9.2,5.1-9.6,9.2-9.9c4-0.3,7-0.6,7-7.5h2.5c0,9.3-5.1,9.7-9.3,10
		C380.7-131.1,377.8-130.9,377.8-124z"/>
</g>
<rect x="349.1" y="-124" class="st3" width="54.8" height="24.9"/>
<g>
	<rect x="351.6" y="-121.6" class="st5" width="5" height="5"/>
	<rect x="359.1" y="-121.6" class="st5" width="5" height="5"/>
	<rect x="366.6" y="-121.6" class="st5" width="5" height="5"/>
	<rect x="374" y="-121.6" class="st5" width="5" height="5"/>
	<rect x="381.5" y="-121.6" class="st5" width="5" height="5"/>
	<rect x="389" y="-121.6" class="st5" width="5" height="5"/>
	<rect x="396.4" y="-121.6" class="st5" width="5" height="5"/>
	<rect x="351.6" y="-106.6" class="st5" width="5" height="5"/>
	<rect x="359.1" y="-106.6" class="st5" width="5" height="5"/>
	<rect x="366.6" y="-106.6" class="st5" width="19.9" height="5"/>
	<rect x="389" y="-106.6" class="st5" width="5" height="5"/>
	<rect x="396.4" y="-106.6" class="st5" width="5" height="5"/>
	<rect x="351.6" y="-114.1" class="st5" width="8.7" height="5"/>
	<rect x="362.8" y="-114.1" class="st5" width="5" height="5"/>
	<rect x="370.3" y="-114.1" class="st5" width="5" height="5"/>
	<rect x="377.8" y="-114.1" class="st5" width="5" height="5"/>
	<rect x="385.2" y="-114.1" class="st5" width="5" height="5"/>
	<rect x="392.7" y="-114.1" class="st5" width="8.7" height="5"/>
</g>
<path class="st2" d="M434.4-119.8c0,13.5,18.1,20.4,18.1,20.4s18.1-6.8,18.1-20.4c0-5.6,0-19.2,0-19.2c-4.5,0-18.1-3.4-18.1-3.4
	s-13.6,3.4-18.1,3.4C434.4-139,434.4-125.4,434.4-119.8z"/>
<path class="st3" d="M470.6-119.8c0,13.5-18.1,20.4-18.1,20.4v-43c0,0,13.6,3.4,18.1,3.4C470.6-139,470.6-125.4,470.6-119.8z"/>
<path class="st4" d="M466.1-119.8c0,8.2-9.7,13.6-13.6,15.4c-3.9-1.8-13.6-7.3-13.6-15.4v-15.2c4.7-0.7,10.8-2.1,13.6-2.8
	c2.8,0.7,8.8,2.1,13.6,2.8V-119.8z"/>
<path class="st11" d="M466.1-119.8c0,8.2-9.7,13.6-13.6,15.4l0-33.4c2.8,0.7,8.8,2.1,13.6,2.8V-119.8z"/>
<circle class="st6" cx="436.6" cy="-135.6" r="1.1"/>
<circle class="st6" cx="444.6" cy="-137.9" r="1.1"/>
<circle class="st6" cx="452.5" cy="-140.2" r="1.1"/>
<circle class="st6" cx="436.6" cy="-128.8" r="1.1"/>
<circle class="st6" cx="436.6" cy="-122.1" r="1.1"/>
<circle class="st6" cx="437.8" cy="-115.3" r="1.1"/>
<circle class="st6" cx="441.2" cy="-109.6" r="1.1"/>
<circle class="st6" cx="446.8" cy="-105.1" r="1.1"/>
<circle class="st6" cx="468.3" cy="-135.6" r="1.1"/>
<circle class="st6" cx="460.4" cy="-137.9" r="1.1"/>
<circle class="st6" cx="468.3" cy="-128.8" r="1.1"/>
<circle class="st6" cx="468.3" cy="-122.1" r="1.1"/>
<circle class="st6" cx="467.2" cy="-115.3" r="1.1"/>
<circle class="st6" cx="463.8" cy="-109.6" r="1.1"/>
<circle class="st6" cx="458.1" cy="-105.1" r="1.1"/>
<polygon class="st6" points="452.5,-118.8 466.9,-128.9 466.9,-133.4 452.5,-123.4 "/>
<path class="st6" d="M452.5-123.4l-12.4,8.4c0.5,1.1,1.2,2.2,2.1,3.1l10.3-7V-123.4z"/>
<polygon class="st6" points="447.9,-128.8 445.7,-126 443.4,-128.8 445.7,-131.7 "/>
<polygon class="st6" points="461.5,-115.3 459.3,-112.4 457,-115.3 459.3,-118.1 "/>
<path class="st3" d="M522-111.3c0.1-0.4,0.1-0.9,0.1-1.3c0-0.5,0-0.9-0.1-1.3l2.7-1.9c0.3-0.2,0.4-0.6,0.2-0.9l-2.6-4.4
	c-0.2-0.3-0.5-0.4-0.8-0.3l-3,1.4c-0.7-0.6-1.4-1-2.3-1.3l-0.3-3.3c0-0.3-0.3-0.6-0.6-0.6h-5.1c-0.3,0-0.6,0.3-0.6,0.6l-0.4,3.4
	c-0.9,0.3-1.5,0.8-2.3,1.3l-3-1.3c-0.3-0.1-0.7,0-0.8,0.3l-2.6,4.4c-0.2,0.3-0.1,0.7,0.2,0.9l2.7,1.9c-0.1,0.4-0.1,0.9-0.1,1.3
	c0,0.5,0,0.9,0.1,1.3l-2.7,1.9c-0.3,0.2-0.4,0.6-0.2,0.9l2.6,4.4c0.2,0.3,0.5,0.4,0.8,0.3l3-1.3c0.7,0.6,1.4,1,2.3,1.3l0.3,3.3
	c0,0.3,0.3,0.6,0.6,0.6h5.1c0.3,0,0.6-0.3,0.6-0.6l0.3-3.3c0.9-0.3,1.5-0.8,2.3-1.3l3,1.3c0.3,0.1,0.7,0,0.8-0.3l2.6-4.4
	c0.2-0.3,0.1-0.7-0.2-0.9L522-111.3z M512.8-107.8c-2.7,0-4.8-2.1-4.8-4.8c0-2.7,2.1-4.8,4.8-4.8c2.7,0,4.8,2.1,4.8,4.8
	C517.6-109.9,515.5-107.8,512.8-107.8z"/>
<path class="st4" d="M537.7-129.6c0.1-0.5,0.1-0.9,0.1-1.2c0-0.4,0-0.8-0.1-1.2l2.4-1.7c0.3-0.2,0.3-0.5,0.2-0.8l-2.4-4.1
	c-0.2-0.3-0.5-0.4-0.8-0.2l-2.8,1.2c-0.7-0.5-1.3-0.9-2.1-1.2l-0.3-3c0.1-0.3-0.1-0.5-0.4-0.5h-4.7c-0.3,0-0.6,0.2-0.6,0.5l-0.3,3
	c-0.8,0.3-1.4,0.7-2.1,1.2l-2.8-1.2c-0.3-0.1-0.6,0-0.8,0.2l-2.4,4.1c-0.2,0.3-0.1,0.6,0.2,0.8l2.4,1.7c0,0.5,0,0.9,0,1.2
	c0,0.4,0,0.8,0.1,1.2l-2.4,1.7c-0.3,0.2-0.3,0.5-0.2,0.8l2.4,4.1c0.2,0.3,0.5,0.4,0.8,0.2l2.8-1.2c0.7,0.5,1.3,0.9,2.1,1.2l0.3,3
	c0,0.3,0.3,0.5,0.6,0.5h4.7c0.3,0,0.6-0.2,0.6-0.5l0.3-3c0.8-0.3,1.4-0.7,2.1-1.2l2.8,1.2c0.3,0.1,0.6,0,0.8-0.2l2.4-4.1
	c0.2-0.3,0.1-0.6-0.2-0.8L537.7-129.6z M529.1-126.1c-2.7,0-4.8-2.1-4.8-4.8c0-2.7,2.1-4.8,4.8-4.8c2.7,0,4.8,2.1,4.8,4.8
	C533.9-128.2,531.8-126.1,529.1-126.1z"/>
<rect x="-554.7" y="14.8" class="st12" width="4.9" height="28.2"/>
<rect x="-562.1" y="23.4" class="st13" width="4.9" height="19.6"/>
<rect x="-569.5" y="17.3" class="st12" width="4.9" height="25.8"/>
<rect x="-576.8" y="24.6" class="st13" width="4.9" height="18.4"/>
<rect x="-584.2" y="28.3" class="st12" width="4.9" height="14.7"/>
<rect x="-591.5" y="25.9" class="st13" width="4.9" height="17.2"/>
<rect x="-598.9" y="30.8" class="st12" width="4.9" height="12.3"/>
<g>
	<polygon class="st12" points="-554.6,0.2 -562.1,7.7 -567,2.8 -579.3,15.1 -585.4,8.9 -598.2,21.7 -594.7,25.1 -585.4,15.8 
		-579.3,21.9 -567,9.7 -562.1,14.6 -551.2,3.7 	"/>
	<polygon class="st12" points="-549.8,-1.1 -560.9,-1.1 -549.8,9.9 	"/>
</g>
<circle class="st9" cx="-498.7" cy="21.4" r="16.8"/>
<g>
	<path class="st10" d="M-500.4,18.5c-1.6,0.9-2.1,3-1.2,4.6c1,1.6,3,2.1,4.6,1.2c1.6-0.9,2.1-3,1.2-4.6
		C-496.7,18.1-498.8,17.5-500.4,18.5"/>
	<polygon class="st10" points="-486.1,14 -496.6,22.7 -498.9,18.9 	"/>
</g>
<g>
	<path class="st10" d="M-512.1,20.2h-5.5c0,0.4-0.1,0.7-0.1,1.1c0,0.4,0,0.8,0.1,1.1h5.5V20.2z"/>
	<path class="st10" d="M-510,28.7l-1.1-2l-4.9,2.6c0.3,0.7,0.7,1.3,1.1,2L-510,28.7z"/>
</g>
<g>
	<path class="st10" d="M-506.3,10.3l2-1.1l-2.7-4.8c-0.7,0.3-1.3,0.7-2,1.1L-506.3,10.3z"/>
	<path class="st10" d="M-515.7,12.9l4.8,2.8l1.1-2l-4.8-2.8C-515,11.5-515.4,12.2-515.7,12.9z"/>
	<path class="st10" d="M-485.3,22.5h5.5c0-0.4,0.1-0.7,0.1-1.1c0-0.4,0-0.8-0.1-1.1h-5.5V22.5z"/>
	<path class="st10" d="M-481.3,29l-4.9-2.5l-1,2l4.9,2.5C-482,30.4-481.6,29.7-481.3,29z"/>
	<path class="st10" d="M-488.1,5.6c-0.6-0.4-1.3-0.8-2-1.1l-2.8,4.8l1.9,1.1L-488.1,5.6z"/>
	<path class="st10" d="M-497.6,2.4c-0.4,0-0.7-0.1-1.1-0.1c-0.4,0-0.8,0-1.1,0.1V8h2.3V2.4z"/>
</g>
<path class="st8" d="M-498.7,0.1c-11.7,0-21.2,9.5-21.2,21.2s9.5,21.2,21.2,21.2s21.2-9.5,21.2-21.2S-487,0.1-498.7,0.1z
	 M-498.7,38.1c-9.3,0-16.8-7.5-16.8-16.8c0-9.3,7.5-16.8,16.8-16.8s16.8,7.5,16.8,16.8C-482,30.6-489.5,38.1-498.7,38.1z"/>
<path class="st9" d="M-499.3,20.4c-0.5,0.3-0.7,1-0.4,1.5c0.3,0.5,1,0.7,1.5,0.4c0.5-0.3,0.7-1,0.4-1.5
	C-498,20.3-498.7,20.1-499.3,20.4"/>
<path class="st14" d="M-447.4,27.3v11.3c0,2.5,2,4.5,4.5,4.5h31.6c2.5,0,4.5-2,4.5-4.5V27.3H-447.4z"/>
<path class="st12" d="M-406.8,27.3c0,2.5-2,4.5-4.5,4.5h-31.6c-2.5,0-4.5-2-4.5-4.5l3.4-13.5c0.2-2.4,2-4.5,4.5-4.5h24.8
	c2.5,0,4.2,2,4.5,4.5L-406.8,27.3z"/>
<circle class="st9" cx="-414.7" cy="37.5" r="2.3"/>
<g>
	<ellipse class="st9" cx="-425.4" cy="6.3" rx="6.2" ry="6.1"/>
	<ellipse class="st9" cx="-424" cy="16.7" rx="5.1" ry="5"/>
	<ellipse class="st9" cx="-431" cy="12" rx="5.1" ry="5"/>
	<ellipse class="st9" cx="-410.1" cy="11.7" rx="4.4" ry="4.3"/>
	<ellipse class="st9" cx="-415.9" cy="15.1" rx="4.4" ry="4.3"/>
	<ellipse class="st9" cx="-415.6" cy="8.3" rx="4.8" ry="4.6"/>
	<ellipse class="st9" cx="-420.9" cy="11" rx="5.1" ry="5"/>
</g>
<path class="st15" d="M-630.3,182c0,1.5-1.2,2.8-2.8,2.8h-44.4c-1.5,0-2.8-1.2-2.8-2.8v-30.6c0-1.5,1.2-2.8,2.8-2.8h44.4
	c1.5,0,2.8,1.2,2.8,2.8V182z"/>
<path class="st15" d="M-642.8,152.9c0,1.5-1.2,2.8-2.8,2.8H-665c-1.5,0-2.8-1.2-2.8-2.8v-6.9c0-1.5,1.2-2.8,2.8-2.8h19.4
	c1.5,0,2.8,1.2,2.8,2.8V152.9z"/>
<circle class="st16" cx="-637.3" cy="155.7" r="2.8"/>
<circle class="st16" cx="-655.3" cy="166.8" r="13.9"/>
<circle class="st17" cx="-655.3" cy="166.8" r="11.1"/>
<path class="st15" d="M-660.9,172.3c0,1.6,0.4,3.2,1,4.6c1.4,0.6,2.9,1,4.6,1c6.1,0,11.1-5,11.1-11.1c0-1.6-0.4-3.2-1-4.6
	c-1.4-0.6-2.9-1-4.6-1C-655.9,161.2-660.9,166.2-660.9,172.3z"/>
<rect x="-558.3" y="158" class="st18" width="4.7" height="26.8"/>
<rect x="-565.3" y="166.2" class="st19" width="4.7" height="18.7"/>
<rect x="-572.3" y="160.3" class="st18" width="4.7" height="24.5"/>
<rect x="-579.3" y="167.3" class="st19" width="4.7" height="17.5"/>
<rect x="-586.3" y="170.8" class="st18" width="4.7" height="14"/>
<rect x="-593.3" y="168.5" class="st19" width="4.7" height="16.3"/>
<rect x="-600.3" y="173.2" class="st18" width="4.7" height="11.7"/>
<g>
	<polygon class="st18" points="-558.2,144.1 -565.3,151.2 -570,146.6 -581.7,158.2 -587.5,152.4 -599.6,164.5 -596.4,167.8 
		-587.5,158.9 -581.7,164.8 -570,153.1 -565.3,157.8 -554.9,147.4 	"/>
	<polygon class="st18" points="-553.7,142.8 -564.2,142.8 -553.7,153.3 	"/>
</g>
<circle class="st16" cx="-502.4" cy="163.9" r="16.5"/>
<g>
	<path class="st17" d="M-504.1,161.1c-1.6,0.9-2.1,2.9-1.2,4.5c0.9,1.6,3,2.1,4.6,1.2c1.6-0.9,2.1-2.9,1.2-4.5
		C-500.5,160.7-502.5,160.1-504.1,161.1"/>
	<polygon class="st17" points="-490,156.7 -500.3,165.3 -502.6,161.5 	"/>
</g>
<g>
	<path class="st17" d="M-515.6,162.8h-5.4c0,0.4-0.1,0.7-0.1,1.1c0,0.4,0,0.7,0.1,1.1h5.4V162.8z"/>
	<path class="st17" d="M-513.5,171.1l-1-2l-4.8,2.6c0.3,0.7,0.7,1.3,1,2L-513.5,171.1z"/>
</g>
<g>
	<path class="st17" d="M-509.9,153l1.9-1.1l-2.7-4.7c-0.7,0.3-1.3,0.7-1.9,1.1L-509.9,153z"/>
	<path class="st17" d="M-519.1,155.6l4.7,2.7l1.1-1.9l-4.7-2.7C-518.4,154.3-518.8,154.9-519.1,155.6z"/>
	<path class="st17" d="M-489.3,165h5.4c0-0.4,0.1-0.7,0.1-1.1c0-0.4,0-0.7-0.1-1.1h-5.4V165z"/>
	<path class="st17" d="M-485.4,171.4l-4.9-2.5l-1,2l4.8,2.5C-486,172.7-485.7,172.1-485.4,171.4z"/>
	<path class="st17" d="M-492,148.4c-0.6-0.4-1.3-0.8-1.9-1.1l-2.8,4.7l1.9,1.1L-492,148.4z"/>
	<path class="st17" d="M-501.3,145.3c-0.4,0-0.7-0.1-1.1-0.1c-0.4,0-0.7,0-1.1,0.1v5.4h2.2V145.3z"/>
</g>
<path class="st15" d="M-502.4,143.1c-11.5,0-20.9,9.3-20.9,20.9c0,11.5,9.3,20.9,20.9,20.9c11.5,0,20.9-9.3,20.9-20.9
	C-481.6,152.4-490.9,143.1-502.4,143.1z M-502.4,180.4c-9.1,0-16.5-7.4-16.5-16.5c0-9.1,7.4-16.5,16.5-16.5
	c9.1,0,16.5,7.4,16.5,16.5C-486,173-493.3,180.4-502.4,180.4z"/>
<path class="st16" d="M-503,163c-0.5,0.3-0.7,1-0.4,1.5c0.3,0.5,1,0.7,1.5,0.4c0.5-0.3,0.7-1,0.4-1.5
	C-501.8,162.8-502.4,162.7-503,163"/>
<path class="st19" d="M-450.4,169.7v11.2c0,2.5,2,4.5,4.5,4.5h31.3c2.5,0,4.5-2,4.5-4.5v-11.2H-450.4z"/>
<path class="st18" d="M-410.2,169.7c0,2.5-2,4.5-4.5,4.5h-31.3c-2.5,0-4.5-2-4.5-4.5l3.4-13.4c0.2-2.3,2-4.5,4.5-4.5h24.6
	c2.5,0,4.1,2,4.5,4.5L-410.2,169.7z"/>
<circle class="st16" cx="-418" cy="179.8" r="2.2"/>
<g>
	<ellipse class="st20" cx="-428.6" cy="148.9" rx="6.2" ry="6"/>
	<ellipse class="st20" cx="-427.2" cy="159.2" rx="5.1" ry="5"/>
	<ellipse class="st20" cx="-434.1" cy="154.6" rx="5.1" ry="5"/>
	<ellipse class="st20" cx="-413.4" cy="154.3" rx="4.4" ry="4.2"/>
	<ellipse class="st20" cx="-419.2" cy="157.7" rx="4.4" ry="4.2"/>
	<ellipse class="st20" cx="-418.8" cy="150.9" rx="4.7" ry="4.6"/>
	<ellipse class="st20" cx="-424.2" cy="153.6" rx="5.1" ry="5"/>
</g>
<g>
	
		<rect x="-343.6" y="26" transform="matrix(-0.707 0.7072 -0.7072 -0.707 -557.9009 301.475)" class="st12" width="4.3" height="18.3"/>
	<circle class="st12" cx="-359.2" cy="17.4" r="17.2"/>
</g>
<rect x="-341.8" y="30.3" transform="matrix(-0.7072 0.707 -0.707 -0.7072 -553.6588 303.2063)" class="st14" width="4.3" height="13.2"/>
<circle class="st9" cx="-359.2" cy="17.4" r="14"/>
<path class="st6" d="M-351.8,11.1c-1.8-2.1-4.5-3.4-7.4-3.4c-2.9,0-5.6,1.3-7.4,3.4c-0.4,0.4-0.3,1.2,0.1,1.5
	c0.4,0.4,1.2,0.3,1.5-0.1c1.5-1.7,3.5-2.7,5.8-2.7c2.3,0,4.3,1,5.8,2.7c0.2,0.2,0.5,0.4,0.9,0.4c0.2,0,0.5-0.1,0.6-0.2
	C-351.5,12.3-351.5,11.6-351.8,11.1z"/>
<path class="st8" d="M-304.1,22.6c0,13.4,18,20.2,18,20.2s18-6.7,18-20.2c0-5.5,0-19.1,0-19.1c-4.4,0-18-3.4-18-3.4
	s-13.5,3.4-18,3.4C-304.1,3.5-304.1,17-304.1,22.6z"/>
<path class="st10" d="M-268.2,22.6c0,13.4-18,20.2-18,20.2V0.1c0,0,13.5,3.4,18,3.4C-268.2,3.5-268.2,17-268.2,22.6z"/>
<path class="st9" d="M-272.6,22.6c0,8.1-9.6,13.5-13.5,15.3c-3.9-1.8-13.5-7.2-13.5-15.3v-15c4.7-0.7,10.7-2.1,13.5-2.8
	c2.7,0.7,8.8,2.1,13.5,2.8V22.6z"/>
<path class="st21" d="M-272.6,22.6c0,8.1-9.6,13.5-13.5,15.3l0-33.1c2.7,0.7,8.8,2.1,13.5,2.8V22.6z"/>
<circle class="st6" cx="-301.8" cy="6.9" r="1.1"/>
<circle class="st6" cx="-294" cy="4.6" r="1.1"/>
<circle class="st6" cx="-286.1" cy="2.4" r="1.1"/>
<circle class="st6" cx="-301.8" cy="13.6" r="1.1"/>
<circle class="st6" cx="-301.8" cy="20.3" r="1.1"/>
<circle class="st6" cx="-300.7" cy="27.1" r="1.1"/>
<circle class="st6" cx="-297.3" cy="32.7" r="1.1"/>
<circle class="st6" cx="-291.7" cy="37.2" r="1.1"/>
<circle class="st6" cx="-270.4" cy="6.9" r="1.1"/>
<circle class="st6" cx="-278.3" cy="4.6" r="1.1"/>
<circle class="st6" cx="-270.4" cy="13.6" r="1.1"/>
<circle class="st6" cx="-270.4" cy="20.3" r="1.1"/>
<circle class="st6" cx="-271.5" cy="27.1" r="1.1"/>
<circle class="st6" cx="-274.9" cy="32.7" r="1.1"/>
<circle class="st6" cx="-280.5" cy="37.2" r="1.1"/>
<polygon class="st6" points="-286.1,23.5 -272.6,14.4 -272.6,9.9 -286.1,19 "/>
<path class="st6" d="M-286.1,19l-12.3,8.4c0.5,1.1,1.2,2.1,2,3.1l10.3-7L-286.1,19z"/>
<polygon class="st6" points="-290.6,13.6 -292.8,16.4 -295.1,13.6 -292.8,10.8 "/>
<polygon class="st6" points="-277.1,27.1 -279.4,29.9 -281.6,27.1 -279.4,24.3 "/>
<circle class="st14" cx="-193.3" cy="8.6" r="8.4"/>
<circle class="st14" cx="-218.6" cy="8.6" r="8.4"/>
<path class="st12" d="M-174,21.3l-21.5,4.2h-20.7l-21.5-4.2l6-11.1c1.5-2.7,4.4-4.4,7.5-4.4h36.8c3.1,0,5.9,1.7,7.5,4.4L-174,21.3z"
	/>
<circle class="st14" cx="-186.3" cy="28.3" r="14.1"/>
<circle class="st14" cx="-225.6" cy="28.3" r="14.1"/>
<circle class="st14" cx="-206" cy="25.5" r="7"/>
<circle class="st9" cx="-206" cy="25.5" r="2.8"/>
<g>
	<circle class="st9" cx="-186.3" cy="28.3" r="9.8"/>
	<circle class="st9" cx="-225.6" cy="28.3" r="9.8"/>
</g>
<g>
	<path class="st6" d="M-181.1,25.1c-1.4-1.5-3.2-2.4-5.2-2.4c-2,0-3.9,0.8-5.2,2.4c-0.6,0.6-0.4,1.4,0.1,2c0.6,0.6,1.4,0.4,2-0.1
		c1.7-1.8,4.6-1.8,6.3,0c0.3,0.3,0.7,0.4,1,0.4c0.3,0,0.7-0.1,1-0.4C-180.5,26.5-180.5,25.6-181.1,25.1z"/>
	<path class="st6" d="M-225.6,22.7c-2,0-3.9,0.8-5.2,2.4c-0.6,0.6-0.4,1.4,0.1,2c0.6,0.6,1.4,0.4,2-0.1c1.7-1.8,4.6-1.8,6.3,0
		c0.3,0.3,0.7,0.4,1,0.4c0.3,0,0.7-0.1,1-0.4c0.6-0.6,0.6-1.4,0.1-2C-221.7,23.5-223.7,22.7-225.6,22.7z"/>
</g>
<path class="st10" d="M-120,19.1h13.8l6.4,6.4v-18c0-2.3-1.9-4.2-4.2-4.2H-120c-2.3,0-4.2,1.9-4.2,4.2v7.4
	C-124.2,17.2-122.3,19.1-120,19.1z"/>
<path class="st12" d="M-122.1,15.9h-13.8l-6.4,6.4v-18c0-2.3,1.9-4.2,4.2-4.2h15.9c2.3,0,4.2,1.9,4.2,4.2v7.4
	C-117.9,14-119.8,15.9-122.1,15.9z"/>
<g>
	<circle class="st12" cx="-133.7" cy="28.6" r="5.3"/>
	<circle class="st12" cx="-108.3" cy="28.6" r="5.3"/>
</g>
<g>
	<path class="st10" d="M-125.3,40.2c0,0-2.3-4.2-8.5-4.2c-6.1,0-8.5,4.2-8.5,4.2v2.1h16.9V40.2L-125.3,40.2z"/>
	<path class="st10" d="M-99.9,40.2c0,0-2.3-4.2-8.5-4.2s-8.5,4.2-8.5,4.2v2.1h16.9V40.2z"/>
</g>
<path class="st14" d="M-49,30.7c0.1-0.4,0.1-0.8,0.1-1.3c0-0.5,0-0.8-0.1-1.3l2.6-1.9c0.3-0.2,0.4-0.6,0.2-0.8l-2.5-4.3
	c-0.2-0.3-0.5-0.4-0.7-0.3l-2.9,1.4c-0.7-0.6-1.4-0.9-2.2-1.3l-0.3-3.2c0-0.3-0.3-0.6-0.6-0.6h-5c-0.3,0-0.6,0.3-0.6,0.6l-0.4,3.3
	c-0.8,0.3-1.5,0.7-2.2,1.3l-2.9-1.3c-0.3-0.1-0.7,0-0.7,0.3l-2.5,4.3c-0.2,0.3-0.1,0.7,0.2,0.8l2.6,1.9c-0.1,0.4-0.1,0.8-0.1,1.3
	c0,0.5,0,0.8,0.1,1.3l-2.6,1.9c-0.3,0.2-0.4,0.6-0.2,0.8l2.5,4.3c0.2,0.3,0.5,0.4,0.7,0.3l2.9-1.3c0.7,0.6,1.4,0.9,2.2,1.3l0.3,3.2
	c0,0.3,0.3,0.6,0.6,0.6h5c0.3,0,0.6-0.3,0.6-0.6l0.3-3.2c0.8-0.3,1.5-0.8,2.2-1.3l2.9,1.3c0.3,0.1,0.7,0,0.7-0.3l2.5-4.3
	c0.2-0.3,0.1-0.7-0.2-0.8L-49,30.7z M-58,34c-2.6,0-4.7-2.1-4.7-4.7c0-2.6,2.1-4.7,4.7-4.7c2.6,0,4.7,2.1,4.7,4.7
	C-53.3,32-55.4,34-58,34z"/>
<path class="st12" d="M-33.7,12.8c0.1-0.5,0.1-0.8,0.1-1.2c0-0.4,0-0.7-0.1-1.2l2.3-1.7c0.3-0.2,0.3-0.5,0.2-0.7l-2.3-4
	c-0.2-0.3-0.5-0.4-0.8-0.2L-37,4.9c-0.7-0.5-1.3-0.8-2.1-1.2l-0.3-2.9c0.1-0.3-0.1-0.5-0.4-0.5h-4.6c-0.3,0-0.6,0.2-0.6,0.5
	l-0.3,2.9c-0.7,0.3-1.4,0.7-2.1,1.2l-2.7-1.2c-0.3-0.1-0.6,0-0.7,0.2l-2.3,4c-0.2,0.3-0.1,0.6,0.2,0.7l2.3,1.7c0,0.5,0,0.8,0,1.2
	c0,0.4,0,0.7,0.1,1.2l-2.3,1.7c-0.3,0.2-0.3,0.5-0.2,0.8l2.3,4c0.2,0.3,0.5,0.4,0.7,0.2l2.7-1.2c0.7,0.5,1.3,0.8,2.1,1.2l0.3,2.9
	c0,0.3,0.3,0.5,0.6,0.5h4.6c0.3,0,0.6-0.2,0.6-0.5l0.3-2.9c0.7-0.3,1.4-0.7,2.1-1.2l2.7,1.2c0.3,0.1,0.6,0,0.8-0.2l2.3-4
	c0.2-0.3,0.1-0.6-0.2-0.8L-33.7,12.8z M-42.1,16.3c-2.6,0-4.7-2.1-4.7-4.7c0-2.6,2.1-4.7,4.7-4.7c2.6,0,4.7,2.1,4.7,4.7
	C-37.4,14.2-39.4,16.3-42.1,16.3z"/>
<g>
	<path class="st8" d="M28.8,17.5h-2.5c0-9.2,5.1-9.6,9.2-9.9c4.1-0.3,7-0.6,7-7.6H45c0,9.3-5.2,9.7-9.3,10.1
		C31.7,10.4,28.8,10.6,28.8,17.5z"/>
</g>
<rect y="17.5" class="st10" width="55" height="25"/>
<g>
	<rect x="2.5" y="20" class="st8" width="5" height="5"/>
	<rect x="10" y="20" class="st8" width="5" height="5"/>
	<rect x="17.5" y="20" class="st8" width="5" height="5"/>
	<rect x="25" y="20" class="st8" width="5" height="5"/>
	<rect x="32.5" y="20" class="st8" width="5" height="5"/>
	<rect x="40" y="20" class="st8" width="5" height="5"/>
	<rect x="47.5" y="20" class="st8" width="5" height="5"/>
	<rect x="2.5" y="35" class="st8" width="5" height="5"/>
	<rect x="10" y="35" class="st8" width="5" height="5"/>
	<rect x="17.5" y="35" class="st8" width="20" height="5"/>
	<rect x="40" y="35" class="st8" width="5" height="5"/>
	<rect x="47.5" y="35" class="st8" width="5" height="5"/>
	<rect x="2.5" y="27.5" class="st8" width="8.8" height="5"/>
	<rect x="13.8" y="27.5" class="st8" width="5" height="5"/>
	<rect x="21.2" y="27.5" class="st8" width="5" height="5"/>
	<rect x="28.8" y="27.5" class="st8" width="5" height="5"/>
	<rect x="36.2" y="27.5" class="st8" width="5" height="5"/>
	<rect x="43.8" y="27.5" class="st8" width="8.8" height="5"/>
</g>
<g>
	
		<rect x="-346.9" y="168.4" transform="matrix(-0.707 0.7072 -0.7072 -0.707 -463.1815 546.5493)" class="st15" width="4.2" height="17.9"/>
	<circle class="st15" cx="-362.3" cy="159.9" r="16.8"/>
</g>
<rect x="-345.2" y="172.6" transform="matrix(-0.7072 0.707 -0.707 -0.7072 -459.0211 548.2787)" class="st17" width="4.2" height="12.9"/>
<circle class="st20" cx="-362.3" cy="159.9" r="13.7"/>
<path class="st6" d="M-355,153.8c-1.8-2.1-4.4-3.4-7.3-3.4c-2.8,0-5.5,1.3-7.3,3.4c-0.4,0.4-0.3,1.2,0.1,1.5
	c0.4,0.4,1.2,0.3,1.5-0.1c1.5-1.7,3.5-2.6,5.7-2.6c2.2,0,4.2,0.9,5.7,2.6c0.2,0.2,0.5,0.4,0.8,0.4c0.2,0,0.5-0.1,0.6-0.2
	C-354.7,154.9-354.7,154.2-355,153.8z"/>
<path class="st15" d="M-306.1,164.3c0,12.9,17.3,19.5,17.3,19.5s17.3-6.5,17.3-19.5c0-5.4,0-18.4,0-18.4c-4.3,0-17.3-3.3-17.3-3.3
	s-13.1,3.3-17.3,3.3C-306.1,145.9-306.1,159-306.1,164.3z"/>
<path class="st17" d="M-271.4,164.3c0,12.9-17.3,19.5-17.3,19.5v-41.2c0,0,13.1,3.3,17.3,3.3C-271.4,145.9-271.4,159-271.4,164.3z"
	/>
<path class="st20" d="M-275.7,164.3c0,7.8-9.3,13-13,14.8c-3.7-1.8-13-6.9-13-14.8v-14.5c4.5-0.7,10.4-2.1,13-2.7
	c2.7,0.6,8.5,2,13,2.7V164.3z"/>
<path class="st22" d="M-275.7,164.3c0,7.8-9.3,13-13,14.8l0-32c2.7,0.6,8.5,2,13,2.7V164.3z"/>
<circle class="st6" cx="-303.9" cy="149.1" r="1.1"/>
<circle class="st6" cx="-296.3" cy="147" r="1.1"/>
<circle class="st6" cx="-288.7" cy="144.8" r="1.1"/>
<circle class="st6" cx="-303.9" cy="155.6" r="1.1"/>
<circle class="st6" cx="-303.9" cy="162.1" r="1.1"/>
<circle class="st6" cx="-302.8" cy="168.7" r="1.1"/>
<circle class="st6" cx="-299.6" cy="174.1" r="1.1"/>
<circle class="st6" cx="-294.1" cy="178.4" r="1.1"/>
<circle class="st6" cx="-273.5" cy="149.1" r="1.1"/>
<circle class="st6" cx="-281.1" cy="147" r="1.1"/>
<circle class="st6" cx="-273.5" cy="155.6" r="1.1"/>
<circle class="st6" cx="-273.5" cy="162.1" r="1.1"/>
<circle class="st6" cx="-274.6" cy="168.7" r="1.1"/>
<circle class="st6" cx="-277.9" cy="174.1" r="1.1"/>
<circle class="st6" cx="-283.3" cy="178.4" r="1.1"/>
<polygon class="st6" points="-288.7,165.2 -275.7,156.4 -275.7,152 -288.7,160.9 "/>
<path class="st6" d="M-288.7,160.9l-11.9,8.1c0.5,1.1,1.2,2.1,2,3l9.9-6.7L-288.7,160.9z"/>
<polygon class="st6" points="-293.1,155.6 -295.2,158.4 -297.4,155.6 -295.2,152.9 "/>
<polygon class="st6" points="-280,168.7 -282.2,171.4 -284.4,168.7 -282.2,165.9 "/>
<circle class="st19" cx="-195.1" cy="151.4" r="8.4"/>
<circle class="st19" cx="-220.4" cy="151.4" r="8.4"/>
<path class="st18" d="M-175.9,164l-21.4,4.2H-218l-21.4-4.2l6-11.1c1.5-2.7,4.3-4.3,7.4-4.3h36.7c3.1,0,5.9,1.7,7.4,4.3L-175.9,164z
	"/>
<circle class="st19" cx="-188.1" cy="171" r="14"/>
<circle class="st19" cx="-227.4" cy="171" r="14"/>
<circle class="st19" cx="-207.8" cy="168.2" r="7"/>
<circle class="st20" cx="-207.8" cy="168.2" r="2.8"/>
<g>
	<circle class="st20" cx="-188.1" cy="171" r="9.8"/>
	<circle class="st20" cx="-227.4" cy="171" r="9.8"/>
</g>
<g>
	<path class="st6" d="M-183,167.8c-1.4-1.5-3.2-2.4-5.2-2.4c-2,0-3.9,0.8-5.2,2.4c-0.6,0.6-0.4,1.4,0.1,2c0.6,0.6,1.4,0.4,2-0.1
		c1.7-1.8,4.6-1.8,6.3,0c0.3,0.3,0.7,0.4,1,0.4c0.3,0,0.7-0.1,1-0.4C-182.4,169.2-182.4,168.4-183,167.8z"/>
	<path class="st6" d="M-227.4,165.4c-2,0-3.9,0.8-5.2,2.4c-0.6,0.6-0.4,1.4,0.1,2c0.6,0.6,1.4,0.4,2-0.1c1.7-1.8,4.6-1.8,6.3,0
		c0.3,0.3,0.7,0.4,1,0.4c0.3,0,0.7-0.1,1-0.4c0.6-0.6,0.6-1.4,0.1-2C-223.5,166.3-225.4,165.4-227.4,165.4z"/>
</g>
<path class="st17" d="M-123.7,161.8h13.5l6.2,6.2v-17.7c0-2.3-1.9-4.2-4.2-4.2h-15.6c-2.3,0-4.2,1.9-4.2,4.2v7.3
	C-127.8,160-126,161.8-123.7,161.8z"/>
<path class="st15" d="M-125.8,158.7h-13.5l-6.2,6.2v-17.7c0-2.3,1.9-4.2,4.2-4.2h15.6c2.3,0,4.2,1.9,4.2,4.2v7.3
	C-121.6,156.8-123.5,158.7-125.8,158.7z"/>
<g>
	<circle class="st15" cx="-137.2" cy="171.2" r="5.2"/>
	<circle class="st15" cx="-112.3" cy="171.2" r="5.2"/>
</g>
<g>
	<path class="st17" d="M-128.9,182.6c0,0-2.3-4.2-8.3-4.2c-6,0-8.3,4.2-8.3,4.2v2.1h16.6V182.6L-128.9,182.6z"/>
	<path class="st17" d="M-104,182.6c0,0-2.3-4.2-8.3-4.2c-6,0-8.3,4.2-8.3,4.2v2.1h16.6V182.6z"/>
</g>
<path class="st19" d="M-52.8,173.1c0.1-0.4,0.1-0.9,0.1-1.3c0-0.5,0-0.9-0.1-1.3l2.7-1.9c0.3-0.2,0.4-0.6,0.2-0.9l-2.6-4.4
	c-0.2-0.3-0.5-0.4-0.8-0.3l-2.9,1.4c-0.7-0.6-1.4-0.9-2.3-1.3l-0.3-3.2c0-0.3-0.3-0.6-0.6-0.6h-5c-0.3,0-0.6,0.3-0.6,0.6l-0.4,3.3
	c-0.9,0.3-1.5,0.8-2.3,1.3l-2.9-1.3c-0.3-0.1-0.7,0-0.8,0.3l-2.6,4.4c-0.2,0.3-0.1,0.7,0.2,0.9l2.7,1.9c-0.1,0.4-0.1,0.9-0.1,1.3
	c0,0.5,0,0.9,0.1,1.3l-2.7,1.9c-0.3,0.2-0.4,0.6-0.2,0.9l2.6,4.4c0.2,0.3,0.5,0.4,0.8,0.3l2.9-1.3c0.7,0.6,1.4,0.9,2.3,1.3l0.3,3.2
	c0,0.3,0.3,0.6,0.6,0.6h5c0.3,0,0.6-0.3,0.6-0.6l0.3-3.2c0.9-0.3,1.5-0.8,2.3-1.3l2.9,1.3c0.3,0.1,0.7,0,0.8-0.3l2.6-4.4
	c0.2-0.3,0.1-0.7-0.2-0.9L-52.8,173.1z M-61.9,176.5c-2.7,0-4.7-2.1-4.7-4.7c0-2.7,2.1-4.7,4.7-4.7c2.7,0,4.7,2.1,4.7,4.7
	C-57.2,174.5-59.3,176.5-61.9,176.5z"/>
<path class="st18" d="M-37.4,155c0.1-0.5,0.1-0.9,0.1-1.2c0-0.4,0-0.8-0.1-1.2l2.4-1.7c0.3-0.2,0.3-0.5,0.2-0.8l-2.4-4.1
	c-0.2-0.3-0.5-0.4-0.8-0.2l-2.7,1.2c-0.7-0.5-1.3-0.9-2.1-1.2l-0.3-2.9c0.1-0.3-0.1-0.5-0.4-0.5h-4.6c-0.3,0-0.6,0.2-0.6,0.5
	l-0.3,2.9c-0.8,0.3-1.4,0.7-2.1,1.2l-2.7-1.2c-0.3-0.1-0.6,0-0.8,0.2l-2.4,4.1c-0.2,0.3-0.1,0.6,0.2,0.8l2.4,1.7c0,0.5,0,0.9,0,1.2
	c0,0.4,0,0.8,0.1,1.2l-2.4,1.7c-0.3,0.2-0.3,0.5-0.2,0.8l2.4,4.1c0.2,0.3,0.5,0.4,0.8,0.2l2.7-1.2c0.7,0.5,1.3,0.9,2.1,1.2l0.3,2.9
	c0,0.3,0.3,0.5,0.6,0.5h4.6c0.3,0,0.6-0.2,0.6-0.5l0.3-2.9c0.8-0.3,1.4-0.7,2.1-1.2l2.7,1.2c0.3,0.1,0.6,0,0.8-0.2l2.4-4.1
	c0.2-0.3,0.1-0.6-0.2-0.8L-37.4,155z M-45.8,158.5c-2.7,0-4.7-2.1-4.7-4.7c0-2.7,2.1-4.7,4.7-4.7c2.7,0,4.7,2.1,4.7,4.7
	C-41.1,156.5-43.2,158.5-45.8,158.5z"/>
<g>
	<path class="st15" d="M23.9,160.2h-2.4c0-9,5-9.3,9-9.7c4-0.3,6.8-0.5,6.8-7.4h2.4c0,9.1-5,9.5-9.1,9.8
		C26.7,153.3,23.9,153.5,23.9,160.2z"/>
</g>
<rect x="-4.1" y="160.2" class="st17" width="53.5" height="24.3"/>
<g>
	<rect x="-1.7" y="162.7" class="st15" width="4.9" height="4.9"/>
	<rect x="5.6" y="162.7" class="st15" width="4.9" height="4.9"/>
	<rect x="12.9" y="162.7" class="st15" width="4.9" height="4.9"/>
	<rect x="20.2" y="162.7" class="st15" width="4.9" height="4.9"/>
	<rect x="27.5" y="162.7" class="st15" width="4.9" height="4.9"/>
	<rect x="34.8" y="162.7" class="st15" width="4.9" height="4.9"/>
	<rect x="42.1" y="162.7" class="st15" width="4.9" height="4.9"/>
	<rect x="-1.7" y="177.3" class="st15" width="4.9" height="4.9"/>
	<rect x="5.6" y="177.3" class="st15" width="4.9" height="4.9"/>
	<rect x="12.9" y="177.3" class="st15" width="19.5" height="4.9"/>
	<rect x="34.8" y="177.3" class="st15" width="4.9" height="4.9"/>
	<rect x="42.1" y="177.3" class="st15" width="4.9" height="4.9"/>
	<rect x="-1.7" y="170" class="st15" width="8.5" height="4.9"/>
	<rect x="9.3" y="170" class="st15" width="4.9" height="4.9"/>
	<rect x="16.6" y="170" class="st15" width="4.9" height="4.9"/>
	<rect x="23.9" y="170" class="st15" width="4.9" height="4.9"/>
	<rect x="31.2" y="170" class="st15" width="4.9" height="4.9"/>
	<rect x="38.5" y="170" class="st15" width="8.5" height="4.9"/>
</g>
<circle class="st12" cx="107.1" cy="20.9" r="22.7"/>
<circle class="st9" cx="107.1" cy="20.9" r="18.1"/>
<rect x="106" y="6.2" class="st14" width="2.3" height="14.7"/>
<rect x="109.4" y="19.3" transform="matrix(0.7069 -0.7073 0.7073 0.7069 15.1006 85.5218)" class="st14" width="2.6" height="10.4"/>
<circle class="st14" cx="107.1" cy="20.9" r="2.3"/>
<circle class="st9" cx="107.1" cy="20.9" r="1.1"/>
<g>
	<polygon class="st8" points="193.1,43.2 160,43.2 160,-0.2 182.7,-0.2 193.1,10.2 	"/>
</g>
<polygon class="st10" points="191.5,12.9 181.7,12.9 181.7,3 "/>
<g>
	<rect x="168.3" y="18.4" class="st10" width="17.6" height="2.1"/>
	<rect x="168.3" y="22.6" class="st10" width="13.4" height="2.1"/>
	<rect x="168.3" y="26.7" class="st10" width="17.6" height="2.1"/>
	<rect x="168.3" y="30.8" class="st10" width="13.4" height="2.1"/>
</g>
<path class="st14" d="M275.1,31.5c0,0.8-0.6,2.8-1.4,2.8h-42.2c-0.8,0-1.4-2-1.4-2.8V2c0-0.8,0.6-1.4,1.4-1.4h42.2
	c0.8,0,1.4,0.6,1.4,1.4V31.5z"/>
<rect x="232.9" y="3.4" class="st9" width="39.4" height="25.3"/>
<g>
	<rect x="223.1" y="39.9" class="st14" width="59" height="2.8"/>
	<polygon class="st14" points="275.1,31.5 230.1,31.5 223.1,39.9 282.1,39.9 	"/>
</g>
<polygon class="st12" points="232.9,32.9 272.3,32.9 275.1,37.1 230.1,37.1 "/>
<g>
	<polygon class="st8" points="342.4,38.7 313.8,38.7 313.8,-0.2 333.2,-0.2 342.4,9 	"/>
</g>
<polygon class="st9" points="340.9,10 332.2,10 332.2,1.3 "/>
<rect x="347.9" y="31.4" transform="matrix(-0.7073 0.7069 -0.7069 -0.7073 622.9182 -182.9151)" class="st10" width="2.9" height="12.3"/>
<circle class="st10" cx="337.3" cy="25.4" r="11.3"/>
<circle class="st8" cx="337.3" cy="25.4" r="9.2"/>
<rect x="349.1" y="34.2" transform="matrix(-0.707 0.7072 -0.7072 -0.707 625.7153 -181.8902)" class="st10" width="2.9" height="8.9"/>
<g>
	<path class="st9" d="M339.4,27.4h-9.9c0.4,1.6,1.3,3.1,2.6,4.1h7.4V27.4z"/>
	<path class="st9" d="M329.4,23.4h9.9v-4.1h-7.5C330.7,20.3,329.8,21.7,329.4,23.4z"/>
	<path class="st9" d="M329.2,16.2h-9.3v2h7.5C327.9,17.5,328.5,16.8,329.2,16.2z"/>
	<path class="st9" d="M326.1,20.3h-6.2v2h5.5C325.6,21.6,325.8,20.9,326.1,20.3z"/>
	<path class="st9" d="M325,25.4c0-0.3,0-0.7,0.1-1h-5.2v2h5.2C325,26.1,325,25.7,325,25.4z"/>
	<path class="st9" d="M325.4,28.5h-5.5v2h6.2C325.8,29.9,325.6,29.2,325.4,28.5z"/>
</g>
<path class="st12" d="M485.3,27.9c-3.7,0-6.7-3-6.7-6.7s3-6.7,6.7-6.7V-0.2c-11.8,0-21.4,9.6-21.4,21.4c0,11.8,9.6,21.4,21.4,21.4
	c4.9,0,9.6-1.7,13.3-4.6l-9-11.5C488.3,27.3,486.9,27.9,485.3,27.9z"/>
<path class="st13" d="M492,21.1h14.6c0-11.8-9.6-21.4-21.4-21.4v14.6C489,14.4,492,17.4,492,21.1z"/>
<path class="st9" d="M506.7,21.1H492c0,2.1-1,4-2.6,5.3l9,11.5C503.5,33.9,506.7,27.9,506.7,21.1z"/>
<rect x="384.3" y="0.4" class="st8" width="49.6" height="42.2"/>
<rect x="390.5" y="6.6" class="st9" width="37.2" height="6.2"/>
<g>
	<rect x="390.5" y="17.8" class="st10" width="16.1" height="19.9"/>
	<rect x="411.6" y="17.8" class="st10" width="16.1" height="19.9"/>
</g>
<g>
	<g id="XMLID_2_">
		<g>
			<path class="st17" d="M138.1,182.1v2.8H80v-2.8l6.9-8.3v-29.1c0-0.8,0.6-1.4,1.4-1.4h41.5c0.8,0,1.4,0.6,1.4,1.4v29.1
				L138.1,182.1z"/>
		</g>
		<g>
		</g>
	</g>
</g>
<rect x="89.7" y="146.1" class="st6" width="38.7" height="24.9"/>
<polygon class="st15" points="89.7,175.2 128.4,175.2 131.2,179.3 86.9,179.3 "/>
<path class="st17" d="M205.8,142.9h-34.3c-1.9,0-3.4,1.5-3.4,3.4V184l9.8-9.1h27.9c1.9,0,3.4-1.5,3.4-3.4v-25.1
	C209.2,144.4,207.7,142.9,205.8,142.9z"/>
<g>
	<rect x="172.7" y="152" class="st15" width="32" height="2.3"/>
	<rect x="172.7" y="157.7" class="st15" width="32" height="2.3"/>
	<rect x="172.7" y="163.4" class="st15" width="18.3" height="2.3"/>
</g>
<g>
	<g id="XMLID_1_">
		<g>
			<path class="st23" d="M282.7,324.8v2.8h-59v-2.8l7-8.4v-29.5c0-0.8,0.6-1.4,1.4-1.4h42.1c0.8,0,1.4,0.6,1.4,1.4v29.5L282.7,324.8
				z"/>
		</g>
		<g>
		</g>
	</g>
</g>
<path class="st23" d="M-628.5,325c0,1.5-1.3,2.8-2.8,2.8h-44.8c-1.5,0-2.8-1.3-2.8-2.8v-30.8c0-1.5,1.3-2.8,2.8-2.8h44.8
	c1.5,0,2.8,1.3,2.8,2.8V325z"/>
<path class="st23" d="M-641.1,295.6c0,1.5-1.3,2.8-2.8,2.8h-19.6c-1.5,0-2.8-1.3-2.8-2.8v-7c0-1.5,1.3-2.8,2.8-2.8h19.6
	c1.5,0,2.8,1.3,2.8,2.8V295.6z"/>
<circle class="st16" cx="-635.5" cy="298.4" r="2.8"/>
<circle class="st16" cx="-653.7" cy="309.6" r="14"/>
<circle class="st24" cx="-653.7" cy="309.6" r="11.2"/>
<path class="st23" d="M-659.3,315.2c0,1.6,0.4,3.2,1,4.6c1.4,0.6,3,1,4.6,1c6.2,0,11.2-5,11.2-11.2c0-1.6-0.4-3.2-1-4.6
	c-1.4-0.6-3-1-4.6-1C-654.3,304-659.3,309-659.3,315.2z"/>
<rect x="-555.5" y="300.3" class="st25" width="4.8" height="27.4"/>
<rect x="-562.7" y="308.7" class="st26" width="4.8" height="19.1"/>
<rect x="-569.9" y="302.7" class="st25" width="4.8" height="25"/>
<rect x="-577" y="309.9" class="st26" width="4.8" height="17.9"/>
<rect x="-584.2" y="313.4" class="st25" width="4.8" height="14.3"/>
<rect x="-591.3" y="311.1" class="st26" width="4.8" height="16.7"/>
<rect x="-598.5" y="315.8" class="st25" width="4.8" height="11.9"/>
<g>
	<polygon class="st25" points="-555.4,286.1 -562.7,293.4 -567.5,288.6 -579.4,300.6 -585.4,294.6 -597.8,307 -594.4,310.3 
		-585.4,301.3 -579.4,307.2 -567.5,295.3 -562.7,300.1 -552.1,289.5 	"/>
	<polygon class="st25" points="-550.8,284.8 -561.5,284.8 -550.8,295.6 	"/>
</g>
<circle class="st16" cx="-498.9" cy="306.4" r="17.2"/>
<g>
	<path class="st24" d="M-500.7,303.4c-1.7,1-2.2,3.1-1.2,4.7c1,1.7,3.1,2.2,4.8,1.2c1.7-1,2.2-3.1,1.2-4.7
		C-496.9,303-499,302.5-500.7,303.4"/>
	<polygon class="st24" points="-485.9,298.9 -496.7,307.8 -499.1,303.9 	"/>
</g>
<g>
	<path class="st24" d="M-512.7,305.3h-5.7c0,0.4-0.1,0.8-0.1,1.1c0,0.4,0,0.8,0.1,1.2h5.7V305.3z"/>
	<path class="st24" d="M-510.6,313.9l-1.1-2l-5,2.7c0.3,0.7,0.7,1.4,1.1,2L-510.6,313.9z"/>
</g>
<g>
	<path class="st24" d="M-506.8,295l2-1.2l-2.8-5c-0.7,0.3-1.4,0.7-2,1.1L-506.8,295z"/>
	<path class="st24" d="M-516.4,297.7l4.9,2.9l1.2-2l-4.9-2.9C-515.7,296.3-516,297-516.4,297.7z"/>
	<path class="st24" d="M-485.1,307.6h5.7c0-0.4,0.1-0.8,0.1-1.1c0-0.4,0-0.8-0.1-1.2h-5.7V307.6z"/>
	<path class="st24" d="M-481,314.3l-5.1-2.6l-1.1,2.1l5.1,2.6C-481.7,315.7-481.3,315-481,314.3z"/>
	<path class="st24" d="M-488,290.2c-0.6-0.4-1.3-0.8-2-1.2l-2.9,4.9l2,1.2L-488,290.2z"/>
	<path class="st24" d="M-497.8,286.9c-0.4,0-0.8-0.1-1.1-0.1c-0.4,0-0.8,0-1.2,0.1v5.7h2.3V286.9z"/>
</g>
<path class="st23" d="M-498.9,284.6c-12.1,0-21.8,9.8-21.8,21.8c0,12.1,9.8,21.8,21.8,21.8c12.1,0,21.8-9.8,21.8-21.8
	C-477.1,294.4-486.9,284.6-498.9,284.6z M-498.9,323.7c-9.5,0-17.2-7.7-17.2-17.2c0-9.5,7.7-17.2,17.2-17.2
	c9.5,0,17.2,7.7,17.2,17.2C-481.7,315.9-489.4,323.7-498.9,323.7z"/>
<path class="st16" d="M-499.5,305.4c-0.5,0.3-0.7,1-0.4,1.6c0.3,0.5,1,0.7,1.6,0.4c0.6-0.3,0.7-1,0.4-1.6
	C-498.2,305.3-498.9,305.1-499.5,305.4"/>
<path class="st26" d="M-447.1,312.2v11.2c0,2.5,2,4.5,4.5,4.5h31.3c2.5,0,4.5-2,4.5-4.5v-11.2H-447.1z"/>
<path class="st25" d="M-406.9,312.2c0,2.5-2,4.5-4.5,4.5h-31.3c-2.5,0-4.5-2-4.5-4.5l3.4-13.4c0.2-2.3,2-4.5,4.5-4.5h24.6
	c2.5,0,4.1,2,4.5,4.5L-406.9,312.2z"/>
<circle class="st16" cx="-414.7" cy="322.3" r="2.2"/>
<g>
	<ellipse class="st20" cx="-425.3" cy="291.4" rx="6.2" ry="6"/>
	<ellipse class="st20" cx="-423.9" cy="301.7" rx="5.1" ry="5"/>
	<ellipse class="st20" cx="-430.8" cy="297.1" rx="5.1" ry="5"/>
	<ellipse class="st20" cx="-410.1" cy="296.8" rx="4.4" ry="4.2"/>
	<ellipse class="st20" cx="-415.9" cy="300.2" rx="4.4" ry="4.2"/>
	<ellipse class="st20" cx="-415.6" cy="293.4" rx="4.7" ry="4.6"/>
	<ellipse class="st20" cx="-420.9" cy="296.1" rx="5.1" ry="5"/>
</g>
<g>
	
		<rect x="-344.1" y="310.5" transform="matrix(-0.707 0.7072 -0.7072 -0.707 -357.7283 787.3979)" class="st25" width="4.3" height="18.3"/>
	<circle class="st25" cx="-359.8" cy="301.8" r="17.2"/>
</g>
<rect x="-342.3" y="314.8" transform="matrix(-0.7071 0.7071 -0.7071 -0.7071 -353.4677 789.1802)" class="st26" width="4.3" height="13.2"/>
<circle class="st20" cx="-359.8" cy="301.8" r="14"/>
<path class="st6" d="M-352.4,295.6c-1.8-2.1-4.5-3.4-7.4-3.4c-2.9,0-5.6,1.3-7.4,3.4c-0.4,0.4-0.3,1.2,0.1,1.5
	c0.4,0.4,1.2,0.3,1.5-0.1c1.5-1.7,3.5-2.7,5.8-2.7c2.3,0,4.3,1,5.8,2.7c0.2,0.2,0.5,0.4,0.9,0.4c0.2,0,0.5-0.1,0.6-0.2
	C-352.1,296.7-352.1,296-352.4,295.6z"/>
<path class="st23" d="M-304.2,307.3c0,13.4,17.9,20.2,17.9,20.2s17.9-6.7,17.9-20.2c0-5.5,0-19.1,0-19.1c-4.4,0-17.9-3.4-17.9-3.4
	s-13.5,3.4-17.9,3.4C-304.2,288.2-304.2,301.7-304.2,307.3z"/>
<path class="st24" d="M-268.4,307.3c0,13.4-17.9,20.2-17.9,20.2v-42.6c0,0,13.5,3.4,17.9,3.4C-268.4,288.2-268.4,301.7-268.4,307.3z
	"/>
<path class="st20" d="M-272.8,307.3c0,8.1-9.6,13.5-13.5,15.3c-3.9-1.8-13.5-7.2-13.5-15.3v-15c4.7-0.7,10.7-2.1,13.5-2.8
	c2.7,0.7,8.8,2.1,13.5,2.8V307.3z"/>
<path class="st22" d="M-272.8,307.3c0,8.1-9.6,13.5-13.5,15.3l0-33.1c2.7,0.7,8.8,2.1,13.5,2.8V307.3z"/>
<circle class="st6" cx="-302" cy="291.6" r="1.1"/>
<circle class="st6" cx="-294.2" cy="289.3" r="1.1"/>
<circle class="st6" cx="-286.3" cy="287.1" r="1.1"/>
<circle class="st6" cx="-302" cy="298.3" r="1.1"/>
<circle class="st6" cx="-302" cy="305" r="1.1"/>
<circle class="st6" cx="-300.9" cy="311.7" r="1.1"/>
<circle class="st6" cx="-297.5" cy="317.4" r="1.1"/>
<circle class="st6" cx="-291.9" cy="321.8" r="1.1"/>
<circle class="st6" cx="-270.6" cy="291.6" r="1.1"/>
<circle class="st6" cx="-278.5" cy="289.3" r="1.1"/>
<circle class="st6" cx="-270.6" cy="298.3" r="1.1"/>
<circle class="st6" cx="-270.6" cy="305" r="1.1"/>
<circle class="st6" cx="-271.7" cy="311.7" r="1.1"/>
<circle class="st6" cx="-275.1" cy="317.4" r="1.1"/>
<circle class="st6" cx="-280.7" cy="321.8" r="1.1"/>
<polygon class="st6" points="-286.3,308.2 -272.8,299 -272.8,294.6 -286.3,303.7 "/>
<path class="st6" d="M-286.3,303.7l-12.3,8.4c0.5,1.1,1.2,2.1,2,3.1l10.3-7L-286.3,303.7z"/>
<polygon class="st6" points="-290.8,298.3 -293,301.1 -295.3,298.3 -293,295.5 "/>
<polygon class="st6" points="-277.3,311.7 -279.6,314.5 -281.8,311.7 -279.6,308.9 "/>
<circle class="st26" cx="-192" cy="294" r="8.5"/>
<circle class="st26" cx="-217.5" cy="294" r="8.5"/>
<path class="st25" d="M-172.7,306.7l-21.6,4.2h-20.8l-21.6-4.2l6.1-11.2c1.6-2.7,4.4-4.4,7.5-4.4h37c3.1,0,5.9,1.7,7.5,4.4
	L-172.7,306.7z"/>
<circle class="st26" cx="-185" cy="313.7" r="14.1"/>
<circle class="st26" cx="-224.5" cy="313.7" r="14.1"/>
<circle class="st26" cx="-204.8" cy="310.9" r="7.1"/>
<circle class="st20" cx="-204.8" cy="310.9" r="2.8"/>
<g>
	<circle class="st20" cx="-185" cy="313.7" r="9.9"/>
	<circle class="st20" cx="-224.5" cy="313.7" r="9.9"/>
</g>
<g>
	<path class="st6" d="M-179.7,310.5c-1.4-1.6-3.2-2.4-5.2-2.4c-2,0-4,0.8-5.2,2.4c-0.6,0.6-0.4,1.4,0.1,2c0.6,0.6,1.4,0.4,2-0.1
		c1.7-1.8,4.7-1.8,6.4,0c0.3,0.3,0.7,0.4,1,0.4c0.3,0,0.7-0.1,1-0.4C-179.2,311.9-179.2,311.1-179.7,310.5z"/>
	<path class="st6" d="M-224.5,308.1c-2,0-4,0.8-5.2,2.4c-0.6,0.6-0.4,1.4,0.1,2c0.6,0.6,1.4,0.4,2-0.1c1.7-1.8,4.7-1.8,6.4,0
		c0.3,0.3,0.7,0.4,1,0.4c0.3,0,0.7-0.1,1-0.4c0.6-0.6,0.6-1.4,0.1-2C-220.6,308.9-222.6,308.1-224.5,308.1z"/>
</g>
<path class="st24" d="M-118.6,304.5h13.8l6.4,6.4v-18c0-2.3-1.9-4.2-4.2-4.2h-15.9c-2.3,0-4.2,1.9-4.2,4.2v7.4
	C-122.8,302.6-120.9,304.5-118.6,304.5z"/>
<path class="st20" d="M-120.7,301.3h-13.8l-6.4,6.4v-18c0-2.3,1.9-4.2,4.2-4.2h15.9c2.3,0,4.2,1.9,4.2,4.2v7.4
	C-116.4,299.4-118.3,301.3-120.7,301.3z"/>
<g>
	<circle class="st20" cx="-132.3" cy="314" r="5.3"/>
	<circle class="st20" cx="-106.9" cy="314" r="5.3"/>
</g>
<g>
	<path class="st24" d="M-123.9,325.6c0,0-2.3-4.2-8.5-4.2c-6.1,0-8.5,4.2-8.5,4.2v2.1h16.9V325.6L-123.9,325.6z"/>
	<path class="st24" d="M-98.4,325.6c0,0-2.3-4.2-8.5-4.2c-6.1,0-8.5,4.2-8.5,4.2v2.1h16.9V325.6z"/>
</g>
<path class="st26" d="M-47,315.8c0.1-0.4,0.1-0.9,0.1-1.3c0-0.5,0-0.9-0.1-1.3l2.7-1.9c0.3-0.2,0.4-0.6,0.2-0.9l-2.6-4.4
	c-0.2-0.3-0.5-0.4-0.8-0.3l-3,1.4c-0.7-0.6-1.4-1-2.3-1.3l-0.3-3.3c0-0.3-0.3-0.6-0.6-0.6h-5.1c-0.3,0-0.6,0.3-0.6,0.6l-0.4,3.4
	c-0.9,0.3-1.5,0.8-2.3,1.3l-3-1.3c-0.3-0.1-0.7,0-0.8,0.3l-2.6,4.4c-0.2,0.3-0.1,0.7,0.2,0.9l2.7,1.9c-0.1,0.4-0.1,0.9-0.1,1.3
	c0,0.5,0,0.9,0.1,1.3l-2.7,1.9c-0.3,0.2-0.4,0.6-0.2,0.9l2.6,4.4c0.2,0.3,0.5,0.4,0.8,0.3l3-1.3c0.7,0.6,1.4,1,2.3,1.3l0.3,3.3
	c0,0.3,0.3,0.6,0.6,0.6h5.1c0.3,0,0.6-0.3,0.6-0.6l0.3-3.3c0.9-0.3,1.5-0.8,2.3-1.3l3,1.3c0.3,0.1,0.7,0,0.8-0.3l2.6-4.4
	c0.2-0.3,0.1-0.7-0.2-0.9L-47,315.8z M-56.2,319.2c-2.7,0-4.8-2.1-4.8-4.8c0-2.7,2.1-4.8,4.8-4.8c2.7,0,4.8,2.1,4.8,4.8
	C-51.4,317.1-53.5,319.2-56.2,319.2z"/>
<path class="st25" d="M-31.3,297.4c0.1-0.5,0.1-0.9,0.1-1.3c0-0.4,0-0.8-0.1-1.3l2.4-1.7c0.3-0.2,0.3-0.5,0.2-0.8l-2.4-4.1
	c-0.2-0.3-0.5-0.4-0.8-0.2l-2.8,1.3c-0.7-0.5-1.3-0.9-2.1-1.3l-0.3-3c0.1-0.3-0.1-0.5-0.4-0.5h-4.7c-0.3,0-0.6,0.2-0.6,0.5l-0.3,3
	c-0.8,0.3-1.4,0.7-2.1,1.3l-2.8-1.3c-0.3-0.1-0.6,0-0.8,0.2l-2.4,4.1c-0.2,0.3-0.1,0.6,0.2,0.8l2.4,1.7c0,0.5,0,0.9,0,1.3
	c0,0.4,0,0.8,0.1,1.3l-2.4,1.7c-0.3,0.2-0.3,0.5-0.2,0.8l2.4,4.1c0.2,0.3,0.5,0.4,0.8,0.2l2.8-1.3c0.7,0.5,1.3,0.9,2.1,1.3l0.3,3
	c0,0.3,0.3,0.5,0.6,0.5h4.7c0.3,0,0.6-0.2,0.6-0.5l0.3-3c0.8-0.3,1.4-0.7,2.1-1.3l2.8,1.3c0.3,0.1,0.6,0,0.8-0.2l2.4-4.1
	c0.2-0.3,0.1-0.6-0.2-0.8L-31.3,297.4z M-39.9,301c-2.7,0-4.8-2.1-4.8-4.8c0-2.7,2.1-4.8,4.8-4.8c2.7,0,4.8,2.1,4.8,4.8
	C-35,298.8-37.2,301-39.9,301z"/>
<g>
	<path class="st23" d="M31,303h-2.5c0-9.2,5.1-9.6,9.2-9.9c4.1-0.3,7-0.6,7-7.5h2.5c0,9.3-5.1,9.7-9.3,10
		C33.9,295.9,31,296.1,31,303z"/>
</g>
<rect x="2.3" y="303" class="st24" width="54.9" height="24.9"/>
<g>
	<rect x="4.8" y="305.5" class="st23" width="5" height="5"/>
	<rect x="12.3" y="305.5" class="st23" width="5" height="5"/>
	<rect x="19.7" y="305.5" class="st23" width="5" height="5"/>
	<rect x="27.2" y="305.5" class="st23" width="5" height="5"/>
	<rect x="34.7" y="305.5" class="st23" width="5" height="5"/>
	<rect x="42.2" y="305.5" class="st23" width="5" height="5"/>
	<rect x="49.7" y="305.5" class="st23" width="5" height="5"/>
	<rect x="4.8" y="320.4" class="st23" width="5" height="5"/>
	<rect x="12.3" y="320.4" class="st23" width="5" height="5"/>
	<rect x="19.7" y="320.4" class="st23" width="20" height="5"/>
	<rect x="42.2" y="320.4" class="st23" width="5" height="5"/>
	<rect x="49.7" y="320.4" class="st23" width="5" height="5"/>
	<rect x="4.8" y="313" class="st23" width="8.7" height="5"/>
	<rect x="16" y="313" class="st23" width="5" height="5"/>
	<rect x="23.5" y="313" class="st23" width="5" height="5"/>
	<rect x="31" y="313" class="st23" width="5" height="5"/>
	<rect x="38.4" y="313" class="st23" width="5" height="5"/>
	<rect x="45.9" y="313" class="st23" width="8.7" height="5"/>
</g>
<circle class="st25" cx="108.7" cy="306.6" r="21.5"/>
<circle class="st6" cx="108.7" cy="306.6" r="17.2"/>
<rect x="107.6" y="292.6" class="st26" width="2.2" height="14"/>
<rect x="110.9" y="305.1" transform="matrix(0.707 -0.7072 0.7072 0.707 -186.4136 170.166)" class="st26" width="2.5" height="9.9"/>
<circle class="st26" cx="108.7" cy="306.6" r="2.2"/>
<circle class="st9" cx="108.7" cy="306.6" r="1.1"/>
<g>
	<polygon class="st23" points="193.6,327.8 160.9,327.8 160.9,284.9 183.4,284.9 193.6,295.1 	"/>
</g>
<polygon class="st24" points="192.1,297.8 182.4,297.8 182.4,288.1 "/>
<g>
	<rect x="169.1" y="303.3" class="st24" width="17.4" height="2"/>
	<rect x="169.1" y="307.4" class="st24" width="13.3" height="2"/>
	<rect x="169.1" y="311.4" class="st24" width="17.4" height="2"/>
	<rect x="169.1" y="315.5" class="st24" width="13.3" height="2"/>
</g>
<rect x="233.5" y="288.3" class="st6" width="39.3" height="25.3"/>
<polygon class="st24" points="233.5,317.8 272.8,317.8 275.6,322 230.7,322 "/>
<rect x="385.6" y="285.5" class="st23" width="50.1" height="42.6"/>
<rect x="391.9" y="291.8" class="st9" width="37.6" height="6.3"/>
<g>
	<rect x="391.9" y="303.1" class="st24" width="16.3" height="20.1"/>
	<rect x="413.2" y="303.1" class="st24" width="16.3" height="20.1"/>
</g>
<g>
	<rect x="631" y="285.4" class="st24" width="2.1" height="38.1"/>
	
		<rect x="628.3" y="313.4" transform="matrix(-0.7071 -0.7071 0.7071 -0.7071 847.4908 992.8655)" class="st24" width="2.1" height="15"/>
	
		<rect x="633.6" y="313.4" transform="matrix(0.7071 -0.7071 0.7071 0.7071 -41.033 542.7685)" class="st24" width="2.1" height="15"/>
</g>
<rect x="610.8" y="288.6" class="st24" width="42.4" height="29.7"/>
<g>
	<rect x="609.8" y="287.5" class="st23" width="44.5" height="4.2"/>
	<rect x="609.8" y="317.2" class="st23" width="44.5" height="2.1"/>
	<circle class="st23" cx="640" cy="326.2" r="1.6"/>
	<circle class="st23" cx="624.1" cy="326.2" r="1.6"/>
</g>
<g>
	<polygon class="st6" points="640.4,300.1 634.1,306.5 627.8,300.1 619.2,308.6 621.5,311 627.8,304.6 634.1,311 642.7,302.5 	"/>
	<polygon class="st6" points="644.7,305.5 637.3,298.1 644.7,298.1 	"/>
</g>
<path class="st24" d="M579.4,306.4c0,11.7-9.5,21-21,21s-21-9.3-21-21c0-11.7,9.3-21,21-21S579.4,294.7,579.4,306.4"/>
<g>
	<path class="st23" d="M558.2,316.1c0-0.4-0.2-0.6-0.6-0.8c-1.3-0.4-2.5-0.4-3.6-1.5c-0.2-0.4-0.2-0.8-0.4-1.3
		c-0.4-0.4-1.5-0.6-2.1-0.8h-2.7h-1.5c-0.6-0.2-1-1.1-1.5-1.7c0-0.2,0-0.6-0.4-0.6c-0.4-0.2-0.8,0.2-1.3,0c-0.2-0.2-0.2-0.4-0.2-0.6
		c0-0.6,0.4-1.3,0.8-1.7c0.6-0.4,1.3,0.2,1.9,0.2c0.2,0,0.2,0,0.4,0.2c0.6,0.2,0.8,1,0.8,1.7v0.4c0,0.2,0.2,0.2,0.4,0.2
		c0.2-1.1,0.2-2.1,0.4-3.2c0-1.3,1.3-2.5,2.3-2.9c0.4-0.2,0.6,0.2,1,0c1.3-0.4,4.4-1.7,3.8-3.4c-0.4-1.5-1.7-2.9-3.4-2.7
		c-0.4,0.2-0.6,0.4-1,0.6c-0.6,0.4-1.9,1.7-2.5,1.7c-1-0.2-1-1.7-0.8-2.3c0.2-0.8,2.1-3.6,3.4-3.1c0.2,0.2,0.6,0.6,0.8,0.8
		c0.4,0.2,1,0.2,1.7,0.2c0.2,0,0.4,0,0.6-0.2c0.2-0.2,0.2-0.2,0.2-0.4c0-0.6-0.6-1.3-1-1.7c-0.4-0.4-1-0.8-1.7-1
		c-2.1-0.6-5.5,0.2-7.1,1.7c-1.7,1.5-2.9,4-3.8,6.1c-0.4,1.3-0.8,2.9-1,4.4c-0.2,1-0.4,1.9,0.2,2.9c0.6,1.3,1.9,2.5,3.2,3.4
		c0.8,0.6,2.5,0.6,3.4,1.7c0.6,0.8,0.4,1.9,0.4,2.9c0,1.3,0.8,2.3,1.3,3.4c0.2,0.6,0.4,1.5,0.6,2.1c0,0.2,0.2,1.5,0.2,1.7
		c1.3,0.6,2.3,1.3,3.8,1.7c0.2,0,1-1.3,1-1.5c0.6-0.6,1-1.5,1.7-1.9c0.4-0.2,0.8-0.4,1.3-0.8c0.4-0.4,0.6-1.3,0.8-1.9
		C558.2,317.6,558.4,316.7,558.2,316.1"/>
	<path class="st23" d="M558.7,296.8c0.2,0,0.4-0.2,0.8-0.4c0.6-0.4,1.3-1,1.9-1.5c0.6-0.4,1.3-1.1,1.7-1.5c0.6-0.4,1-1.3,1.3-1.9
		c0.2-0.4,0.8-1.3,0.6-1.9c-0.2-0.4-1.3-0.6-1.7-0.8c-1.7-0.4-3.2-0.6-4.8-0.6c-0.6,0-1.5,0.2-1.7,0.8c-0.2,1.1,0.6,0.8,1.5,1.1
		c0,0,0.2,1.7,0.2,1.9c0.2,1.1-0.4,1.7-0.4,2.7c0,0.6,0,1.7,0.4,2.1H558.7z"/>
	<path class="st23" d="M576.3,311.5c0.2-0.4,0.2-1.1,0.4-1.5c0.2-1.1,0.2-2.1,0.2-3.2c0-2.1-0.2-4.2-0.8-6.1
		c-0.4-0.6-0.6-1.3-0.8-1.9c-0.4-1-1-2.1-1.9-2.9c-0.8-1-1.9-4-3.8-3.1c-0.6,0.2-1,1.1-1.5,1.5c-0.4,0.6-0.8,1.3-1.3,1.9
		c-0.2,0.2-0.4,0.6-0.2,0.8c0,0.2,0.2,0.2,0.4,0.2c0.4,0.2,0.6,0.2,1.1,0.4c0.2,0,0.4,0.2,0.2,0.4c0,0,0,0.2-0.2,0.2
		c-1.1,1-2.1,1.9-3.2,2.9c-0.2,0.2-0.4,0.6-0.4,0.8c0,0.2,0.2,0.2,0.2,0.4c0,0.2-0.2,0.2-0.4,0.4c-0.4,0.2-0.8,0.4-1,0.6
		c-0.2,0.4,0,1-0.2,1.5c-0.2,1-0.8,1.9-1.3,2.9c-0.4,0.6-0.6,1.3-1,1.9c0,0.8-0.2,1.5,0.2,2.1c1.1,1.5,2.9,0.6,4.4,1.3
		c0.4,0.2,0.8,0.2,1.1,0.6c0.6,0.6,0.6,1.7,0.8,2.3c0.2,0.8,0.4,1.7,0.8,2.5c0.2,1.1,0.6,2.1,0.8,2.9c1.9-1.5,3.6-3.1,4.8-5.2
		C575,314.8,575.7,313.1,576.3,311.5"/>
</g>
<circle class="st6" cx="333.9" cy="306.6" r="16.8"/>
<g>
	<path class="st26" d="M332.2,303.7c-1.6,0.9-2.1,3-1.2,4.6c1,1.6,3,2.1,4.6,1.2c1.6-0.9,2.1-3,1.2-4.6
		C335.9,303.3,333.8,302.8,332.2,303.7"/>
	<polygon class="st26" points="346.5,299.3 336,308 333.7,304.1 	"/>
</g>
<g>
	<path class="st26" d="M320.5,305.5h-5.5c0,0.4-0.1,0.7-0.1,1.1c0,0.4,0,0.8,0.1,1.1h5.5V305.5z"/>
	<path class="st26" d="M322.6,313.9l-1.1-2l-4.9,2.6c0.3,0.7,0.7,1.3,1.1,2L322.6,313.9z"/>
</g>
<g>
	<path class="st26" d="M326.3,295.5l2-1.1l-2.7-4.8c-0.7,0.3-1.3,0.7-2,1.1L326.3,295.5z"/>
	<path class="st26" d="M316.9,298.1l4.8,2.8l1.1-2l-4.8-2.8C317.6,296.8,317.2,297.4,316.9,298.1z"/>
	<path class="st26" d="M347.3,307.7h5.5c0-0.4,0.1-0.7,0.1-1.1c0-0.4,0-0.8-0.1-1.1h-5.5V307.7z"/>
	<path class="st26" d="M351.3,314.2l-4.9-2.5l-1,2l4.9,2.5C350.6,315.6,351,314.9,351.3,314.2z"/>
	<path class="st26" d="M344.5,290.8c-0.6-0.4-1.3-0.8-2-1.1l-2.8,4.8l1.9,1.1L344.5,290.8z"/>
	<path class="st26" d="M335,287.7c-0.4,0-0.7-0.1-1.1-0.1c-0.4,0-0.8,0-1.1,0.1v5.5h2.3V287.7z"/>
</g>
<path class="st25" d="M333.9,285.4c-11.7,0-21.2,9.5-21.2,21.2c0,11.7,9.5,21.2,21.2,21.2s21.2-9.5,21.2-21.2
	C355.1,294.9,345.6,285.4,333.9,285.4z M333.9,323.4c-9.3,0-16.8-7.5-16.8-16.8c0-9.3,7.5-16.8,16.8-16.8s16.8,7.5,16.8,16.8
	C350.6,315.8,343.1,323.4,333.9,323.4z"/>
<path class="st16" d="M333.3,305.6c-0.5,0.3-0.7,1-0.4,1.5c0.3,0.5,1,0.7,1.5,0.4c0.5-0.3,0.7-1,0.4-1.5
	C334.6,305.5,333.9,305.3,333.3,305.6"/>
<path class="st24" d="M469,317.4c1.8-1.8,4.7-1.8,6.5,0c1.8,1.8,1.8,4.7,0,6.5c-1.8,1.8-9,2.4-9,2.4S467.2,319.2,469,317.4z"/>
<path class="st9" d="M470.7,319c0.9-0.9,2.4-0.9,3.3,0c0.9,0.9,0.9,2.4,0,3.3c-0.9,0.9-4.1,0.8-4.1,0.8S469.8,319.9,470.7,319z"/>
<path class="st9" d="M493.6,289.6c-2.5,2.5-23.7,23.7-23.7,23.7l9.8,9.8c0,0,21.2-21.2,23.7-23.7c1.3-1.3,2.4-5.1,3.1-8.4l-4.5-4.5
	C498.6,287.2,494.9,288.3,493.6,289.6z"/>
<g>
	<polygon class="st24" points="483.8,327.2 481.3,321.5 491.1,311.6 489.5,321.5 	"/>
	<polygon class="st24" points="465.8,309.2 471.5,311.6 481.3,301.8 471.5,303.5 	"/>
	<path class="st24" d="M501.9,286.5l4.5,4.5c0.6-3,1-5.5,1-5.5S504.9,285.9,501.9,286.5z"/>
	<polygon class="st24" points="479.7,323.1 476.4,323.1 469.9,316.6 469.9,313.3 	"/>
</g>
<g>
	<circle class="st24" cx="493.6" cy="299.4" r="2.3"/>
	<circle class="st24" cx="487.8" cy="305.1" r="2.3"/>
	<circle class="st24" cx="482.1" cy="310.8" r="2.3"/>
</g>
<path class="st25" d="M801,284.3h-36.6c-2,0-3.7,1.6-3.7,3.7v40.3l10.4-9.8H801c2,0,3.7-1.6,3.7-3.7V288
	C804.7,286,803.1,284.3,801,284.3z"/>
<g>
	<rect x="765.7" y="294.1" class="st26" width="34.2" height="2.4"/>
	<rect x="765.7" y="300.2" class="st26" width="34.2" height="2.4"/>
	<rect x="765.7" y="306.3" class="st26" width="19.5" height="2.4"/>
</g>
<g>
	<polygon class="st23" points="862,322.8 834.7,322.8 834.7,285.8 853.2,285.8 862,294.6 	"/>
</g>
<polygon class="st6" points="860.5,295.5 852.2,295.5 852.2,287.3 "/>
<rect x="867.2" y="315.8" transform="matrix(-0.7072 0.707 -0.707 -0.7072 1710.2484 -64.9095)" class="st24" width="2.7" height="11.7"/>
<circle class="st24" cx="857.1" cy="310.2" r="10.7"/>
<circle class="st23" cx="857.1" cy="310.2" r="8.8"/>
<rect x="868.3" y="318.5" transform="matrix(-0.7072 0.707 -0.707 -0.7072 1712.9884 -63.8373)" class="st24" width="2.7" height="8.5"/>
<g>
	<path class="st6" d="M859.1,312.1h-9.5c0.4,1.6,1.3,2.9,2.4,3.9h7V312.1z"/>
	<path class="st6" d="M849.6,308.2h9.5v-3.9H852C850.8,305.3,850,306.6,849.6,308.2z"/>
	<path class="st6" d="M849.4,301.4h-8.9v1.9h7.1C848.2,302.6,848.7,302,849.4,301.4z"/>
	<path class="st6" d="M846.5,305.3h-5.9v1.9h5.3C846,306.5,846.2,305.9,846.5,305.3z"/>
	<path class="st6" d="M845.4,310.2c0-0.3,0-0.7,0.1-1h-5v1.9h5C845.4,310.8,845.4,310.4,845.4,310.2z"/>
	<path class="st6" d="M845.8,313.1h-5.3v1.9h5.9C846.2,314.4,846,313.8,845.8,313.1z"/>
</g>
<rect x="726.1" y="300.9" class="st9" width="4.7" height="26.8"/>
<rect x="719.1" y="309.1" class="st24" width="4.7" height="18.6"/>
<rect x="712.2" y="303.3" class="st9" width="4.7" height="24.5"/>
<rect x="705.2" y="310.2" class="st24" width="4.7" height="17.5"/>
<rect x="698.2" y="313.7" class="st9" width="4.7" height="14"/>
<rect x="691.2" y="311.4" class="st24" width="4.7" height="16.3"/>
<rect x="684.2" y="316.1" class="st9" width="4.7" height="11.7"/>
<g>
	<polygon class="st9" points="726.3,287.1 719.1,294.2 714.5,289.5 702.8,301.2 697,295.3 684.9,307.4 688.2,310.7 697,301.9 
		702.8,307.7 714.5,296 719.1,300.7 729.5,290.3 	"/>
	<polygon class="st9" points="730.8,285.8 720.3,285.8 730.8,296.3 	"/>
</g>
<path class="st25" d="M-663.9,380.8c-8.2,0-14.9,6.7-14.9,14.9c0,8.2,14.9,27.7,14.9,27.7S-649,404-649,395.8
	C-649,387.5-655.7,380.8-663.9,380.8z M-663.9,403.2c-4.1,0-7.5-3.3-7.5-7.5c0-4.1,3.3-7.5,7.5-7.5c4.1,0,7.5,3.3,7.5,7.5
	C-656.5,399.9-659.8,403.2-663.9,403.2z"/>
<polygon class="st26" points="-599.5,412.2 -599.5,413.2 -601.5,413.2 -601.5,412.2 -602.5,404.2 -598.5,404.2 "/>
<path class="st26" d="M-604.7,403.1c-0.5-0.1-12.4-3.2-14.4-12.8c-0.9-4.2,0.2-6.7,1.3-8c1.3-1.6,3.1-2.2,4.4-2.2
	c1.7,0,2.9,0.5,3.8,1.4c1.1,1.1,1.1,2.5,1.1,2.7c0,1.6-1.1,4-4,4l0,0c-0.1,0-0.8,0-1.4-0.4c-1-0.5-1.5-1.4-1.5-2.6h2
	c0,0.6,0.2,0.8,0.4,0.9c0.2,0.1,0.5,0.1,0.5,0.1c1.9,0,2-1.7,2-2c0,0,0-0.7-0.5-1.3c-0.5-0.5-1.3-0.7-2.4-0.7
	c-0.6,0-1.9,0.3-2.8,1.5c-1.1,1.4-1.4,3.6-0.9,6.3c1.7,8.3,12.8,11.2,12.9,11.2L-604.7,403.1z"/>
<path class="st26" d="M-596.2,403.1l-0.6-1.9c0.1,0,10.1-3.3,12.9-11.4c0.9-2.5,0.8-4.4-0.2-5.8c-1-1.3-2.6-1.8-3.4-1.8
	c-3,0-3,1.9-3,2c0,0.5,0.2,2,2,2c0.5,0,1-0.2,1-1h2c0,2.2-1.8,3-3,3c-2.9,0-4-2.4-4-4c0-1.4,1-4,5-4c1.5,0,3.8,0.8,5.1,2.7
	c1,1.3,1.8,3.8,0.4,7.7C-585.1,399.6-595.7,403-596.2,403.1z"/>
<g>
	<path class="st25" d="M-595.5,417.2h-10v-2c0-1.1,4-3,4-3h2c0,0,4,1.9,4,3V417.2z"/>
	<path class="st25" d="M-590.5,381.2c0,8-2.1,25-10,25s-10-17-10-25L-590.5,381.2z"/>
</g>
<path class="st6" d="M-599.5,397.2h-2v-7.4l-2,0.7v-1.8l3.8-1.5h0.2V397.2z"/>
<rect x="-607.5" y="416.2" class="st26" width="14" height="8"/>
<rect x="-605.5" y="419.2" class="st6" width="10" height="2"/>
<path class="st26" d="M-547.5,423.2h-3v-33c0,0,0.6-5,1.5-5c1,0,1.5,5,1.5,5V423.2z"/>
<circle class="st26" cx="-549" cy="383.7" r="2.5"/>
<rect x="-550.5" y="387.2" class="st25" width="36" height="24"/>
<g>
	<rect x="-544.5" y="387.2" class="st26" width="6" height="6"/>
	<rect x="-538.5" y="393.2" class="st26" width="6" height="6"/>
	<rect x="-520.5" y="387.2" class="st26" width="6" height="6"/>
	<rect x="-532.5" y="387.2" class="st26" width="6" height="6"/>
	<rect x="-526.5" y="393.2" class="st26" width="6" height="6"/>
	<rect x="-544.5" y="399.2" class="st26" width="6" height="6"/>
	<rect x="-538.5" y="405.2" class="st26" width="6" height="6"/>
	<rect x="-550.5" y="393.2" class="st26" width="6" height="6"/>
	<rect x="-550.5" y="405.2" class="st26" width="6" height="6"/>
	<rect x="-520.5" y="399.2" class="st26" width="6" height="6"/>
	<rect x="-532.5" y="399.2" class="st26" width="6" height="6"/>
	<rect x="-526.5" y="405.2" class="st26" width="6" height="6"/>
</g>
<polygon class="st26" points="-476.5,380.2 -484.1,380.2 -473.3,399.5 -465.8,399.5 "/>
<polygon class="st25" points="-461.5,380.2 -472.2,399.5 -464.7,399.5 -454,380.2 "/>
<circle class="st26" cx="-469" cy="411.3" r="12.9"/>
<path class="st25" d="M-469,400.5c-5.9,0-10.7,4.8-10.7,10.7S-475,422-469,422c5.9,0,10.7-4.8,10.7-10.7S-463.1,400.5-469,400.5z
	 M-476.3,415.8c-0.3,0.2-0.7,0.1-0.8-0.2c0,0,0-0.1-0.1-0.1l-0.2-0.5c-0.1-0.3,0-0.6,0.3-0.7c0.3-0.1,0.5,0,0.7,0.2l0.3,0.5
	C-475.9,415.3-476,415.6-476.3,415.8z M-473.4,418.7c-0.3,0.4-0.9,0.5-1.3,0.2c0,0-0.1,0-0.1-0.1l-0.4-0.4c-0.4-0.3-0.4-0.9-0.1-1.3
	c0.3-0.3,0.8-0.4,1.2-0.1l0.4,0.3C-473.2,417.7-473.1,418.3-473.4,418.7z M-469.6,419.9c-0.1,0.6-0.7,0.9-1.2,0.8c0,0,0,0,0,0
	l-0.5-0.1c-0.6-0.1-0.9-0.7-0.8-1.3c0.1-0.5,0.7-0.9,1.2-0.8l0.5,0.1C-469.9,418.8-469.5,419.4-469.6,419.9z M-470.1,415.6v-7.9
	l-2.1,0.7v-1.9l4.1-1.6h0.2v10.7H-470.1z M-466.6,420.6l-0.5,0.1c-0.6,0.1-1.1-0.2-1.3-0.8c-0.1-0.6,0.2-1.1,0.8-1.3c0,0,0,0,0,0
	l0.5-0.1c0.6-0.1,1.1,0.2,1.2,0.8C-465.7,419.9-466.1,420.5-466.6,420.6z M-462.9,418.5c-0.1,0.1-0.3,0.2-0.4,0.4
	c-0.4,0.3-1,0.3-1.3-0.1c-0.3-0.4-0.3-1,0.1-1.3c0,0,0,0,0,0c0.1-0.1,0.3-0.2,0.5-0.3c0.4-0.3,1-0.2,1.2,0.2
	C-462.5,417.7-462.6,418.2-462.9,418.5z M-460.9,415.5c-0.1,0.3-0.5,0.5-0.8,0.4c-0.3-0.1-0.5-0.5-0.4-0.8c0,0,0-0.1,0.1-0.1
	l0.3-0.5c0.2-0.3,0.5-0.3,0.8-0.2c0.2,0.1,0.3,0.4,0.2,0.7L-460.9,415.5z"/>
<path class="st24" d="M142.2,420.9c0,1.7-1.3,3-3,3h-26c-1.7,0-3-1.3-3-3v-36c0-1.7,1.3-3,3-3h26c1.7,0,3,1.3,3,3V420.9z"/>
<circle class="st6" cx="117.2" cy="387.9" r="3"/>
<circle class="st6" cx="126.2" cy="387.9" r="3"/>
<circle class="st6" cx="135.2" cy="387.9" r="3"/>
<polyline class="st6" points="120.2,418.9 120.2,420.9 114.2,420.9 114.2,418.9 "/>
<polyline class="st6" points="129.2,418.9 129.2,420.9 123.2,420.9 123.2,418.9 "/>
<polyline class="st6" points="138.2,418.9 138.2,420.9 132.2,420.9 132.2,418.9 "/>
<polyline class="st6" points="120.2,408.9 120.2,410.9 114.2,410.9 114.2,408.9 "/>
<polyline class="st6" points="129.2,408.9 129.2,410.9 123.2,410.9 123.2,408.9 "/>
<polyline class="st6" points="138.2,408.9 138.2,410.9 132.2,410.9 132.2,408.9 "/>
<polyline class="st6" points="120.2,398.9 120.2,400.9 114.2,400.9 114.2,398.9 "/>
<polyline class="st6" points="129.2,398.9 129.2,400.9 123.2,400.9 123.2,398.9 "/>
<polyline class="st6" points="138.2,398.9 138.2,400.9 132.2,400.9 132.2,398.9 "/>
<rect x="123.2" y="412.9" class="st25" width="6" height="6"/>
<g>
	<rect x="114.2" y="392.9" class="st23" width="6" height="6"/>
	<rect x="123.2" y="392.9" class="st23" width="6" height="6"/>
	<rect x="132.2" y="392.9" class="st23" width="6" height="6"/>
	<rect x="114.2" y="402.9" class="st23" width="6" height="6"/>
	<rect x="123.2" y="402.9" class="st23" width="6" height="6"/>
	<rect x="132.2" y="402.9" class="st23" width="6" height="6"/>
	<rect x="114.2" y="412.9" class="st23" width="6" height="6"/>
	<rect x="132.2" y="412.9" class="st23" width="6" height="6"/>
</g>
<g>
	<circle class="st25" cx="117.2" cy="387.9" r="2"/>
	<circle class="st25" cx="126.2" cy="387.9" r="2"/>
	<circle class="st25" cx="135.2" cy="387.9" r="2"/>
</g>
<polygon class="st6" points="-300.4,400.7 -301.2,396.8 -313.4,399.3 -313.4,386.1 -317.3,386.1 -317.3,398.1 -330.8,389.3 
	-333,392.6 -318.2,402.1 -329.6,417 -326.5,419.3 -315.5,405 -307.3,417.3 -304,415.2 -312.2,403 "/>
<circle class="st24" cx="-315.4" cy="401.6" r="6.8"/>
<g>
	<circle class="st23" cx="-315.4" cy="386.1" r="4.9"/>
	<circle class="st23" cx="-300.8" cy="398.7" r="4.9"/>
	<circle class="st23" cx="-331.9" cy="391" r="4.9"/>
	<circle class="st23" cx="-328" cy="418.2" r="4.9"/>
	<circle class="st23" cx="-305.7" cy="416.2" r="4.9"/>
</g>
<g>
	<path class="st9" d="M-230,380.4h-29.3c-1.2,0-2.1,0.9-2.1,2.1v6.3c0,1.2,0.9,2.1,2.1,2.1h29.3c1.1,0,2.1-0.9,2.1-2.1v-6.3
		C-227.9,381.3-228.8,380.4-230,380.4z"/>
	<path class="st9" d="M-230,393h-29.3c-1.2,0-2.1,0.9-2.1,2.1v6.3c0,1.2,0.9,2.1,2.1,2.1h29.3c1.1,0,2.1-0.9,2.1-2.1V395
		C-227.9,393.9-228.8,393-230,393z"/>
	<path class="st9" d="M-230,405.5h-29.3c-1.2,0-2.1,0.9-2.1,2.1v6.3c0,1.2,0.9,2.1,2.1,2.1h29.3c1.1,0,2.1-0.9,2.1-2.1v-6.3
		C-227.9,406.4-228.8,405.5-230,405.5z"/>
</g>
<path class="st23" d="M-222.4,412.9c0.1-0.4,0.1-0.8,0.1-1.2c0-0.3,0-0.8-0.1-1.2l2.4-1.8c0.2-0.2,0.3-0.5,0.2-0.7l-2.4-4.1
	c-0.1-0.2-0.4-0.3-0.7-0.2l-2.7,1.3c-0.6-0.5-1.4-0.9-2.1-1.3l-0.3-3c0-0.3-0.3-0.5-0.5-0.5h-4.7c-0.3,0-0.5,0.2-0.5,0.5l-0.3,3
	c-0.7,0.3-1.5,0.7-2.1,1.3l-2.7-1.3c-0.3-0.1-0.6,0-0.7,0.2l-2.4,4.1c-0.1,0.2-0.1,0.6,0.2,0.7l2.4,1.8c-0.1,0.4-0.1,0.8-0.1,1.2
	c0,0.3,0,0.8,0.1,1.2l-2.4,1.8c-0.2,0.2-0.3,0.5-0.2,0.7l2.4,4.1c0.1,0.2,0.4,0.3,0.7,0.2l2.7-1.3c0.6,0.5,1.4,0.9,2.1,1.3l0.3,3
	c0,0.3,0.3,0.5,0.5,0.5h4.7c0.3,0,0.5-0.2,0.5-0.5l0.3-3c0.7-0.3,1.5-0.7,2.1-1.3l2.7,1.3c0.3,0.1,0.6,0,0.7-0.2l2.4-4.1
	c0.1-0.2,0.1-0.6-0.2-0.7L-222.4,412.9z M-231,417.2c-3,0-5.4-2.4-5.4-5.4c0-3,2.4-5.4,5.4-5.4c3,0,5.4,2.4,5.4,5.4
	C-225.6,414.8-228,417.2-231,417.2z"/>
<path class="st24" d="M-231,405.5c-3.5,0-6.3,2.8-6.3,6.3c0,3.5,2.8,6.3,6.3,6.3c3.5,0,6.3-2.8,6.3-6.3
	C-224.7,408.3-227.5,405.5-231,405.5z M-231,414.9c-1.8,0-3.1-1.4-3.1-3.1c0-1.8,1.4-3.1,3.1-3.1c1.8,0,3.1,1.4,3.1,3.1
	C-227.9,413.6-229.2,414.9-231,414.9z"/>
<path class="st24" d="M73.3,390.8c0,0.6-0.5,1.1-1.1,1.1h-34c-0.6,0-1.1-0.5-1.1-1.1v-7.4c0-0.6,0.5-1.1,1.1-1.1h34
	c0.6,0,1.1,0.5,1.1,1.1V390.8z"/>
<rect x="37.2" y="387.6" class="st6" width="36.1" height="30.8"/>
<path class="st24" d="M79.4,403.7l-3-3c-0.5-0.5-1.2-0.5-1.7,0l-1.4,1.4l4.7,4.7l1.4-1.4C79.8,404.9,79.8,404.2,79.4,403.7"/>
<rect x="57.5" y="410.1" transform="matrix(-0.7071 0.7071 -0.7071 -0.7071 406.274 658.4285)" class="st23" width="18.5" height="6.6"/>
<rect x="72.8" y="402.4" transform="matrix(0.707 -0.7073 0.7073 0.707 -265.0691 171.5526)" class="st6" width="3.3" height="6.6"/>
<polygon class="st6" points="57.9,417.6 56.3,423.8 62.6,422.2 "/>
<polygon class="st24" points="57.1,420.6 56.3,423.8 59.5,423 "/>
<g>
	<polygon class="st23" points="62.5,410 48.9,410 48.9,412.1 60.4,412.1 	"/>
	<polygon class="st23" points="65.9,406.6 65.9,405.7 48.9,405.7 48.9,407.8 64.6,407.8 	"/>
	<rect x="48.9" y="397.2" class="st23" width="17" height="2.1"/>
	<rect x="48.9" y="393" class="st23" width="17" height="2.1"/>
	<rect x="44.6" y="393" class="st23" width="2.1" height="2.1"/>
	<rect x="44.6" y="397.2" class="st23" width="2.1" height="2.1"/>
	<rect x="44.6" y="410" class="st23" width="2.1" height="2.1"/>
	<path class="st23" d="M48.9,410v2.1h7.4c0-0.7,0.1-1.4,0.2-2.1H48.9z"/>
	<rect x="44.6" y="401.5" class="st23" width="2.1" height="2.1"/>
	<rect x="44.6" y="405.7" class="st23" width="2.1" height="2.1"/>
	<rect x="48.9" y="401.5" class="st23" width="17" height="2.1"/>
</g>
<path class="st23" d="M1038.7,286.8H1006c-2.6,0-4.7,2.1-4.7,4.7v19.8c0,2.6,2.1,4.7,4.7,4.7h32.6c2.6,0,4.7-2.1,4.7-4.7v-19.8
	C1043.3,288.8,1041.2,286.8,1038.7,286.8z"/>
<path class="st24" d="M1002.7,288.2c-0.5,0.6-0.9,1.3-1.1,2.1l20.8,15.1l20.8-15.1c-0.2-0.8-0.6-1.5-1.1-2.1l-19.7,14.3
	L1002.7,288.2z"/>
<path class="st6" d="M1045.7,299.6H1013c-2.6,0-4.7,2.1-4.7,4.7V324c0,2.6,2.1,4.7,4.7,4.7h32.6c2.6,0,4.7-2.1,4.7-4.7v-19.8
	C1050.3,301.7,1048.2,299.6,1045.7,299.6z"/>
<path class="st24" d="M1009.6,301.1c-0.5,0.6-0.9,1.3-1.1,2.1l20.8,15.1l20.8-15.1c-0.2-0.8-0.6-1.5-1.1-2.1l-19.7,14.3
	L1009.6,301.1z"/>
<circle class="st24" cx="950.2" cy="294.4" r="8.5"/>
<circle class="st24" cx="924.8" cy="294.4" r="8.5"/>
<path class="st23" d="M969.5,307l-21.6,4.2h-20.7l-21.6-4.2l6.1-11.1c1.6-2.7,4.4-4.4,7.5-4.4h37c3.1,0,5.9,1.7,7.5,4.4L969.5,307z"
	/>
<circle class="st24" cx="957.3" cy="314.1" r="14.1"/>
<circle class="st24" cx="917.8" cy="314.1" r="14.1"/>
<circle class="st24" cx="937.5" cy="311.3" r="7.1"/>
<circle class="st20" cx="937.5" cy="311.3" r="2.8"/>
<g>
	<circle class="st6" cx="957.3" cy="314.1" r="9.9"/>
	<circle class="st6" cx="917.8" cy="314.1" r="9.9"/>
</g>
<g>
	<path class="st9" d="M962.5,310.9c-1.4-1.6-3.2-2.4-5.2-2.4c-2,0-3.9,0.8-5.2,2.4c-0.6,0.6-0.4,1.4,0.1,2c0.6,0.6,1.4,0.4,2-0.1
		c1.7-1.8,4.7-1.8,6.3,0c0.3,0.3,0.7,0.4,1,0.4c0.3,0,0.7-0.1,1-0.4C963.1,312.3,963.1,311.4,962.5,310.9z"/>
	<path class="st9" d="M917.8,308.5c-2,0-4,0.8-5.2,2.4c-0.6,0.6-0.4,1.4,0.1,2c0.6,0.6,1.4,0.4,2-0.1c1.7-1.8,4.7-1.8,6.3,0
		c0.3,0.3,0.7,0.4,1,0.4c0.3,0,0.7-0.1,1-0.4c0.6-0.6,0.6-1.4,0.1-2C921.7,309.3,919.8,308.5,917.8,308.5z"/>
</g>
<path class="st27" d="M-395.8,419.1c-0.7,2.2-3,3.4-5.1,2.7l-7.8-2.4c-2.2-0.7-3.3-3-2.7-5.1l2.8-9.1c0.7-2.1,3-3.4,5.1-2.7l7.8,2.4
	c2.2,0.7,3.3,3,2.7,5.1L-395.8,419.1z"/>
<rect x="-423.8" y="396.1" class="st24" width="4.1" height="13.6"/>
<rect x="-370.8" y="381.2" class="st24" width="4.1" height="43.5"/>
<polygon class="st23" points="-419.7,397.1 -419.7,408.7 -370.8,422.9 -370.8,382.9 "/>
<polygon class="st6" points="-417,399.2 -417,402.1 -373.5,395.1 -373.5,386.6 "/>
<g>
	<polygon class="st24" points="1.5,423.5 -28.7,423.5 -28.7,384.7 -7.1,384.7 1.5,393.3 	"/>
</g>
<g>
	<polygon class="st23" points="5.8,419.2 -24.4,419.2 -24.4,380.3 -2.8,380.3 5.8,389 	"/>
</g>
<polygon class="st6" points="4.2,390 -3.9,390 -3.9,382 "/>
<polygon class="st24" points="-0.7,397.6 -8.2,397.6 -5.6,400.2 -8.2,402.9 -12.5,398.6 -19.1,405 -16.7,407.4 -12.5,403.1 
	-8.2,407.4 -3.2,402.6 -0.7,405.1 "/>
<g>
	<path class="st24" d="M-58.5,414.2c0,9.3-9.3,9.3-20.8,9.3c-11.5,0-20.8,0-20.8-9.3c0-9.3,9.3-20.8,20.8-20.8
		C-67.9,393.4-58.5,405-58.5,414.2z"/>
	<path class="st24" d="M-72.4,383.7c-2.2,2.4-1.2-5.1-5.8,0c-2.2,2.4-1.2-5.1-5.8,0c-2,2.2-1.3-3.6-4.5-1.2l3.3,12.2h11.6l3.5-12.7
		C-70.7,382-71.4,382.5-72.4,383.7z"/>
</g>
<path class="st6" d="M-77.7,412.8c0-0.6-0.2-1-0.5-1.3c-0.3-0.3-0.8-0.6-1.6-0.9c-0.7-0.3-1.4-0.6-1.9-0.8c-0.5-0.3-1-0.6-1.4-0.9
	c-0.4-0.4-0.7-0.8-0.9-1.3c-0.2-0.5-0.3-1.1-0.3-1.7c0-1.1,0.4-2.1,1.1-2.8c0.7-0.7,1.7-1.2,2.9-1.3v-2.2h1.6v2.2
	c1.2,0.2,2.1,0.7,2.8,1.5c0.7,0.8,1,1.9,1,3.2h-2.9c0-0.8-0.2-1.4-0.5-1.8c-0.3-0.4-0.8-0.6-1.3-0.6c-0.6,0-1,0.2-1.3,0.5
	c-0.3,0.3-0.5,0.8-0.5,1.3c0,0.5,0.1,0.9,0.4,1.2c0.3,0.3,0.9,0.6,1.7,1c0.8,0.3,1.5,0.6,2,0.9c0.5,0.3,1,0.6,1.3,1
	c0.4,0.4,0.6,0.8,0.8,1.2c0.2,0.5,0.3,1,0.3,1.6c0,1.2-0.4,2.1-1.1,2.8c-0.7,0.7-1.7,1.1-3,1.3v2h-1.6v-2c-1.4-0.1-2.5-0.6-3.2-1.5
	c-0.8-0.8-1.1-2-1.1-3.3h2.9c0,0.8,0.2,1.4,0.6,1.9c0.4,0.4,0.9,0.6,1.7,0.6c0.6,0,1.1-0.2,1.4-0.5
	C-77.9,413.8-77.7,413.3-77.7,412.8z"/>
<g>
	<path class="st28" d="M-90.9,418.9c-0.5-2.6-0.6-5.2-0.3-7.8c0.6-5,2.3-10.2,5.1-14.4c0.3-0.5,0.7-1.3,1.2-1.6c0.4-0.3,0.5-0.2,1,0
		c0.9,0.2,1.7,0.4,2.6,0.5c2.6,0.3,5.3,0.1,7.7-0.9"/>
	<path class="st28" d="M-94.4,407.3c0-3.5,4.4-11.8,9.3-12.7"/>
</g>
<rect x="-165.2" y="414.3" class="st24" width="9.9" height="8.3"/>
<path class="st24" d="M-142.1,424.2h-36.3c0,0,0-3.3,3.3-3.3c3.3,0,26.4,0,29.7,0C-142.1,420.9-142.1,424.2-142.1,424.2z"/>
<rect x="-189.9" y="381.2" class="st24" width="59.4" height="34.7"/>
<rect x="-186.6" y="384.5" class="st6" width="52.8" height="28.1"/>
</svg>
