<?xml version="1.0" encoding="utf-8"?>
<!-- Generator: Adobe Illustrator 19.1.0, SVG Export Plug-In . SVG Version: 6.00 Build 0)  -->
<svg version="1.1" id="Layer_1" xmlns="http://www.w3.org/2000/svg" xmlns:xlink="http://www.w3.org/1999/xlink" x="0px" y="0px"
	 viewBox="0 0 35.9 42.6" style="enable-background:new 0 0 35.9 42.6;" xml:space="preserve">
<style type="text/css">
	.st0{fill:#3EB6FF;}
	.st1{fill:#0059B1;}
	.st2{fill:#A16BB8;}
	.st3{fill:#724A84;}
	.st4{fill:#FF5647;}
	.st5{fill:#E6B7FF;}
	.st6{fill:#FFFFFF;}
	.st7{fill:#D7F4FF;}
	.st8{fill:#53AEE6;}
	.st9{fill:#E9E9E9;}
	.st10{fill:#0B66A2;}
	.st11{fill:#E54B42;}
	.st12{fill:#A4C600;}
	.st13{fill:#8EAC00;}
	.st14{fill:#7F9100;}
	.st15{fill:#42B6D7;}
	.st16{fill:#F7FAFB;}
	.st17{fill:#318EA8;}
	.st18{fill:#6AD58B;}
	.st19{fill:#57AA6D;}
	.st20{fill:#EFEFEF;}
	.st21{fill:#D8D8D8;}
	.st22{fill:#E0E0E0;}
	.st23{fill:#36A1DE;}
	.st24{fill:#213F5E;}
	.st25{fill:#65C099;}
	.st26{fill:#467F63;}
	.st27{fill:none;stroke:#213F5E;stroke-width:2;}
	.st28{fill:none;stroke:#36A1DE;stroke-width:2;stroke-linecap:round;}
</style>
<path class="st0" d="M-333.7-120.9c0,11.7-9.5,21-21,21c-11.5,0-21-9.3-21-21c0-11.7,9.3-21,21-21
	C-343-141.9-333.7-132.6-333.7-120.9"/>
<g>
	<path class="st1" d="M-354.9-111.2c0-0.4-0.2-0.6-0.6-0.8c-1.3-0.4-2.5-0.4-3.6-1.5c-0.2-0.4-0.2-0.8-0.4-1.3
		c-0.4-0.4-1.5-0.6-2.1-0.8h-2.7h-1.5c-0.6-0.2-1.1-1-1.5-1.7c0-0.2,0-0.6-0.4-0.6c-0.4-0.2-0.8,0.2-1.3,0c-0.2-0.2-0.2-0.4-0.2-0.6
		c0-0.6,0.4-1.3,0.8-1.7c0.6-0.4,1.3,0.2,1.9,0.2c0.2,0,0.2,0,0.4,0.2c0.6,0.2,0.8,1,0.8,1.7v0.4c0,0.2,0.2,0.2,0.4,0.2
		c0.2-1.1,0.2-2.1,0.4-3.2c0-1.3,1.3-2.5,2.3-2.9c0.4-0.2,0.6,0.2,1.1,0c1.3-0.4,4.4-1.7,3.8-3.4c-0.4-1.5-1.7-2.9-3.4-2.7
		c-0.4,0.2-0.6,0.4-1.1,0.6c-0.6,0.4-1.9,1.7-2.5,1.7c-1-0.2-1-1.7-0.8-2.3c0.2-0.8,2.1-3.6,3.4-3.1c0.2,0.2,0.6,0.6,0.8,0.8
		c0.4,0.2,1,0.2,1.7,0.2c0.2,0,0.4,0,0.6-0.2c0.2-0.2,0.2-0.2,0.2-0.4c0-0.6-0.6-1.3-1.1-1.7c-0.4-0.4-1-0.8-1.7-1
		c-2.1-0.6-5.5,0.2-7.1,1.7c-1.7,1.5-2.9,4-3.8,6.1c-0.4,1.3-0.8,2.9-1,4.4c-0.2,1.1-0.4,1.9,0.2,2.9c0.6,1.3,1.9,2.5,3.1,3.4
		c0.8,0.6,2.5,0.6,3.4,1.7c0.6,0.8,0.4,1.9,0.4,2.9c0,1.3,0.8,2.3,1.3,3.4c0.2,0.6,0.4,1.5,0.6,2.1c0,0.2,0.2,1.5,0.2,1.7
		c1.3,0.6,2.3,1.3,3.8,1.7c0.2,0,1-1.3,1-1.5c0.6-0.6,1.1-1.5,1.7-1.9c0.4-0.2,0.8-0.4,1.3-0.8c0.4-0.4,0.6-1.3,0.8-1.9
		C-354.9-109.8-354.7-110.6-354.9-111.2"/>
	<path class="st1" d="M-354.4-130.6c0.2,0,0.4-0.2,0.8-0.4c0.6-0.4,1.3-1,1.9-1.5c0.6-0.4,1.3-1.1,1.7-1.5c0.6-0.4,1-1.3,1.3-1.9
		c0.2-0.4,0.8-1.3,0.6-1.9c-0.2-0.4-1.3-0.6-1.7-0.8c-1.7-0.4-3.2-0.6-4.8-0.6c-0.6,0-1.5,0.2-1.7,0.8c-0.2,1.1,0.6,0.8,1.5,1.1
		c0,0,0.2,1.7,0.2,1.9c0.2,1.1-0.4,1.7-0.4,2.7c0,0.6,0,1.7,0.4,2.1H-354.4z"/>
	<path class="st1" d="M-336.8-115.9c0.2-0.4,0.2-1,0.4-1.5c0.2-1.1,0.2-2.1,0.2-3.2c0-2.1-0.2-4.2-0.8-6.1c-0.4-0.6-0.6-1.3-0.8-1.9
		c-0.4-1-1-2.1-1.9-2.9c-0.8-1-1.9-4-3.8-3.1c-0.6,0.2-1,1.1-1.5,1.5c-0.4,0.6-0.8,1.3-1.3,1.9c-0.2,0.2-0.4,0.6-0.2,0.8
		c0,0.2,0.2,0.2,0.4,0.2c0.4,0.2,0.6,0.2,1.1,0.4c0.2,0,0.4,0.2,0.2,0.4c0,0,0,0.2-0.2,0.2c-1.1,1-2.1,1.9-3.2,2.9
		c-0.2,0.2-0.4,0.6-0.4,0.8s0.2,0.2,0.2,0.4c0,0.2-0.2,0.2-0.4,0.4c-0.4,0.2-0.8,0.4-1,0.6c-0.2,0.4,0,1-0.2,1.5
		c-0.2,1-0.8,1.9-1.3,2.9c-0.4,0.6-0.6,1.3-1,1.9c0,0.8-0.2,1.5,0.2,2.1c1.1,1.5,2.9,0.6,4.4,1.3c0.4,0.2,0.8,0.2,1.1,0.6
		c0.6,0.6,0.6,1.7,0.8,2.3c0.2,0.8,0.4,1.7,0.8,2.5c0.2,1.1,0.6,2.1,0.8,2.9c1.9-1.5,3.6-3.1,4.8-5.2
		C-338.1-112.5-337.4-114.2-336.8-115.9"/>
</g>
<g>
	<polygon class="st2" points="-280.1,-99.5 -312.6,-99.5 -312.6,-142.1 -290.2,-142.1 -280.1,-132 	"/>
</g>
<polygon class="st3" points="-281.6,-129.3 -291.2,-129.3 -291.2,-139 "/>
<g>
	<rect x="-304.4" y="-123.9" class="st3" width="17.3" height="2"/>
	<rect x="-304.4" y="-119.8" class="st3" width="13.2" height="2"/>
	<rect x="-304.4" y="-115.7" class="st3" width="17.3" height="2"/>
	<rect x="-304.4" y="-111.7" class="st3" width="13.2" height="2"/>
</g>
<g>
	
		<rect x="-218" y="-115.9" transform="matrix(-0.7071 0.7071 -0.7071 -0.7071 -444.2147 -29.9534)" class="st3" width="4.2" height="17.8"/>
	<circle class="st3" cx="-233.2" cy="-124.3" r="16.7"/>
</g>
<rect x="-216.3" y="-111.7" transform="matrix(-0.7072 0.707 -0.707 -0.7072 -440.0384 -28.2566)" class="st4" width="4.2" height="12.8"/>
<circle class="st5" cx="-233.2" cy="-124.3" r="13.6"/>
<path class="st6" d="M-226-130.4c-1.8-2.1-4.4-3.3-7.2-3.3c-2.8,0-5.4,1.3-7.2,3.3c-0.4,0.4-0.3,1.1,0.1,1.5
	c0.4,0.4,1.1,0.3,1.5-0.1c1.5-1.7,3.4-2.6,5.6-2.6c2.2,0,4.2,0.9,5.6,2.6c0.2,0.2,0.5,0.4,0.8,0.4c0.2,0,0.5-0.1,0.6-0.2
	C-225.7-129.2-225.7-129.9-226-130.4z"/>
<path class="st0" d="M-66.8-142.4h-35.6c-2,0-3.6,1.6-3.6,3.6v39.1l10.1-9.5h29c2,0,3.6-1.6,3.6-3.6v-26.1
	C-63.2-140.8-64.8-142.4-66.8-142.4z"/>
<g>
	<rect x="-101.2" y="-133" class="st1" width="33.2" height="2.4"/>
	<rect x="-101.2" y="-127" class="st1" width="33.2" height="2.4"/>
	<rect x="-101.2" y="-121.1" class="st1" width="19" height="2.4"/>
</g>
<path class="st5" d="M-139.4-142h-35.2c-1.9,0-3.5,1.6-3.5,3.5v38.7l10-9.4h28.7c1.9,0,3.5-1.6,3.5-3.5v-25.8
	C-135.9-140.4-137.5-142-139.4-142z"/>
<g>
	<rect x="-173.5" y="-132.6" class="st3" width="32.9" height="2.3"/>
	<rect x="-173.5" y="-126.8" class="st3" width="32.9" height="2.3"/>
	<rect x="-173.5" y="-120.9" class="st3" width="18.8" height="2.3"/>
</g>
<path class="st0" d="M3.6-119.1c0.1-0.7,0.2-1.4,0.2-2.2c0-0.8-0.1-1.5-0.2-2.2l4.6-3.3c0.4-0.3,0.6-0.9,0.3-1.4L4-135.8
	c-0.3-0.5-0.8-0.7-1.3-0.4l-5.1,2.4c-1.2-0.9-2.5-1.6-3.9-2.2l-0.5-5.6c-0.1-0.5-0.5-0.9-1-0.9h-8.8c-0.5,0-1,0.4-1,0.9l-0.5,5.6
	c-1.4,0.6-2.8,1.3-3.9,2.2l-5.1-2.4c-0.5-0.2-1.1,0-1.3,0.4l-4.4,7.6c-0.3,0.5-0.1,1.1,0.3,1.4l4.6,3.3c-0.1,0.7-0.2,1.4-0.2,2.2
	c0,0.8,0.1,1.5,0.2,2.2l-4.8,3.3c-0.4,0.3-0.6,0.9-0.3,1.4l4.4,7.6c0.3,0.5,0.8,0.7,1.3,0.4l5.1-2.4c1.2,0.9,2.5,1.6,3.9,2.2
	l0.5,5.6c0.1,0.5,0.5,0.9,1,0.9H-8c0.5,0,1-0.4,1-0.9l0.5-5.6c1.4-0.6,2.8-1.3,3.9-2.2l5.1,2.4c0.5,0.2,1.1,0,1.3-0.4l4.4-7.6
	c0.3-0.5,0.1-1.1-0.3-1.4L3.6-119.1z M-12.3-111.1c-5.6,0-10.2-4.6-10.2-10.2c0-5.6,4.6-10.2,10.2-10.2c5.6,0,10.2,4.6,10.2,10.2
	C-2.1-115.7-6.7-111.1-12.3-111.1z"/>
<path class="st1" d="M-12.3-133.6c-6.7,0-12.3,5.5-12.3,12.3c0,6.7,5.5,12.3,12.3,12.3c6.7,0,12.3-5.5,12.3-12.3
	C-0.1-128.1-5.6-133.6-12.3-133.6z M-12.3-116.2c-2.9,0-5.1-2.2-5.1-5.1c0-2.9,2.2-5.1,5.1-5.1s5.1,2.2,5.1,5.1
	C-7.2-118.4-9.5-116.2-12.3-116.2z"/>
<g>
	<polygon class="st0" points="67,-103.6 38.7,-103.6 38.7,-142 57.9,-142 67,-132.9 	"/>
</g>
<polygon class="st6" points="65.5,-131.9 56.9,-131.9 56.9,-140.5 "/>
<g>
	
		<rect x="72.4" y="-110.8" transform="matrix(-0.7073 0.7069 -0.7069 -0.7073 52.0514 -231.0383)" class="st1" width="2.8" height="12.1"/>
	<circle class="st1" cx="62" cy="-116.7" r="11.1"/>
	<circle class="st0" cx="62" cy="-116.7" r="9.1"/>
</g>
<rect x="73.6" y="-108" transform="matrix(-0.707 0.7072 -0.7072 -0.707 54.8531 -229.9177)" class="st1" width="2.8" height="8.8"/>
<g>
	<path class="st6" d="M64-114.7h-9.8c0.4,1.6,1.3,3,2.5,4H64V-114.7z"/>
	<path class="st6" d="M54.2-118.7H64v-4h-7.4C55.4-121.8,54.6-120.4,54.2-118.7z"/>
	<path class="st6" d="M54-125.8h-9.2v2h7.4C52.7-124.5,53.3-125.2,54-125.8z"/>
	<path class="st6" d="M50.9-121.8h-6.2v2h5.5C50.4-120.5,50.6-121.2,50.9-121.8z"/>
	<path class="st6" d="M49.8-116.7c0-0.3,0-0.7,0.1-1h-5.2v2h5.2C49.8-116,49.8-116.4,49.8-116.7z"/>
	<path class="st6" d="M50.2-113.7h-5.5v2h6.2C50.6-112.3,50.4-113,50.2-113.7z"/>
</g>
<g>
	<circle class="st3" cx="155.2" cy="-133" r="8.4"/>
	<circle class="st3" cx="130.1" cy="-133" r="8.4"/>
	<g>
		<path class="st3" d="M174.4-120.4l-21.4,4.2h-20.5l-21.4-4.2l6-11c1.5-2.7,4.3-4.3,7.4-4.3h36.6c3.1,0,5.9,1.7,7.4,4.3
			L174.4-120.4z"/>
		<circle class="st3" cx="162.2" cy="-113.4" r="14"/>
		<circle class="st3" cx="123.1" cy="-113.4" r="14"/>
		<circle class="st3" cx="142.7" cy="-116.2" r="7"/>
	</g>
</g>
<circle class="st4" cx="142.7" cy="-116.2" r="2.8"/>
<g>
	<circle class="st5" cx="162.2" cy="-113.4" r="9.8"/>
	<circle class="st5" cx="123.1" cy="-113.4" r="9.8"/>
</g>
<g>
	<path class="st6" d="M167.4-116.6c-1.4-1.5-3.2-2.4-5.2-2.4c-2,0-3.9,0.8-5.2,2.4c-0.6,0.6-0.4,1.4,0.1,2c0.6,0.6,1.4,0.4,2-0.1
		c1.7-1.8,4.6-1.8,6.3,0c0.3,0.3,0.7,0.4,1,0.4c0.3,0,0.7-0.1,1-0.4C167.9-115.2,167.9-116.1,167.4-116.6z"/>
	<path class="st6" d="M123.1-119c-2,0-3.9,0.8-5.2,2.4c-0.6,0.6-0.4,1.4,0.1,2c0.6,0.6,1.4,0.4,2-0.1c1.7-1.8,4.6-1.8,6.3,0
		c0.3,0.3,0.7,0.4,1,0.4c0.3,0,0.7-0.1,1-0.4c0.6-0.6,0.6-1.4,0.1-2C127-118.2,125.1-119,123.1-119z"/>
</g>
<rect x="248.5" y="-126.7" class="st0" width="4.7" height="27"/>
<rect x="241.4" y="-118.5" class="st1" width="4.7" height="18.8"/>
<rect x="234.4" y="-124.4" class="st0" width="4.7" height="24.7"/>
<rect x="227.3" y="-117.3" class="st1" width="4.7" height="17.6"/>
<rect x="220.3" y="-113.8" class="st0" width="4.7" height="14.1"/>
<rect x="213.2" y="-116.2" class="st1" width="4.7" height="16.5"/>
<rect x="206.2" y="-111.5" class="st0" width="4.7" height="11.8"/>
<g>
	<polygon class="st0" points="248.6,-140.7 241.4,-133.6 236.7,-138.3 225,-126.5 219.1,-132.4 206.9,-120.2 210.2,-116.9 
		219.1,-125.8 225,-119.9 236.7,-131.7 241.4,-127 251.9,-137.4 	"/>
	<polygon class="st0" points="253.2,-142 242.6,-142 253.2,-131.4 	"/>
</g>
<circle class="st1" cx="304.5" cy="-121.5" r="21.2"/>
<circle class="st0" cx="304.5" cy="-121.5" r="16.9"/>
<rect x="303.5" y="-135.2" class="st1" width="2.1" height="13.8"/>
<rect x="306.7" y="-123" transform="matrix(0.7071 -0.7071 0.7071 0.7071 173.7039 183.1732)" class="st1" width="2.4" height="9.7"/>
<circle class="st1" cx="304.5" cy="-121.5" r="2.1"/>
<circle class="st6" cx="304.5" cy="-121.5" r="1.1"/>
<path class="st1" d="M356-115.2v11c0,2.4,2,4.4,4.4,4.4h30.8c2.4,0,4.4-2,4.4-4.4v-11H356z"/>
<path class="st0" d="M395.6-115.2c0,2.4-2,4.4-4.4,4.4h-30.8c-2.4,0-4.4-2-4.4-4.4l3.3-13.2c0.2-2.3,2-4.4,4.4-4.4h24.2
	c2.4,0,4.1,1.9,4.4,4.4L395.6-115.2z"/>
<circle class="st7" cx="387.9" cy="-105.3" r="2.2"/>
<g>
	<ellipse class="st1" cx="377.5" cy="-135.7" rx="6.1" ry="5.9"/>
	<ellipse class="st1" cx="378.8" cy="-125.6" rx="5" ry="4.9"/>
	<ellipse class="st1" cx="372" cy="-130.2" rx="5" ry="4.9"/>
	<ellipse class="st1" cx="392.4" cy="-130.5" rx="4.3" ry="4.2"/>
	<ellipse class="st1" cx="386.7" cy="-127.1" rx="4.3" ry="4.2"/>
	<ellipse class="st1" cx="387" cy="-133.8" rx="4.7" ry="4.5"/>
	<ellipse class="st1" cx="381.8" cy="-131.1" rx="5" ry="4.9"/>
</g>
<path class="st3" d="M448.9-122.6h13.8l6.4,6.4v-18c0-2.3-1.9-4.2-4.2-4.2h-15.9c-2.3,0-4.2,1.9-4.2,4.2v7.4
	C444.7-124.5,446.6-122.6,448.9-122.6z"/>
<path class="st4" d="M446.8-125.8h-13.8l-6.4,6.4v-18c0-2.3,1.9-4.2,4.2-4.2h15.9c2.3,0,4.2,1.9,4.2,4.2v7.4
	C451.1-127.7,449.2-125.8,446.8-125.8z"/>
<g>
	<circle class="st2" cx="435.2" cy="-113.1" r="5.3"/>
	<circle class="st2" cx="460.6" cy="-113.1" r="5.3"/>
</g>
<g>
	<path class="st3" d="M443.7-101.5c0,0-2.3-4.2-8.5-4.2s-8.5,4.2-8.5,4.2v2.1h16.9V-101.5L443.7-101.5z"/>
	<path class="st3" d="M469.1-101.5c0,0-2.3-4.2-8.5-4.2c-6.1,0-8.5,4.2-8.5,4.2v2.1h16.9V-101.5z"/>
</g>
<circle class="st7" cx="520.4" cy="-120.8" r="16.8"/>
<g>
	<path class="st1" d="M518.7-123.7c-1.6,0.9-2.1,3-1.2,4.6c1,1.6,3,2.2,4.7,1.2c1.6-0.9,2.1-3,1.2-4.6
		C522.4-124.1,520.3-124.7,518.7-123.7"/>
	<polygon class="st1" points="533.1,-128.2 522.6,-119.5 520.2,-123.3 	"/>
</g>
<g>
	<path class="st1" d="M506.9-122h-5.6c0,0.4-0.1,0.7-0.1,1.1c0,0.4,0,0.8,0.1,1.1h5.6V-122z"/>
	<path class="st1" d="M509-113.5l-1.1-2l-4.9,2.6c0.3,0.7,0.7,1.4,1.1,2L509-113.5z"/>
</g>
<g>
	<path class="st1" d="M512.7-132l2-1.1l-2.8-4.8c-0.7,0.3-1.3,0.7-2,1.1L512.7-132z"/>
	<path class="st1" d="M503.3-129.4l4.8,2.8l1.1-2l-4.8-2.8C504-130.7,503.7-130.1,503.3-129.4z"/>
	<path class="st1" d="M533.9-119.7h5.6c0-0.4,0.1-0.7,0.1-1.1c0-0.4,0-0.8-0.1-1.1h-5.6V-119.7z"/>
	<path class="st1" d="M537.9-113.2l-5-2.5l-1,2l5,2.5C537.2-111.8,537.6-112.5,537.9-113.2z"/>
	<path class="st1" d="M531-136.7c-0.6-0.4-1.3-0.8-2-1.1l-2.8,4.8l2,1.1L531-136.7z"/>
	<path class="st1" d="M521.5-139.9c-0.4,0-0.7-0.1-1.1-0.1c-0.4,0-0.8,0-1.1,0.1v5.6h2.3V-139.9z"/>
</g>
<path class="st0" d="M520.4-142.2c-11.8,0-21.3,9.6-21.3,21.3c0,11.8,9.6,21.3,21.3,21.3c11.8,0,21.3-9.6,21.3-21.3
	C541.7-132.6,532.2-142.2,520.4-142.2z M520.4-104c-9.3,0-16.8-7.5-16.8-16.8c0-9.3,7.5-16.8,16.8-16.8c9.3,0,16.8,7.5,16.8,16.8
	C537.2-111.5,529.7-104,520.4-104z"/>
<path class="st7" d="M519.8-121.8c-0.5,0.3-0.7,1-0.4,1.5c0.3,0.5,1,0.7,1.6,0.4c0.5-0.3,0.7-1,0.4-1.5
	C521.1-121.9,520.4-122.1,519.8-121.8"/>
<path class="st0" d="M623.2-103c0,1.6-1.3,2.8-2.8,2.8H575c-1.6,0-2.8-1.3-2.8-2.8v-31.2c0-1.6,1.3-2.8,2.8-2.8h45.3
	c1.6,0,2.8,1.3,2.8,2.8V-103z"/>
<path class="st0" d="M610.4-132.8c0,1.6-1.3,2.8-2.8,2.8h-19.8c-1.6,0-2.8-1.3-2.8-2.8v-7.1c0-1.6,1.3-2.8,2.8-2.8h19.8
	c1.6,0,2.8,1.3,2.8,2.8V-132.8z"/>
<circle class="st7" cx="616.1" cy="-130" r="2.8"/>
<circle class="st7" cx="597.7" cy="-118.6" r="14.2"/>
<circle class="st1" cx="597.7" cy="-118.6" r="11.3"/>
<path class="st0" d="M592-113c0,1.7,0.4,3.2,1,4.7c1.4,0.6,3,1,4.7,1c6.3,0,11.3-5.1,11.3-11.3c0-1.7-0.4-3.2-1-4.7
	c-1.4-0.6-3-1-4.7-1C597.1-124.3,592-119.2,592-113z"/>
<path class="st8" d="M-325.3,39.9c0,1.5-1.3,2.8-2.8,2.8h-44.8c-1.5,0-2.8-1.3-2.8-2.8V9.1c0-1.5,1.3-2.8,2.8-2.8h44.8
	c1.5,0,2.8,1.3,2.8,2.8V39.9z"/>
<path class="st8" d="M-337.9,10.5c0,1.5-1.3,2.8-2.8,2.8h-19.6c-1.5,0-2.8-1.3-2.8-2.8v-7c0-1.5,1.3-2.8,2.8-2.8h19.6
	c1.5,0,2.8,1.3,2.8,2.8V10.5z"/>
<circle class="st9" cx="-332.3" cy="13.3" r="2.8"/>
<circle class="st9" cx="-350.5" cy="24.5" r="14"/>
<circle class="st10" cx="-350.5" cy="24.5" r="11.2"/>
<path class="st8" d="M-356.1,30.1c0,1.6,0.4,3.2,1,4.6c1.4,0.6,3,1,4.6,1c6.2,0,11.2-5,11.2-11.2c0-1.6-0.4-3.2-1-4.6
	c-1.4-0.6-3-1-4.6-1C-351,18.9-356.1,23.9-356.1,30.1z"/>
<g>
	<path class="st4" d="M681.8-124.2h-2.5c0-9.2,5.1-9.6,9.2-9.9c4-0.3,7-0.6,7-7.5h2.5c0,9.3-5.1,9.7-9.3,10
		C684.7-131.3,681.8-131,681.8-124.2z"/>
</g>
<rect x="653.2" y="-124.2" class="st3" width="54.8" height="24.9"/>
<g>
	<rect x="655.7" y="-121.7" class="st5" width="5" height="5"/>
	<rect x="663.2" y="-121.7" class="st5" width="5" height="5"/>
	<rect x="670.6" y="-121.7" class="st5" width="5" height="5"/>
	<rect x="678.1" y="-121.7" class="st5" width="5" height="5"/>
	<rect x="685.6" y="-121.7" class="st5" width="5" height="5"/>
	<rect x="693" y="-121.7" class="st5" width="5" height="5"/>
	<rect x="700.5" y="-121.7" class="st5" width="5" height="5"/>
	<rect x="655.7" y="-106.7" class="st5" width="5" height="5"/>
	<rect x="663.2" y="-106.7" class="st5" width="5" height="5"/>
	<rect x="670.6" y="-106.7" class="st5" width="19.9" height="5"/>
	<rect x="693" y="-106.7" class="st5" width="5" height="5"/>
	<rect x="700.5" y="-106.7" class="st5" width="5" height="5"/>
	<rect x="655.7" y="-114.2" class="st5" width="8.7" height="5"/>
	<rect x="666.9" y="-114.2" class="st5" width="5" height="5"/>
	<rect x="674.4" y="-114.2" class="st5" width="5" height="5"/>
	<rect x="681.8" y="-114.2" class="st5" width="5" height="5"/>
	<rect x="689.3" y="-114.2" class="st5" width="5" height="5"/>
	<rect x="696.8" y="-114.2" class="st5" width="8.7" height="5"/>
</g>
<path class="st2" d="M738.4-119.9c0,13.5,18.1,20.4,18.1,20.4s18.1-6.8,18.1-20.4c0-5.6,0-19.2,0-19.2c-4.5,0-18.1-3.4-18.1-3.4
	s-13.6,3.4-18.1,3.4C738.4-139.2,738.4-125.5,738.4-119.9z"/>
<path class="st3" d="M774.6-119.9c0,13.5-18.1,20.4-18.1,20.4v-43c0,0,13.6,3.4,18.1,3.4C774.6-139.2,774.6-125.5,774.6-119.9z"/>
<path class="st4" d="M770.1-119.9c0,8.2-9.7,13.6-13.6,15.4c-3.9-1.8-13.6-7.3-13.6-15.4v-15.2c4.7-0.7,10.8-2.1,13.6-2.8
	c2.8,0.7,8.8,2.1,13.6,2.8V-119.9z"/>
<path class="st11" d="M770.1-119.9c0,8.2-9.7,13.6-13.6,15.4l0-33.4c2.8,0.7,8.8,2.1,13.6,2.8V-119.9z"/>
<circle class="st6" cx="740.7" cy="-135.8" r="1.1"/>
<circle class="st6" cx="748.6" cy="-138" r="1.1"/>
<circle class="st6" cx="756.5" cy="-140.3" r="1.1"/>
<circle class="st6" cx="740.7" cy="-129" r="1.1"/>
<circle class="st6" cx="740.7" cy="-122.2" r="1.1"/>
<circle class="st6" cx="741.8" cy="-115.4" r="1.1"/>
<circle class="st6" cx="745.2" cy="-109.7" r="1.1"/>
<circle class="st6" cx="750.9" cy="-105.2" r="1.1"/>
<circle class="st6" cx="772.4" cy="-135.8" r="1.1"/>
<circle class="st6" cx="764.5" cy="-138" r="1.1"/>
<circle class="st6" cx="772.4" cy="-129" r="1.1"/>
<circle class="st6" cx="772.4" cy="-122.2" r="1.1"/>
<circle class="st6" cx="771.3" cy="-115.4" r="1.1"/>
<circle class="st6" cx="767.9" cy="-109.7" r="1.1"/>
<circle class="st6" cx="762.2" cy="-105.2" r="1.1"/>
<polygon class="st6" points="756.5,-119 771,-129 771,-133.6 756.5,-123.5 "/>
<path class="st6" d="M756.5-123.5l-12.4,8.4c0.5,1.1,1.2,2.2,2.1,3.1l10.3-7V-123.5z"/>
<polygon class="st6" points="752,-129 749.7,-126.2 747.5,-129 749.7,-131.8 "/>
<polygon class="st6" points="765.6,-115.4 763.3,-112.6 761.1,-115.4 763.3,-118.2 "/>
<path class="st3" d="M826.1-111.4c0.1-0.4,0.1-0.9,0.1-1.3c0-0.5,0-0.9-0.1-1.3l2.7-1.9c0.3-0.2,0.4-0.6,0.2-0.9l-2.6-4.4
	c-0.2-0.3-0.5-0.4-0.8-0.3l-3,1.4c-0.7-0.6-1.4-1-2.3-1.3l-0.3-3.3c0-0.3-0.3-0.6-0.6-0.6h-5.1c-0.3,0-0.6,0.3-0.6,0.6l-0.4,3.4
	c-0.9,0.3-1.5,0.8-2.3,1.3l-3-1.3c-0.3-0.1-0.7,0-0.8,0.3l-2.6,4.4c-0.2,0.3-0.1,0.7,0.2,0.9l2.7,1.9c-0.1,0.4-0.1,0.9-0.1,1.3
	c0,0.5,0,0.9,0.1,1.3l-2.7,1.9c-0.3,0.2-0.4,0.6-0.2,0.9l2.6,4.4c0.2,0.3,0.5,0.4,0.8,0.3l3-1.3c0.7,0.6,1.4,1,2.3,1.3l0.3,3.3
	c0,0.3,0.3,0.6,0.6,0.6h5.1c0.3,0,0.6-0.3,0.6-0.6l0.3-3.3c0.9-0.3,1.5-0.8,2.3-1.3l3,1.3c0.3,0.1,0.7,0,0.8-0.3l2.6-4.4
	c0.2-0.3,0.1-0.7-0.2-0.9L826.1-111.4z M816.8-108c-2.7,0-4.8-2.1-4.8-4.8c0-2.7,2.1-4.8,4.8-4.8c2.7,0,4.8,2.1,4.8,4.8
	C821.6-110.1,819.5-108,816.8-108z"/>
<path class="st4" d="M841.7-129.8c0.1-0.5,0.1-0.9,0.1-1.2s0-0.8-0.1-1.2l2.4-1.7c0.3-0.2,0.3-0.5,0.2-0.8l-2.4-4.1
	c-0.2-0.3-0.5-0.4-0.8-0.2l-2.8,1.2c-0.7-0.5-1.3-0.9-2.1-1.2l-0.3-3c0.1-0.3-0.1-0.5-0.4-0.5h-4.7c-0.3,0-0.6,0.2-0.6,0.5l-0.3,3
	c-0.8,0.3-1.4,0.7-2.1,1.2l-2.8-1.2c-0.3-0.1-0.6,0-0.8,0.2l-2.4,4.1c-0.2,0.3-0.1,0.6,0.2,0.8l2.4,1.7c0,0.5,0,0.9,0,1.2
	s0,0.8,0.1,1.2l-2.4,1.7c-0.3,0.2-0.3,0.5-0.2,0.8l2.4,4.1c0.2,0.3,0.5,0.4,0.8,0.2l2.8-1.2c0.7,0.5,1.3,0.9,2.1,1.2l0.3,3
	c0,0.3,0.3,0.5,0.6,0.5h4.7c0.3,0,0.6-0.2,0.6-0.5l0.3-3c0.8-0.3,1.4-0.7,2.1-1.2l2.8,1.2c0.3,0.1,0.6,0,0.8-0.2l2.4-4.1
	c0.2-0.3,0.1-0.6-0.2-0.8L841.7-129.8z M833.2-126.2c-2.7,0-4.8-2.1-4.8-4.8c0-2.7,2.1-4.8,4.8-4.8c2.7,0,4.8,2.1,4.8,4.8
	C838-128.3,835.9-126.2,833.2-126.2z"/>
<rect x="-250.7" y="14.7" class="st12" width="4.9" height="28.2"/>
<rect x="-258" y="23.3" class="st13" width="4.9" height="19.6"/>
<rect x="-265.4" y="17.1" class="st12" width="4.9" height="25.8"/>
<rect x="-272.8" y="24.5" class="st13" width="4.9" height="18.4"/>
<rect x="-280.1" y="28.2" class="st12" width="4.9" height="14.7"/>
<rect x="-287.5" y="25.7" class="st13" width="4.9" height="17.2"/>
<rect x="-294.8" y="30.6" class="st12" width="4.9" height="12.3"/>
<g>
	<polygon class="st12" points="-250.6,0.1 -258,7.6 -263,2.7 -275.2,14.9 -281.3,8.8 -294.1,21.5 -290.7,25 -281.3,15.7 
		-275.2,21.8 -263,9.5 -258,14.4 -247.1,3.5 	"/>
	<polygon class="st12" points="-245.8,-1.3 -256.8,-1.3 -245.8,9.8 	"/>
</g>
<circle class="st9" cx="-194.7" cy="21.2" r="16.8"/>
<g>
	<path class="st10" d="M-196.4,18.3c-1.6,0.9-2.1,3-1.2,4.6c1,1.6,3,2.1,4.6,1.2c1.6-0.9,2.1-3,1.2-4.6
		C-192.7,17.9-194.7,17.4-196.4,18.3"/>
	<polygon class="st10" points="-182,13.9 -192.5,22.6 -194.8,18.7 	"/>
</g>
<g>
	<path class="st10" d="M-208.1,20.1h-5.5c0,0.4-0.1,0.7-0.1,1.1c0,0.4,0,0.8,0.1,1.1h5.5V20.1z"/>
	<path class="st10" d="M-205.9,28.5l-1.1-2l-4.9,2.6c0.3,0.7,0.7,1.3,1.1,2L-205.9,28.5z"/>
</g>
<g>
	<path class="st10" d="M-202.3,10.1l2-1.1l-2.7-4.8c-0.7,0.3-1.3,0.7-2,1.1L-202.3,10.1z"/>
	<path class="st10" d="M-211.6,12.7l4.8,2.8l1.1-2l-4.8-2.8C-210.9,11.4-211.3,12.1-211.6,12.7z"/>
	<path class="st10" d="M-181.3,22.3h5.5c0-0.4,0.1-0.7,0.1-1.1c0-0.4,0-0.8-0.1-1.1h-5.5V22.3z"/>
	<path class="st10" d="M-177.3,28.9l-4.9-2.5l-1,2l4.9,2.5C-177.9,30.2-177.6,29.6-177.3,28.9z"/>
	<path class="st10" d="M-184.1,5.5c-0.6-0.4-1.3-0.8-2-1.1l-2.8,4.8l1.9,1.1L-184.1,5.5z"/>
	<path class="st10" d="M-193.5,2.3c-0.4,0-0.7-0.1-1.1-0.1c-0.4,0-0.8,0-1.1,0.1v5.5h2.3V2.3z"/>
</g>
<path class="st8" d="M-194.7,0c-11.7,0-21.2,9.5-21.2,21.2s9.5,21.2,21.2,21.2c11.7,0,21.2-9.5,21.2-21.2S-182.9,0-194.7,0z
	 M-194.7,38c-9.3,0-16.8-7.5-16.8-16.8c0-9.3,7.5-16.8,16.8-16.8c9.3,0,16.8,7.5,16.8,16.8C-177.9,30.5-185.4,38-194.7,38z"/>
<path class="st9" d="M-195.2,20.3c-0.5,0.3-0.7,1-0.4,1.5c0.3,0.5,1,0.7,1.5,0.4c0.5-0.3,0.7-1,0.4-1.5
	C-194,20.1-194.7,20-195.2,20.3"/>
<path class="st14" d="M-143.4,27.2v11.3c0,2.5,2,4.5,4.5,4.5h31.6c2.5,0,4.5-2,4.5-4.5V27.2H-143.4z"/>
<path class="st12" d="M-102.7,27.2c0,2.5-2,4.5-4.5,4.5h-31.6c-2.5,0-4.5-2-4.5-4.5l3.4-13.5c0.2-2.4,2-4.5,4.5-4.5h24.8
	c2.5,0,4.2,2,4.5,4.5L-102.7,27.2z"/>
<circle class="st9" cx="-110.6" cy="37.3" r="2.3"/>
<g>
	<ellipse class="st9" cx="-121.3" cy="6.2" rx="6.2" ry="6.1"/>
	<ellipse class="st9" cx="-119.9" cy="16.5" rx="5.1" ry="5"/>
	<ellipse class="st9" cx="-126.9" cy="11.9" rx="5.1" ry="5"/>
	<ellipse class="st9" cx="-106" cy="11.5" rx="4.4" ry="4.3"/>
	<ellipse class="st9" cx="-111.9" cy="15" rx="4.4" ry="4.3"/>
	<ellipse class="st9" cx="-111.5" cy="8.1" rx="4.8" ry="4.6"/>
	<ellipse class="st9" cx="-116.9" cy="10.9" rx="5.1" ry="5"/>
</g>
<path class="st15" d="M-326.3,181.9c0,1.5-1.2,2.8-2.8,2.8h-44.4c-1.5,0-2.8-1.2-2.8-2.8v-30.6c0-1.5,1.2-2.8,2.8-2.8h44.4
	c1.5,0,2.8,1.2,2.8,2.8V181.9z"/>
<path class="st15" d="M-338.8,152.7c0,1.5-1.2,2.8-2.8,2.8H-361c-1.5,0-2.8-1.2-2.8-2.8v-6.9c0-1.5,1.2-2.8,2.8-2.8h19.4
	c1.5,0,2.8,1.2,2.8,2.8V152.7z"/>
<circle class="st16" cx="-333.2" cy="155.5" r="2.8"/>
<circle class="st16" cx="-351.3" cy="166.6" r="13.9"/>
<circle class="st17" cx="-351.3" cy="166.6" r="11.1"/>
<path class="st15" d="M-356.8,172.2c0,1.6,0.4,3.2,1,4.6c1.4,0.6,2.9,1,4.6,1c6.1,0,11.1-5,11.1-11.1c0-1.6-0.4-3.2-1-4.6
	c-1.4-0.6-2.9-1-4.6-1C-351.8,161.1-356.8,166-356.8,172.2z"/>
<rect x="-254.3" y="157.9" class="st18" width="4.7" height="26.8"/>
<rect x="-261.3" y="166" class="st19" width="4.7" height="18.7"/>
<rect x="-268.3" y="160.2" class="st18" width="4.7" height="24.5"/>
<rect x="-275.3" y="167.2" class="st19" width="4.7" height="17.5"/>
<rect x="-282.3" y="170.7" class="st18" width="4.7" height="14"/>
<rect x="-289.3" y="168.4" class="st19" width="4.7" height="16.3"/>
<rect x="-296.3" y="173" class="st18" width="4.7" height="11.7"/>
<g>
	<polygon class="st18" points="-254.1,144 -261.3,151.1 -265.9,146.4 -277.6,158.1 -283.4,152.3 -295.6,164.4 -292.3,167.7 
		-283.4,158.8 -277.6,164.6 -265.9,153 -261.3,157.6 -250.9,147.2 	"/>
	<polygon class="st18" points="-249.6,142.7 -260.1,142.7 -249.6,153.2 	"/>
</g>
<circle class="st16" cx="-198.4" cy="163.8" r="16.5"/>
<g>
	<path class="st17" d="M-200,160.9c-1.6,0.9-2.1,2.9-1.2,4.5c0.9,1.6,3,2.1,4.6,1.2c1.6-0.9,2.1-2.9,1.2-4.5
		C-196.4,160.5-198.5,160-200,160.9"/>
	<polygon class="st17" points="-186,156.6 -196.3,165.1 -198.5,161.3 	"/>
</g>
<g>
	<path class="st17" d="M-211.5,162.7h-5.4c0,0.4-0.1,0.7-0.1,1.1c0,0.4,0,0.7,0.1,1.1h5.4V162.7z"/>
	<path class="st17" d="M-209.5,170.9l-1-2l-4.8,2.6c0.3,0.7,0.7,1.3,1,2L-209.5,170.9z"/>
</g>
<g>
	<path class="st17" d="M-205.9,152.9l1.9-1.1l-2.7-4.7c-0.7,0.3-1.3,0.7-1.9,1.1L-205.9,152.9z"/>
	<path class="st17" d="M-215.1,155.4l4.7,2.7l1.1-1.9l-4.7-2.7C-214.4,154.1-214.7,154.8-215.1,155.4z"/>
	<path class="st17" d="M-185.2,164.9h5.4c0-0.4,0.1-0.7,0.1-1.1c0-0.4,0-0.7-0.1-1.1h-5.4V164.9z"/>
	<path class="st17" d="M-181.3,171.3l-4.9-2.5l-1,2l4.8,2.5C-181.9,172.6-181.6,172-181.3,171.3z"/>
	<path class="st17" d="M-188,148.3c-0.6-0.4-1.3-0.8-1.9-1.1l-2.8,4.7l1.9,1.1L-188,148.3z"/>
	<path class="st17" d="M-197.3,145.2c-0.4,0-0.7-0.1-1.1-0.1c-0.4,0-0.7,0-1.1,0.1v5.4h2.2V145.2z"/>
</g>
<path class="st15" d="M-198.4,142.9c-11.5,0-20.9,9.3-20.9,20.9c0,11.5,9.3,20.9,20.9,20.9c11.5,0,20.9-9.3,20.9-20.9
	C-177.5,152.3-186.9,142.9-198.4,142.9z M-198.4,180.2c-9.1,0-16.5-7.4-16.5-16.5c0-9.1,7.4-16.5,16.5-16.5
	c9.1,0,16.5,7.4,16.5,16.5C-181.9,172.9-189.3,180.2-198.4,180.2z"/>
<path class="st16" d="M-198.9,162.8c-0.5,0.3-0.7,1-0.4,1.5c0.3,0.5,1,0.7,1.5,0.4c0.5-0.3,0.7-1,0.4-1.5
	C-197.7,162.7-198.4,162.5-198.9,162.8"/>
<path class="st19" d="M-146.3,169.6v11.2c0,2.5,2,4.5,4.5,4.5h31.3c2.5,0,4.5-2,4.5-4.5v-11.2H-146.3z"/>
<path class="st18" d="M-106.1,169.6c0,2.5-2,4.5-4.5,4.5h-31.3c-2.5,0-4.5-2-4.5-4.5l3.4-13.4c0.2-2.3,2-4.5,4.5-4.5h24.6
	c2.5,0,4.1,2,4.5,4.5L-106.1,169.6z"/>
<circle class="st16" cx="-113.9" cy="179.7" r="2.2"/>
<g>
	<ellipse class="st20" cx="-124.5" cy="148.8" rx="6.2" ry="6"/>
	<ellipse class="st20" cx="-123.1" cy="159.1" rx="5.1" ry="5"/>
	<ellipse class="st20" cx="-130.1" cy="154.5" rx="5.1" ry="5"/>
	<ellipse class="st20" cx="-109.3" cy="154.1" rx="4.4" ry="4.2"/>
	<ellipse class="st20" cx="-115.1" cy="157.5" rx="4.4" ry="4.2"/>
	<ellipse class="st20" cx="-114.8" cy="150.7" rx="4.7" ry="4.6"/>
	<ellipse class="st20" cx="-120.1" cy="153.5" rx="5.1" ry="5"/>
</g>
<g>
	
		<rect x="-39.5" y="25.9" transform="matrix(-0.707 0.7072 -0.7072 -0.707 -38.9692 86.201)" class="st12" width="4.3" height="18.3"/>
	<circle class="st12" cx="-55.2" cy="17.2" r="17.2"/>
</g>
<rect x="-37.7" y="30.2" transform="matrix(-0.7072 0.707 -0.707 -0.7072 -34.6738 87.9853)" class="st14" width="4.3" height="13.2"/>
<circle class="st9" cx="-55.2" cy="17.2" r="14"/>
<path class="st6" d="M-47.8,11c-1.8-2.1-4.5-3.4-7.4-3.4c-2.9,0-5.6,1.3-7.4,3.4c-0.4,0.4-0.3,1.2,0.1,1.5c0.4,0.4,1.2,0.3,1.5-0.1
	c1.5-1.7,3.5-2.7,5.8-2.7c2.3,0,4.3,1,5.8,2.7c0.2,0.2,0.5,0.4,0.9,0.4c0.2,0,0.5-0.1,0.6-0.2C-47.4,12.2-47.4,11.4-47.8,11z"/>
<path class="st8" d="M0,22.4c0,13.4,18,20.2,18,20.2s18-6.7,18-20.2c0-5.5,0-19.1,0-19.1C31.5,3.4,18,0,18,0S4.4,3.4,0,3.4
	C0,3.4,0,16.9,0,22.4z"/>
<path class="st10" d="M35.9,22.4c0,13.4-18,20.2-18,20.2V0c0,0,13.5,3.4,18,3.4C35.9,3.4,35.9,16.9,35.9,22.4z"/>
<path class="st9" d="M31.4,22.4c0,8.1-9.6,13.5-13.5,15.3c-3.9-1.8-13.5-7.2-13.5-15.3v-15C9.2,6.7,15.2,5.3,18,4.6
	c2.7,0.7,8.8,2.1,13.5,2.8V22.4z"/>
<path class="st21" d="M31.4,22.5c0,8.1-9.6,13.5-13.5,15.3l0-33.1c2.7,0.7,8.8,2.1,13.5,2.8V22.5z"/>
<circle class="st6" cx="2.2" cy="6.7" r="1.1"/>
<circle class="st6" cx="10.1" cy="4.5" r="1.1"/>
<circle class="st6" cx="18" cy="2.2" r="1.1"/>
<circle class="st6" cx="2.2" cy="13.5" r="1.1"/>
<circle class="st6" cx="2.2" cy="20.2" r="1.1"/>
<circle class="st6" cx="3.4" cy="26.9" r="1.1"/>
<circle class="st6" cx="6.7" cy="32.5" r="1.1"/>
<circle class="st6" cx="12.3" cy="37" r="1.1"/>
<circle class="st6" cx="33.7" cy="6.7" r="1.1"/>
<circle class="st6" cx="25.8" cy="4.5" r="1.1"/>
<circle class="st6" cx="33.7" cy="13.5" r="1.1"/>
<circle class="st6" cx="33.7" cy="20.2" r="1.1"/>
<circle class="st6" cx="32.5" cy="26.9" r="1.1"/>
<circle class="st6" cx="29.2" cy="32.5" r="1.1"/>
<circle class="st6" cx="23.6" cy="37" r="1.1"/>
<polygon class="st6" points="18,23.4 31.4,14.2 31.4,9.7 18,18.9 "/>
<path class="st6" d="M18,18.9L5.7,27.3c0.5,1.1,1.2,2.1,2,3.1l10.3-7L18,18.9z"/>
<polygon class="st6" points="13.5,13.5 11.2,16.3 9,13.5 11.2,10.7 "/>
<polygon class="st6" points="26.9,26.9 24.7,29.7 22.4,26.9 24.7,24.1 "/>
<circle class="st14" cx="110.8" cy="8.5" r="8.4"/>
<circle class="st14" cx="85.5" cy="8.5" r="8.4"/>
<path class="st12" d="M130,21.1l-21.5,4.2H87.8l-21.5-4.2l6-11.1c1.5-2.7,4.4-4.4,7.5-4.4h36.8c3.1,0,5.9,1.7,7.5,4.4L130,21.1z"/>
<circle class="st14" cx="117.8" cy="28.2" r="14.1"/>
<circle class="st14" cx="78.4" cy="28.2" r="14.1"/>
<circle class="st14" cx="98.1" cy="25.4" r="7"/>
<circle class="st9" cx="98.1" cy="25.4" r="2.8"/>
<g>
	<circle class="st9" cx="117.8" cy="28.2" r="9.8"/>
	<circle class="st9" cx="78.4" cy="28.2" r="9.8"/>
</g>
<g>
	<path class="st6" d="M123,24.9c-1.4-1.5-3.2-2.4-5.2-2.4c-2,0-3.9,0.8-5.2,2.4c-0.6,0.6-0.4,1.4,0.1,2c0.6,0.6,1.4,0.4,2-0.1
		c1.7-1.8,4.6-1.8,6.3,0c0.3,0.3,0.7,0.4,1,0.4c0.3,0,0.7-0.1,1-0.4C123.6,26.3,123.6,25.5,123,24.9z"/>
	<path class="st6" d="M78.4,22.6c-2,0-3.9,0.8-5.2,2.4c-0.6,0.6-0.4,1.4,0.1,2c0.6,0.6,1.4,0.4,2-0.1c1.7-1.8,4.6-1.8,6.3,0
		c0.3,0.3,0.7,0.4,1,0.4c0.3,0,0.7-0.1,1-0.4c0.6-0.6,0.6-1.4,0.1-2C82.4,23.4,80.4,22.6,78.4,22.6z"/>
</g>
<path class="st10" d="M184.1,18.9h13.8l6.4,6.4v-18c0-2.3-1.9-4.2-4.2-4.2h-15.9c-2.3,0-4.2,1.9-4.2,4.2v7.4
	C179.8,17,181.8,18.9,184.1,18.9z"/>
<path class="st12" d="M182,15.8h-13.8l-6.4,6.4v-18c0-2.3,1.9-4.2,4.2-4.2H182c2.3,0,4.2,1.9,4.2,4.2v7.4
	C186.2,13.9,184.3,15.8,182,15.8z"/>
<g>
	<circle class="st12" cx="170.3" cy="28.5" r="5.3"/>
	<circle class="st12" cx="195.7" cy="28.5" r="5.3"/>
</g>
<g>
	<path class="st10" d="M178.8,40.1c0,0-2.3-4.2-8.5-4.2c-6.1,0-8.5,4.2-8.5,4.2v2.1h16.9V40.1L178.8,40.1z"/>
	<path class="st10" d="M204.2,40.1c0,0-2.3-4.2-8.5-4.2s-8.5,4.2-8.5,4.2v2.1h16.9V40.1z"/>
</g>
<path class="st14" d="M255.1,30.5c0.1-0.4,0.1-0.8,0.1-1.3c0-0.5,0-0.8-0.1-1.3l2.6-1.9c0.3-0.2,0.4-0.6,0.2-0.8l-2.5-4.3
	c-0.2-0.3-0.5-0.4-0.7-0.3l-2.9,1.4c-0.7-0.6-1.4-0.9-2.2-1.3l-0.3-3.2c0-0.3-0.3-0.6-0.6-0.6h-5c-0.3,0-0.6,0.3-0.6,0.6l-0.4,3.3
	c-0.8,0.3-1.5,0.7-2.2,1.3l-2.9-1.3c-0.3-0.1-0.7,0-0.7,0.3l-2.5,4.3c-0.2,0.3-0.1,0.7,0.2,0.8l2.6,1.9c-0.1,0.4-0.1,0.8-0.1,1.3
	c0,0.5,0,0.8,0.1,1.3l-2.6,1.9c-0.3,0.2-0.4,0.6-0.2,0.8l2.5,4.3c0.2,0.3,0.5,0.4,0.7,0.3l2.9-1.3c0.7,0.6,1.4,0.9,2.2,1.3l0.3,3.2
	c0,0.3,0.3,0.6,0.6,0.6h5c0.3,0,0.6-0.3,0.6-0.6l0.3-3.2c0.8-0.3,1.5-0.8,2.2-1.3l2.9,1.3c0.3,0.1,0.7,0,0.7-0.3l2.5-4.3
	c0.2-0.3,0.1-0.7-0.2-0.8L255.1,30.5z M246.1,33.9c-2.6,0-4.7-2.1-4.7-4.7c0-2.6,2.1-4.7,4.7-4.7c2.6,0,4.7,2.1,4.7,4.7
	C250.8,31.8,248.7,33.9,246.1,33.9z"/>
<path class="st12" d="M270.3,12.6c0.1-0.5,0.1-0.8,0.1-1.2c0-0.4,0-0.7-0.1-1.2l2.3-1.7c0.3-0.2,0.3-0.5,0.2-0.7l-2.3-4
	c-0.2-0.3-0.5-0.4-0.8-0.2l-2.7,1.2c-0.7-0.5-1.3-0.8-2.1-1.2l-0.3-2.9c0.1-0.3-0.1-0.5-0.4-0.5h-4.6c-0.3,0-0.6,0.2-0.6,0.5
	l-0.3,2.9c-0.7,0.3-1.4,0.7-2.1,1.2l-2.7-1.2c-0.3-0.1-0.6,0-0.7,0.2l-2.3,4c-0.2,0.3-0.1,0.6,0.2,0.7l2.3,1.7c0,0.5,0,0.8,0,1.2
	c0,0.4,0,0.7,0.1,1.2l-2.3,1.7c-0.3,0.2-0.3,0.5-0.2,0.8l2.3,4c0.2,0.3,0.5,0.4,0.7,0.2l2.7-1.2c0.7,0.5,1.3,0.8,2.1,1.2l0.3,2.9
	c0,0.3,0.3,0.5,0.6,0.5h4.6c0.3,0,0.6-0.2,0.6-0.5l0.3-2.9c0.7-0.3,1.4-0.7,2.1-1.2l2.7,1.2c0.3,0.1,0.6,0,0.8-0.2l2.3-4
	c0.2-0.3,0.1-0.6-0.2-0.8L270.3,12.6z M262,16.1c-2.6,0-4.7-2.1-4.7-4.7c0-2.6,2.1-4.7,4.7-4.7c2.6,0,4.7,2.1,4.7,4.7
	C266.7,14.1,264.6,16.1,262,16.1z"/>
<g>
	<path class="st8" d="M332.8,17.4h-2.5c0-9.2,5.1-9.6,9.2-9.9c4.1-0.3,7-0.6,7-7.6h2.5c0,9.3-5.2,9.7-9.3,10.1
		C335.7,10.2,332.8,10.5,332.8,17.4z"/>
</g>
<rect x="304.1" y="17.4" class="st10" width="55" height="25"/>
<g>
	<rect x="306.6" y="19.9" class="st8" width="5" height="5"/>
	<rect x="314.1" y="19.9" class="st8" width="5" height="5"/>
	<rect x="321.6" y="19.9" class="st8" width="5" height="5"/>
	<rect x="329.1" y="19.9" class="st8" width="5" height="5"/>
	<rect x="336.6" y="19.9" class="st8" width="5" height="5"/>
	<rect x="344.1" y="19.9" class="st8" width="5" height="5"/>
	<rect x="351.6" y="19.9" class="st8" width="5" height="5"/>
	<rect x="306.6" y="34.9" class="st8" width="5" height="5"/>
	<rect x="314.1" y="34.9" class="st8" width="5" height="5"/>
	<rect x="321.6" y="34.9" class="st8" width="20" height="5"/>
	<rect x="344.1" y="34.9" class="st8" width="5" height="5"/>
	<rect x="351.6" y="34.9" class="st8" width="5" height="5"/>
	<rect x="306.6" y="27.4" class="st8" width="8.8" height="5"/>
	<rect x="317.8" y="27.4" class="st8" width="5" height="5"/>
	<rect x="325.3" y="27.4" class="st8" width="5" height="5"/>
	<rect x="332.8" y="27.4" class="st8" width="5" height="5"/>
	<rect x="340.3" y="27.4" class="st8" width="5" height="5"/>
	<rect x="347.8" y="27.4" class="st8" width="8.8" height="5"/>
</g>
<g>
	
		<rect x="-42.8" y="168.2" transform="matrix(-0.707 0.7072 -0.7072 -0.707 55.7673 331.2922)" class="st15" width="4.2" height="17.9"/>
	<circle class="st15" cx="-58.2" cy="159.7" r="16.8"/>
</g>
<rect x="-41.1" y="172.5" transform="matrix(-0.7072 0.707 -0.707 -0.7072 59.9642 333.0582)" class="st17" width="4.2" height="12.9"/>
<circle class="st20" cx="-58.2" cy="159.7" r="13.7"/>
<path class="st6" d="M-51,153.6c-1.8-2.1-4.4-3.4-7.3-3.4c-2.8,0-5.5,1.3-7.3,3.4c-0.4,0.4-0.3,1.2,0.1,1.5c0.4,0.4,1.2,0.3,1.5-0.1
	c1.5-1.7,3.5-2.6,5.7-2.6c2.2,0,4.2,0.9,5.7,2.6c0.2,0.2,0.5,0.4,0.8,0.4c0.2,0,0.5-0.1,0.6-0.2C-50.6,154.8-50.6,154.1-51,153.6z"
	/>
<path class="st15" d="M-2,164.2c0,12.9,17.3,19.5,17.3,19.5s17.3-6.5,17.3-19.5c0-5.4,0-18.4,0-18.4c-4.3,0-17.3-3.3-17.3-3.3
	S2.3,145.7-2,145.7C-2,145.7-2,158.8-2,164.2z"/>
<path class="st17" d="M32.7,164.2c0,12.9-17.3,19.5-17.3,19.5v-41.2c0,0,13.1,3.3,17.3,3.3C32.7,145.7,32.7,158.8,32.7,164.2z"/>
<path class="st20" d="M28.4,164.2c0,7.8-9.3,13-13,14.8c-3.7-1.8-13-6.9-13-14.8v-14.5c4.5-0.7,10.4-2.1,13-2.7
	c2.7,0.6,8.5,2,13,2.7V164.2z"/>
<path class="st22" d="M28.4,164.2c0,7.8-9.3,13-13,14.8l0-32c2.7,0.6,8.5,2,13,2.7V164.2z"/>
<circle class="st6" cx="0.2" cy="149" r="1.1"/>
<circle class="st6" cx="7.8" cy="146.8" r="1.1"/>
<circle class="st6" cx="15.3" cy="144.7" r="1.1"/>
<circle class="st6" cx="0.2" cy="155.5" r="1.1"/>
<circle class="st6" cx="0.2" cy="162" r="1.1"/>
<circle class="st6" cx="1.2" cy="168.5" r="1.1"/>
<circle class="st6" cx="4.5" cy="173.9" r="1.1"/>
<circle class="st6" cx="9.9" cy="178.3" r="1.1"/>
<circle class="st6" cx="30.5" cy="149" r="1.1"/>
<circle class="st6" cx="22.9" cy="146.8" r="1.1"/>
<circle class="st6" cx="30.5" cy="155.5" r="1.1"/>
<circle class="st6" cx="30.5" cy="162" r="1.1"/>
<circle class="st6" cx="29.4" cy="168.5" r="1.1"/>
<circle class="st6" cx="26.2" cy="173.9" r="1.1"/>
<circle class="st6" cx="20.8" cy="178.3" r="1.1"/>
<polygon class="st6" points="15.3,165.1 28.4,156.2 28.4,151.9 15.3,160.8 "/>
<path class="st6" d="M15.3,160.8l-11.9,8.1c0.5,1.1,1.2,2.1,2,3l9.9-6.7L15.3,160.8z"/>
<polygon class="st6" points="11,155.5 8.8,158.2 6.7,155.5 8.8,152.8 "/>
<polygon class="st6" points="24,168.5 21.8,171.2 19.7,168.5 21.8,165.8 "/>
<circle class="st19" cx="108.9" cy="151.3" r="8.4"/>
<circle class="st19" cx="83.7" cy="151.3" r="8.4"/>
<path class="st18" d="M128.1,163.9l-21.4,4.2H86.1l-21.4-4.2l6-11.1c1.5-2.7,4.3-4.3,7.4-4.3h36.7c3.1,0,5.9,1.7,7.4,4.3
	L128.1,163.9z"/>
<circle class="st19" cx="115.9" cy="170.9" r="14"/>
<circle class="st19" cx="76.7" cy="170.9" r="14"/>
<circle class="st19" cx="96.3" cy="168.1" r="7"/>
<circle class="st20" cx="96.3" cy="168.1" r="2.8"/>
<g>
	<circle class="st20" cx="115.9" cy="170.9" r="9.8"/>
	<circle class="st20" cx="76.7" cy="170.9" r="9.8"/>
</g>
<g>
	<path class="st6" d="M121.1,167.7c-1.4-1.5-3.2-2.4-5.2-2.4c-2,0-3.9,0.8-5.2,2.4c-0.6,0.6-0.4,1.4,0.1,2c0.6,0.6,1.4,0.4,2-0.1
		c1.7-1.8,4.6-1.8,6.3,0c0.3,0.3,0.7,0.4,1,0.4c0.3,0,0.7-0.1,1-0.4C121.7,169.1,121.7,168.2,121.1,167.7z"/>
	<path class="st6" d="M76.7,165.3c-2,0-3.9,0.8-5.2,2.4c-0.6,0.6-0.4,1.4,0.1,2c0.6,0.6,1.4,0.4,2-0.1c1.7-1.8,4.6-1.8,6.3,0
		c0.3,0.3,0.7,0.4,1,0.4c0.3,0,0.7-0.1,1-0.4c0.6-0.6,0.6-1.4,0.1-2C80.6,166.1,78.6,165.3,76.7,165.3z"/>
</g>
<path class="st17" d="M180.4,161.7h13.5l6.2,6.2v-17.7c0-2.3-1.9-4.2-4.2-4.2h-15.6c-2.3,0-4.2,1.9-4.2,4.2v7.3
	C176.2,159.8,178.1,161.7,180.4,161.7z"/>
<path class="st15" d="M178.3,158.6h-13.5l-6.2,6.2v-17.7c0-2.3,1.9-4.2,4.2-4.2h15.6c2.3,0,4.2,1.9,4.2,4.2v7.3
	C182.5,156.7,180.6,158.6,178.3,158.6z"/>
<g>
	<circle class="st15" cx="166.9" cy="171" r="5.2"/>
	<circle class="st15" cx="191.8" cy="171" r="5.2"/>
</g>
<g>
	<path class="st17" d="M175.2,182.5c0,0-2.3-4.2-8.3-4.2c-6,0-8.3,4.2-8.3,4.2v2.1h16.6V182.5L175.2,182.5z"/>
	<path class="st17" d="M200.1,182.5c0,0-2.3-4.2-8.3-4.2c-6,0-8.3,4.2-8.3,4.2v2.1h16.6V182.5z"/>
</g>
<path class="st19" d="M251.2,173c0.1-0.4,0.1-0.9,0.1-1.3c0-0.5,0-0.9-0.1-1.3l2.7-1.9c0.3-0.2,0.4-0.6,0.2-0.9l-2.6-4.4
	c-0.2-0.3-0.5-0.4-0.8-0.3l-2.9,1.4c-0.7-0.6-1.4-0.9-2.3-1.3l-0.3-3.2c0-0.3-0.3-0.6-0.6-0.6h-5c-0.3,0-0.6,0.3-0.6,0.6l-0.4,3.3
	c-0.9,0.3-1.5,0.8-2.3,1.3l-2.9-1.3c-0.3-0.1-0.7,0-0.8,0.3l-2.6,4.4c-0.2,0.3-0.1,0.7,0.2,0.9l2.7,1.9c-0.1,0.4-0.1,0.9-0.1,1.3
	c0,0.5,0,0.9,0.1,1.3l-2.7,1.9c-0.3,0.2-0.4,0.6-0.2,0.9l2.6,4.4c0.2,0.3,0.5,0.4,0.8,0.3l2.9-1.3c0.7,0.6,1.4,0.9,2.3,1.3l0.3,3.2
	c0,0.3,0.3,0.6,0.6,0.6h5c0.3,0,0.6-0.3,0.6-0.6l0.3-3.2c0.9-0.3,1.5-0.8,2.3-1.3l2.9,1.3c0.3,0.1,0.7,0,0.8-0.3l2.6-4.4
	c0.2-0.3,0.1-0.7-0.2-0.9L251.2,173z M242.1,176.4c-2.7,0-4.7-2.1-4.7-4.7c0-2.7,2.1-4.7,4.7-4.7c2.7,0,4.7,2.1,4.7,4.7
	C246.9,174.3,244.8,176.4,242.1,176.4z"/>
<path class="st18" d="M266.7,154.9c0.1-0.5,0.1-0.9,0.1-1.2c0-0.4,0-0.8-0.1-1.2l2.4-1.7c0.3-0.2,0.3-0.5,0.2-0.8l-2.4-4.1
	c-0.2-0.3-0.5-0.4-0.8-0.2l-2.7,1.2c-0.7-0.5-1.3-0.9-2.1-1.2l-0.3-2.9c0.1-0.3-0.1-0.5-0.4-0.5H256c-0.3,0-0.6,0.2-0.6,0.5
	l-0.3,2.9c-0.8,0.3-1.4,0.7-2.1,1.2l-2.7-1.2c-0.3-0.1-0.6,0-0.8,0.2l-2.4,4.1c-0.2,0.3-0.1,0.6,0.2,0.8l2.4,1.7c0,0.5,0,0.9,0,1.2
	c0,0.4,0,0.8,0.1,1.2l-2.4,1.7c-0.3,0.2-0.3,0.5-0.2,0.8l2.4,4.1c0.2,0.3,0.5,0.4,0.8,0.2l2.7-1.2c0.7,0.5,1.3,0.9,2.1,1.2l0.3,2.9
	c0,0.3,0.3,0.5,0.6,0.5h4.6c0.3,0,0.6-0.2,0.6-0.5l0.3-2.9c0.8-0.3,1.4-0.7,2.1-1.2l2.7,1.2c0.3,0.1,0.6,0,0.8-0.2l2.4-4.1
	c0.2-0.3,0.1-0.6-0.2-0.8L266.7,154.9z M258.2,158.4c-2.7,0-4.7-2.1-4.7-4.7c0-2.7,2.1-4.7,4.7-4.7c2.7,0,4.7,2.1,4.7,4.7
	C263,156.3,260.9,158.4,258.2,158.4z"/>
<g>
	<path class="st15" d="M327.9,160.1h-2.4c0-9,5-9.3,9-9.7c4-0.3,6.8-0.5,6.8-7.4h2.4c0,9.1-5,9.5-9.1,9.8
		C330.8,153.2,327.9,153.4,327.9,160.1z"/>
</g>
<rect x="300" y="160.1" class="st17" width="53.5" height="24.3"/>
<g>
	<rect x="302.4" y="162.5" class="st15" width="4.9" height="4.9"/>
	<rect x="309.7" y="162.5" class="st15" width="4.9" height="4.9"/>
	<rect x="317" y="162.5" class="st15" width="4.9" height="4.9"/>
	<rect x="324.3" y="162.5" class="st15" width="4.9" height="4.9"/>
	<rect x="331.6" y="162.5" class="st15" width="4.9" height="4.9"/>
	<rect x="338.9" y="162.5" class="st15" width="4.9" height="4.9"/>
	<rect x="346.2" y="162.5" class="st15" width="4.9" height="4.9"/>
	<rect x="302.4" y="177.1" class="st15" width="4.9" height="4.9"/>
	<rect x="309.7" y="177.1" class="st15" width="4.9" height="4.9"/>
	<rect x="317" y="177.1" class="st15" width="19.5" height="4.9"/>
	<rect x="338.9" y="177.1" class="st15" width="4.9" height="4.9"/>
	<rect x="346.2" y="177.1" class="st15" width="4.9" height="4.9"/>
	<rect x="302.4" y="169.8" class="st15" width="8.5" height="4.9"/>
	<rect x="313.3" y="169.8" class="st15" width="4.9" height="4.9"/>
	<rect x="320.6" y="169.8" class="st15" width="4.9" height="4.9"/>
	<rect x="327.9" y="169.8" class="st15" width="4.9" height="4.9"/>
	<rect x="335.2" y="169.8" class="st15" width="4.9" height="4.9"/>
	<rect x="342.5" y="169.8" class="st15" width="8.5" height="4.9"/>
</g>
<circle class="st12" cx="411.2" cy="20.8" r="22.7"/>
<circle class="st9" cx="411.2" cy="20.8" r="18.1"/>
<rect x="410" y="6" class="st14" width="2.3" height="14.7"/>
<rect x="413.5" y="19.2" transform="matrix(0.7069 -0.7073 0.7073 0.7069 104.308 300.5375)" class="st14" width="2.6" height="10.4"/>
<circle class="st14" cx="411.2" cy="20.8" r="2.3"/>
<circle class="st9" cx="411.2" cy="20.8" r="1.1"/>
<g>
	<polygon class="st8" points="497.1,43.1 464,43.1 464,-0.3 486.8,-0.3 497.1,10 	"/>
</g>
<polygon class="st10" points="495.6,12.7 485.8,12.7 485.8,2.9 "/>
<g>
	<rect x="472.3" y="18.3" class="st10" width="17.6" height="2.1"/>
	<rect x="472.3" y="22.4" class="st10" width="13.4" height="2.1"/>
	<rect x="472.3" y="26.6" class="st10" width="17.6" height="2.1"/>
	<rect x="472.3" y="30.7" class="st10" width="13.4" height="2.1"/>
</g>
<path class="st14" d="M579.1,31.3c0,0.8-0.6,2.8-1.4,2.8h-42.2c-0.8,0-1.4-2-1.4-2.8V1.8c0-0.8,0.6-1.4,1.4-1.4h42.2
	c0.8,0,1.4,0.6,1.4,1.4V31.3z"/>
<rect x="537" y="3.2" class="st9" width="39.4" height="25.3"/>
<g>
	<rect x="527.1" y="39.8" class="st14" width="59" height="2.8"/>
	<polygon class="st14" points="579.1,31.3 534.2,31.3 527.1,39.8 586.2,39.8 	"/>
</g>
<polygon class="st12" points="537,32.8 576.3,32.8 579.1,37 534.2,37 "/>
<g>
	<polygon class="st8" points="646.5,38.6 617.8,38.6 617.8,-0.3 637.3,-0.3 646.5,8.9 	"/>
</g>
<polygon class="st9" points="645,9.9 636.2,9.9 636.2,1.2 "/>
<rect x="652" y="31.2" transform="matrix(-0.7073 0.7069 -0.7069 -0.7073 1141.9331 -398.1061)" class="st10" width="2.9" height="12.3"/>
<circle class="st10" cx="641.4" cy="25.3" r="11.3"/>
<circle class="st8" cx="641.4" cy="25.3" r="9.2"/>
<rect x="653.2" y="34.1" transform="matrix(-0.707 0.7072 -0.7072 -0.707 1144.6506 -397.1606)" class="st10" width="2.9" height="8.9"/>
<g>
	<path class="st9" d="M643.4,27.3h-9.9c0.4,1.6,1.3,3.1,2.6,4.1h7.4V27.3z"/>
	<path class="st9" d="M633.5,23.2h9.9v-4.1h-7.5C634.7,20.1,633.9,21.6,633.5,23.2z"/>
	<path class="st9" d="M633.3,16H624v2h7.5C631.9,17.4,632.6,16.7,633.3,16z"/>
	<path class="st9" d="M630.2,20.1H624v2h5.5C629.7,21.5,629.9,20.8,630.2,20.1z"/>
	<path class="st9" d="M629.1,25.3c0-0.3,0-0.7,0.1-1H624v2h5.2C629.1,26,629.1,25.6,629.1,25.3z"/>
	<path class="st9" d="M629.5,28.3H624v2h6.2C629.9,29.8,629.7,29,629.5,28.3z"/>
</g>
<path class="st12" d="M789.4,27.7c-3.7,0-6.7-3-6.7-6.7s3-6.7,6.7-6.7V-0.4C777.5-0.4,768,9.2,768,21c0,11.8,9.6,21.4,21.4,21.4
	c4.9,0,9.6-1.7,13.3-4.6l-9-11.5C792.4,27.2,790.9,27.7,789.4,27.7z"/>
<path class="st13" d="M796.1,21h14.6c0-11.8-9.6-21.4-21.4-21.4v14.6C793.1,14.2,796.1,17.3,796.1,21z"/>
<path class="st9" d="M810.7,21h-14.6c0,2.1-1,4-2.6,5.3l9,11.5C807.6,33.8,810.7,27.7,810.7,21z"/>
<rect x="688.4" y="0.2" class="st8" width="49.6" height="42.2"/>
<rect x="694.6" y="6.4" class="st9" width="37.2" height="6.2"/>
<g>
	<rect x="694.6" y="17.6" class="st10" width="16.1" height="19.9"/>
	<rect x="715.6" y="17.6" class="st10" width="16.1" height="19.9"/>
</g>
<g>
	<g id="XMLID_2_">
		<g>
			<path class="st17" d="M442.2,182v2.8h-58.1V182l6.9-8.3v-29.1c0-0.8,0.6-1.4,1.4-1.4h41.5c0.8,0,1.4,0.6,1.4,1.4v29.1L442.2,182z
				"/>
		</g>
		<g>
		</g>
	</g>
</g>
<rect x="393.7" y="146" class="st6" width="38.7" height="24.9"/>
<polygon class="st15" points="393.7,175.1 432.5,175.1 435.3,179.2 391,179.2 "/>
<path class="st17" d="M509.9,142.7h-34.3c-1.9,0-3.4,1.5-3.4,3.4v37.7l9.8-9.1h27.9c1.9,0,3.4-1.5,3.4-3.4v-25.1
	C513.3,144.3,511.8,142.7,509.9,142.7z"/>
<g>
	<rect x="476.7" y="151.9" class="st15" width="32" height="2.3"/>
	<rect x="476.7" y="157.6" class="st15" width="32" height="2.3"/>
	<rect x="476.7" y="163.3" class="st15" width="18.3" height="2.3"/>
</g>
<g>
	<g id="XMLID_1_">
		<g>
			<path class="st23" d="M586.7,324.7v2.8h-59v-2.8l7-8.4v-29.5c0-0.8,0.6-1.4,1.4-1.4h42.1c0.8,0,1.4,0.6,1.4,1.4v29.5L586.7,324.7
				z"/>
		</g>
		<g>
		</g>
	</g>
</g>
<path class="st23" d="M-324.4,324.9c0,1.5-1.3,2.8-2.8,2.8H-372c-1.5,0-2.8-1.3-2.8-2.8v-30.8c0-1.5,1.3-2.8,2.8-2.8h44.8
	c1.5,0,2.8,1.3,2.8,2.8V324.9z"/>
<path class="st23" d="M-337,295.5c0,1.5-1.3,2.8-2.8,2.8h-19.6c-1.5,0-2.8-1.3-2.8-2.8v-7c0-1.5,1.3-2.8,2.8-2.8h19.6
	c1.5,0,2.8,1.3,2.8,2.8V295.5z"/>
<circle class="st16" cx="-331.4" cy="298.3" r="2.8"/>
<circle class="st16" cx="-349.6" cy="309.5" r="14"/>
<circle class="st24" cx="-349.6" cy="309.5" r="11.2"/>
<path class="st23" d="M-355.2,315.1c0,1.6,0.4,3.2,1,4.6c1.4,0.6,3,1,4.6,1c6.2,0,11.2-5,11.2-11.2c0-1.6-0.4-3.2-1-4.6
	c-1.4-0.6-3-1-4.6-1C-350.2,303.9-355.2,308.9-355.2,315.1z"/>
<rect x="-251.5" y="300.2" class="st25" width="4.8" height="27.4"/>
<rect x="-258.6" y="308.5" class="st26" width="4.8" height="19.1"/>
<rect x="-265.8" y="302.6" class="st25" width="4.8" height="25"/>
<rect x="-273" y="309.7" class="st26" width="4.8" height="17.9"/>
<rect x="-280.1" y="313.3" class="st25" width="4.8" height="14.3"/>
<rect x="-287.3" y="310.9" class="st26" width="4.8" height="16.7"/>
<rect x="-294.4" y="315.7" class="st25" width="4.8" height="11.9"/>
<g>
	<polygon class="st25" points="-251.4,286 -258.6,293.3 -263.4,288.5 -275.3,300.4 -281.3,294.5 -293.7,306.9 -290.4,310.2 
		-281.3,301.1 -275.3,307.1 -263.4,295.2 -258.6,300 -248,289.3 	"/>
	<polygon class="st25" points="-246.7,284.7 -257.4,284.7 -246.7,295.4 	"/>
</g>
<circle class="st16" cx="-194.9" cy="306.3" r="17.2"/>
<g>
	<path class="st24" d="M-196.6,303.3c-1.7,1-2.2,3.1-1.2,4.7c1,1.7,3.1,2.2,4.8,1.2c1.7-1,2.2-3.1,1.2-4.7
		C-192.8,302.9-195,302.3-196.6,303.3"/>
	<polygon class="st24" points="-181.9,298.7 -192.7,307.7 -195,303.7 	"/>
</g>
<g>
	<path class="st24" d="M-208.7,305.1h-5.7c0,0.4-0.1,0.8-0.1,1.1c0,0.4,0,0.8,0.1,1.2h5.7V305.1z"/>
	<path class="st24" d="M-206.5,313.8l-1.1-2l-5,2.7c0.3,0.7,0.7,1.4,1.1,2L-206.5,313.8z"/>
</g>
<g>
	<path class="st24" d="M-202.7,294.9l2-1.2l-2.8-5c-0.7,0.3-1.4,0.7-2,1.1L-202.7,294.9z"/>
	<path class="st24" d="M-212.3,297.6l4.9,2.9l1.2-2l-4.9-2.9C-211.6,296.2-212,296.9-212.3,297.6z"/>
	<path class="st24" d="M-181.1,307.4h5.7c0-0.4,0.1-0.8,0.1-1.1c0-0.4,0-0.8-0.1-1.2h-5.7V307.4z"/>
	<path class="st24" d="M-177,314.1l-5.1-2.6l-1.1,2.1l5.1,2.6C-177.7,315.5-177.3,314.9-177,314.1z"/>
	<path class="st24" d="M-184,290c-0.6-0.4-1.3-0.8-2-1.2l-2.9,4.9l2,1.2L-184,290z"/>
	<path class="st24" d="M-193.7,286.8c-0.4,0-0.8-0.1-1.1-0.1c-0.4,0-0.8,0-1.2,0.1v5.7h2.3V286.8z"/>
</g>
<path class="st23" d="M-194.9,284.4c-12.1,0-21.8,9.8-21.8,21.8c0,12.1,9.8,21.8,21.8,21.8c12.1,0,21.8-9.8,21.8-21.8
	C-173,294.2-182.8,284.4-194.9,284.4z M-194.9,323.5c-9.5,0-17.2-7.7-17.2-17.2c0-9.5,7.7-17.2,17.2-17.2c9.5,0,17.2,7.7,17.2,17.2
	C-177.6,315.8-185.3,323.5-194.9,323.5z"/>
<path class="st16" d="M-195.4,305.3c-0.5,0.3-0.7,1-0.4,1.6c0.3,0.5,1,0.7,1.6,0.4c0.6-0.3,0.7-1,0.4-1.6
	C-194.2,305.2-194.9,305-195.4,305.3"/>
<path class="st26" d="M-143,312.1v11.2c0,2.5,2,4.5,4.5,4.5h31.3c2.5,0,4.5-2,4.5-4.5v-11.2H-143z"/>
<path class="st25" d="M-102.8,312.1c0,2.5-2,4.5-4.5,4.5h-31.3c-2.5,0-4.5-2-4.5-4.5l3.4-13.4c0.2-2.3,2-4.5,4.5-4.5h24.6
	c2.5,0,4.1,2,4.5,4.5L-102.8,312.1z"/>
<circle class="st16" cx="-110.6" cy="322.2" r="2.2"/>
<g>
	<ellipse class="st20" cx="-121.2" cy="291.3" rx="6.2" ry="6"/>
	<ellipse class="st20" cx="-119.8" cy="301.6" rx="5.1" ry="5"/>
	<ellipse class="st20" cx="-126.8" cy="297" rx="5.1" ry="5"/>
	<ellipse class="st20" cx="-106.1" cy="296.6" rx="4.4" ry="4.2"/>
	<ellipse class="st20" cx="-111.9" cy="300" rx="4.4" ry="4.2"/>
	<ellipse class="st20" cx="-111.5" cy="293.2" rx="4.7" ry="4.6"/>
	<ellipse class="st20" cx="-116.8" cy="296" rx="5.1" ry="5"/>
</g>
<g>
	
		<rect x="-40" y="310.3" transform="matrix(-0.707 0.7072 -0.7072 -0.707 161.2177 572.138)" class="st25" width="4.3" height="18.3"/>
	<circle class="st25" cx="-55.7" cy="301.7" r="17.2"/>
</g>
<rect x="-38.3" y="314.6" transform="matrix(-0.7071 0.7071 -0.7071 -0.7071 165.4995 573.9416)" class="st26" width="4.3" height="13.2"/>
<circle class="st20" cx="-55.7" cy="301.7" r="14"/>
<path class="st6" d="M-48.3,295.4c-1.8-2.1-4.5-3.4-7.4-3.4c-2.9,0-5.6,1.3-7.4,3.4c-0.4,0.4-0.3,1.2,0.1,1.5
	c0.4,0.4,1.2,0.3,1.5-0.1c1.5-1.7,3.5-2.7,5.8-2.7c2.3,0,4.3,1,5.8,2.7c0.2,0.2,0.5,0.4,0.9,0.4c0.2,0,0.5-0.1,0.6-0.2
	C-48,296.6-48,295.9-48.3,295.4z"/>
<path class="st23" d="M-0.2,307.1c0,13.4,17.9,20.2,17.9,20.2s17.9-6.7,17.9-20.2c0-5.5,0-19.1,0-19.1c-4.4,0-17.9-3.4-17.9-3.4
	S4.2,288-0.2,288C-0.2,288-0.2,301.6-0.2,307.1z"/>
<path class="st24" d="M35.7,307.1c0,13.4-17.9,20.2-17.9,20.2v-42.6c0,0,13.5,3.4,17.9,3.4C35.7,288,35.7,301.6,35.7,307.1z"/>
<path class="st20" d="M31.2,307.1c0,8.1-9.6,13.5-13.5,15.3c-3.9-1.8-13.5-7.2-13.5-15.3v-15c4.7-0.7,10.7-2.1,13.5-2.8
	c2.7,0.7,8.8,2.1,13.5,2.8V307.1z"/>
<path class="st22" d="M31.2,307.2c0,8.1-9.6,13.5-13.5,15.3l0-33.1c2.7,0.7,8.8,2.1,13.5,2.8V307.2z"/>
<circle class="st6" cx="2.1" cy="291.4" r="1.1"/>
<circle class="st6" cx="9.9" cy="289.2" r="1.1"/>
<circle class="st6" cx="17.8" cy="286.9" r="1.1"/>
<circle class="st6" cx="2.1" cy="298.1" r="1.1"/>
<circle class="st6" cx="2.1" cy="304.9" r="1.1"/>
<circle class="st6" cx="3.2" cy="311.6" r="1.1"/>
<circle class="st6" cx="6.5" cy="317.2" r="1.1"/>
<circle class="st6" cx="12.2" cy="321.7" r="1.1"/>
<circle class="st6" cx="33.5" cy="291.4" r="1.1"/>
<circle class="st6" cx="25.6" cy="289.2" r="1.1"/>
<circle class="st6" cx="33.5" cy="298.1" r="1.1"/>
<circle class="st6" cx="33.5" cy="304.9" r="1.1"/>
<circle class="st6" cx="32.3" cy="311.6" r="1.1"/>
<circle class="st6" cx="29" cy="317.2" r="1.1"/>
<circle class="st6" cx="23.4" cy="321.7" r="1.1"/>
<polygon class="st6" points="17.8,308.1 31.2,298.9 31.2,294.4 17.8,303.6 "/>
<path class="st6" d="M17.8,303.6l-12.3,8.4c0.5,1.1,1.2,2.1,2,3.1l10.3-7L17.8,303.6z"/>
<polygon class="st6" points="13.3,298.1 11,300.9 8.8,298.1 11,295.3 "/>
<polygon class="st6" points="26.7,311.6 24.5,314.4 22.2,311.6 24.5,308.8 "/>
<circle class="st26" cx="112" cy="293.8" r="8.5"/>
<circle class="st26" cx="86.6" cy="293.8" r="8.5"/>
<path class="st25" d="M131.4,306.5l-21.6,4.2H89l-21.6-4.2l6.1-11.2c1.6-2.7,4.4-4.4,7.5-4.4h37c3.1,0,5.9,1.7,7.5,4.4L131.4,306.5z
	"/>
<circle class="st26" cx="119.1" cy="313.6" r="14.1"/>
<circle class="st26" cx="79.5" cy="313.6" r="14.1"/>
<circle class="st26" cx="99.3" cy="310.8" r="7.1"/>
<circle class="st20" cx="99.3" cy="310.8" r="2.8"/>
<g>
	<circle class="st20" cx="119.1" cy="313.6" r="9.9"/>
	<circle class="st20" cx="79.5" cy="313.6" r="9.9"/>
</g>
<g>
	<path class="st6" d="M124.3,310.4c-1.4-1.6-3.2-2.4-5.2-2.4c-2,0-4,0.8-5.2,2.4c-0.6,0.6-0.4,1.4,0.1,2c0.6,0.6,1.4,0.4,2-0.1
		c1.7-1.8,4.7-1.8,6.4,0c0.3,0.3,0.7,0.4,1,0.4c0.3,0,0.7-0.1,1-0.4C124.9,311.8,124.9,310.9,124.3,310.4z"/>
	<path class="st6" d="M79.5,308c-2,0-4,0.8-5.2,2.4c-0.6,0.6-0.4,1.4,0.1,2c0.6,0.6,1.4,0.4,2-0.1c1.7-1.8,4.7-1.8,6.4,0
		c0.3,0.3,0.7,0.4,1,0.4c0.3,0,0.7-0.1,1-0.4c0.6-0.6,0.6-1.4,0.1-2C83.5,308.8,81.5,308,79.5,308z"/>
</g>
<path class="st24" d="M185.5,304.3h13.8l6.4,6.4v-18c0-2.3-1.9-4.2-4.2-4.2h-15.9c-2.3,0-4.2,1.9-4.2,4.2v7.4
	C181.3,302.4,183.2,304.3,185.5,304.3z"/>
<path class="st20" d="M183.4,301.2h-13.8l-6.4,6.4v-18c0-2.3,1.9-4.2,4.2-4.2h15.9c2.3,0,4.2,1.9,4.2,4.2v7.4
	C187.6,299.3,185.7,301.2,183.4,301.2z"/>
<g>
	<circle class="st20" cx="171.7" cy="313.9" r="5.3"/>
	<circle class="st20" cx="197.1" cy="313.9" r="5.3"/>
</g>
<g>
	<path class="st24" d="M180.2,325.5c0,0-2.3-4.2-8.5-4.2s-8.5,4.2-8.5,4.2v2.1h16.9V325.5L180.2,325.5z"/>
	<path class="st24" d="M205.6,325.5c0,0-2.3-4.2-8.5-4.2c-6.1,0-8.5,4.2-8.5,4.2v2.1h16.9V325.5z"/>
</g>
<path class="st26" d="M257.1,315.6c0.1-0.4,0.1-0.9,0.1-1.3c0-0.5,0-0.9-0.1-1.3l2.7-1.9c0.3-0.2,0.4-0.6,0.2-0.9l-2.6-4.4
	c-0.2-0.3-0.5-0.4-0.8-0.3l-3,1.4c-0.7-0.6-1.4-1-2.3-1.3l-0.3-3.3c0-0.3-0.3-0.6-0.6-0.6h-5.1c-0.3,0-0.6,0.3-0.6,0.6l-0.4,3.4
	c-0.9,0.3-1.5,0.8-2.3,1.3l-3-1.3c-0.3-0.1-0.7,0-0.8,0.3l-2.6,4.4c-0.2,0.3-0.1,0.7,0.2,0.9l2.7,1.9c-0.1,0.4-0.1,0.9-0.1,1.3
	c0,0.5,0,0.9,0.1,1.3l-2.7,1.9c-0.3,0.2-0.4,0.6-0.2,0.9l2.6,4.4c0.2,0.3,0.5,0.4,0.8,0.3l3-1.3c0.7,0.6,1.4,1,2.3,1.3l0.3,3.3
	c0,0.3,0.3,0.6,0.6,0.6h5.1c0.3,0,0.6-0.3,0.6-0.6l0.3-3.3c0.9-0.3,1.5-0.8,2.3-1.3l3,1.3c0.3,0.1,0.7,0,0.8-0.3l2.6-4.4
	c0.2-0.3,0.1-0.7-0.2-0.9L257.1,315.6z M247.8,319.1c-2.7,0-4.8-2.1-4.8-4.8c0-2.7,2.1-4.8,4.8-4.8c2.7,0,4.8,2.1,4.8,4.8
	C252.7,317,250.5,319.1,247.8,319.1z"/>
<path class="st25" d="M272.8,297.3c0.1-0.5,0.1-0.9,0.1-1.3c0-0.4,0-0.8-0.1-1.3l2.4-1.7c0.3-0.2,0.3-0.5,0.2-0.8l-2.4-4.1
	c-0.2-0.3-0.5-0.4-0.8-0.2l-2.8,1.3c-0.7-0.5-1.3-0.9-2.1-1.3l-0.3-3c0.1-0.3-0.1-0.5-0.4-0.5h-4.7c-0.3,0-0.6,0.2-0.6,0.5l-0.3,3
	c-0.8,0.3-1.4,0.7-2.1,1.3l-2.8-1.3c-0.3-0.1-0.6,0-0.8,0.2l-2.4,4.1c-0.2,0.3-0.1,0.6,0.2,0.8l2.4,1.7c0,0.5,0,0.9,0,1.3
	c0,0.4,0,0.8,0.1,1.3l-2.4,1.7c-0.3,0.2-0.3,0.5-0.2,0.8l2.4,4.1c0.2,0.3,0.5,0.4,0.8,0.2l2.8-1.3c0.7,0.5,1.3,0.9,2.1,1.3l0.3,3
	c0,0.3,0.3,0.5,0.6,0.5h4.7c0.3,0,0.6-0.2,0.6-0.5l0.3-3c0.8-0.3,1.4-0.7,2.1-1.3l2.8,1.3c0.3,0.1,0.6,0,0.8-0.2l2.4-4.1
	c0.2-0.3,0.1-0.6-0.2-0.8L272.8,297.3z M264.2,300.8c-2.7,0-4.8-2.1-4.8-4.8c0-2.7,2.1-4.8,4.8-4.8c2.7,0,4.8,2.1,4.8,4.8
	C269,298.7,266.9,300.8,264.2,300.8z"/>
<g>
	<path class="st23" d="M335,302.8h-2.5c0-9.2,5.1-9.6,9.2-9.9c4.1-0.3,7-0.6,7-7.5h2.5c0,9.3-5.1,9.7-9.3,10
		C337.9,295.7,335,296,335,302.8z"/>
</g>
<rect x="306.3" y="302.8" class="st24" width="54.9" height="24.9"/>
<g>
	<rect x="308.8" y="305.3" class="st23" width="5" height="5"/>
	<rect x="316.3" y="305.3" class="st23" width="5" height="5"/>
	<rect x="323.8" y="305.3" class="st23" width="5" height="5"/>
	<rect x="331.3" y="305.3" class="st23" width="5" height="5"/>
	<rect x="338.8" y="305.3" class="st23" width="5" height="5"/>
	<rect x="346.2" y="305.3" class="st23" width="5" height="5"/>
	<rect x="353.7" y="305.3" class="st23" width="5" height="5"/>
	<rect x="308.8" y="320.3" class="st23" width="5" height="5"/>
	<rect x="316.3" y="320.3" class="st23" width="5" height="5"/>
	<rect x="323.8" y="320.3" class="st23" width="20" height="5"/>
	<rect x="346.2" y="320.3" class="st23" width="5" height="5"/>
	<rect x="353.7" y="320.3" class="st23" width="5" height="5"/>
	<rect x="308.8" y="312.8" class="st23" width="8.7" height="5"/>
	<rect x="320.1" y="312.8" class="st23" width="5" height="5"/>
	<rect x="327.5" y="312.8" class="st23" width="5" height="5"/>
	<rect x="335" y="312.8" class="st23" width="5" height="5"/>
	<rect x="342.5" y="312.8" class="st23" width="5" height="5"/>
	<rect x="350" y="312.8" class="st23" width="8.7" height="5"/>
</g>
<circle class="st25" cx="412.8" cy="306.5" r="21.5"/>
<circle class="st6" cx="412.8" cy="306.5" r="17.2"/>
<rect x="411.7" y="292.5" class="st26" width="2.2" height="14"/>
<rect x="415" y="305" transform="matrix(0.707 -0.7072 0.7072 0.707 -97.2281 385.1599)" class="st26" width="2.5" height="9.9"/>
<circle class="st26" cx="412.8" cy="306.5" r="2.2"/>
<circle class="st9" cx="412.8" cy="306.5" r="1.1"/>
<g>
	<polygon class="st23" points="497.7,327.7 465,327.7 465,284.7 487.5,284.7 497.7,295 	"/>
</g>
<polygon class="st24" points="496.2,297.6 486.5,297.6 486.5,287.9 "/>
<g>
	<rect x="473.2" y="303.1" class="st24" width="17.4" height="2"/>
	<rect x="473.2" y="307.2" class="st24" width="13.3" height="2"/>
	<rect x="473.2" y="311.3" class="st24" width="17.4" height="2"/>
	<rect x="473.2" y="315.4" class="st24" width="13.3" height="2"/>
</g>
<rect x="537.5" y="288.1" class="st6" width="39.3" height="25.3"/>
<polygon class="st24" points="537.5,317.6 576.9,317.6 579.7,321.9 534.7,321.9 "/>
<rect x="689.7" y="285.4" class="st23" width="50.1" height="42.6"/>
<rect x="696" y="291.7" class="st9" width="37.6" height="6.3"/>
<g>
	<rect x="696" y="302.9" class="st24" width="16.3" height="20.1"/>
	<rect x="717.3" y="302.9" class="st24" width="16.3" height="20.1"/>
</g>
<g>
	<rect x="935" y="285.3" class="st24" width="2.1" height="38.1"/>
	
		<rect x="932.4" y="313.3" transform="matrix(-0.7071 -0.7071 0.7071 -0.7071 1366.6527 1207.634)" class="st24" width="2.1" height="15"/>
	
		<rect x="937.7" y="313.3" transform="matrix(0.7071 -0.7071 0.7071 0.7071 48.1146 757.7245)" class="st24" width="2.1" height="15"/>
</g>
<rect x="914.9" y="288.5" class="st24" width="42.4" height="29.7"/>
<g>
	<rect x="913.8" y="287.4" class="st23" width="44.5" height="4.2"/>
	<rect x="913.8" y="317.1" class="st23" width="44.5" height="2.1"/>
	<circle class="st23" cx="944" cy="326.1" r="1.6"/>
	<circle class="st23" cx="928.1" cy="326.1" r="1.6"/>
</g>
<g>
	<polygon class="st6" points="944.4,300 938.2,306.4 931.8,300 923.3,308.5 925.6,310.8 931.8,304.5 938.2,310.8 946.8,302.3 	"/>
	<polygon class="st6" points="948.8,305.4 941.4,298 948.8,298 	"/>
</g>
<path class="st24" d="M883.5,306.3c0,11.7-9.5,21-21,21c-11.5,0-21-9.3-21-21c0-11.7,9.3-21,21-21
	C874.2,285.3,883.5,294.6,883.5,306.3"/>
<g>
	<path class="st23" d="M862.3,315.9c0-0.4-0.2-0.6-0.6-0.8c-1.3-0.4-2.5-0.4-3.6-1.5c-0.2-0.4-0.2-0.8-0.4-1.3
		c-0.4-0.4-1.5-0.6-2.1-0.8h-2.7h-1.5c-0.6-0.2-1-1.1-1.5-1.7c0-0.2,0-0.6-0.4-0.6c-0.4-0.2-0.8,0.2-1.3,0c-0.2-0.2-0.2-0.4-0.2-0.6
		c0-0.6,0.4-1.3,0.8-1.7c0.6-0.4,1.3,0.2,1.9,0.2c0.2,0,0.2,0,0.4,0.2c0.6,0.2,0.8,1,0.8,1.7v0.4c0,0.2,0.2,0.2,0.4,0.2
		c0.2-1.1,0.2-2.1,0.4-3.2c0-1.3,1.3-2.5,2.3-2.9c0.4-0.2,0.6,0.2,1,0c1.3-0.4,4.4-1.7,3.8-3.4c-0.4-1.5-1.7-2.9-3.4-2.7
		c-0.4,0.2-0.6,0.4-1,0.6c-0.6,0.4-1.9,1.7-2.5,1.7c-1-0.2-1-1.7-0.8-2.3c0.2-0.8,2.1-3.6,3.4-3.1c0.2,0.2,0.6,0.6,0.8,0.8
		c0.4,0.2,1,0.2,1.7,0.2c0.2,0,0.4,0,0.6-0.2c0.2-0.2,0.2-0.2,0.2-0.4c0-0.6-0.6-1.3-1-1.7c-0.4-0.4-1-0.8-1.7-1
		c-2.1-0.6-5.5,0.2-7.1,1.7c-1.7,1.5-2.9,4-3.8,6.1c-0.4,1.3-0.8,2.9-1,4.4c-0.2,1-0.4,1.9,0.2,2.9c0.6,1.3,1.9,2.5,3.2,3.4
		c0.8,0.6,2.5,0.6,3.4,1.7c0.6,0.8,0.4,1.9,0.4,2.9c0,1.3,0.8,2.3,1.3,3.4c0.2,0.6,0.4,1.5,0.6,2.1c0,0.2,0.2,1.5,0.2,1.7
		c1.3,0.6,2.3,1.3,3.8,1.7c0.2,0,1-1.3,1-1.5c0.6-0.6,1-1.5,1.7-1.9c0.4-0.2,0.8-0.4,1.3-0.8c0.4-0.4,0.6-1.3,0.8-1.9
		C862.3,317.4,862.5,316.6,862.3,315.9"/>
	<path class="st23" d="M862.7,296.6c0.2,0,0.4-0.2,0.8-0.4c0.6-0.4,1.3-1,1.9-1.5c0.6-0.4,1.3-1.1,1.7-1.5c0.6-0.4,1-1.3,1.3-1.9
		c0.2-0.4,0.8-1.3,0.6-1.9c-0.2-0.4-1.3-0.6-1.7-0.8c-1.7-0.4-3.2-0.6-4.8-0.6c-0.6,0-1.5,0.2-1.7,0.8c-0.2,1.1,0.6,0.8,1.5,1.1
		c0,0,0.2,1.7,0.2,1.9c0.2,1.1-0.4,1.7-0.4,2.7c0,0.6,0,1.7,0.4,2.1H862.7z"/>
	<path class="st23" d="M880.4,311.3c0.2-0.4,0.2-1.1,0.4-1.5c0.2-1.1,0.2-2.1,0.2-3.2c0-2.1-0.2-4.2-0.8-6.1
		c-0.4-0.6-0.6-1.3-0.8-1.9c-0.4-1-1-2.1-1.9-2.9c-0.8-1-1.9-4-3.8-3.1c-0.6,0.2-1,1.1-1.5,1.5c-0.4,0.6-0.8,1.3-1.3,1.9
		c-0.2,0.2-0.4,0.6-0.2,0.8c0,0.2,0.2,0.2,0.4,0.2c0.4,0.2,0.6,0.2,1.1,0.4c0.2,0,0.4,0.2,0.2,0.4c0,0,0,0.2-0.2,0.2
		c-1.1,1-2.1,1.9-3.2,2.9c-0.2,0.2-0.4,0.6-0.4,0.8c0,0.2,0.2,0.2,0.2,0.4c0,0.2-0.2,0.2-0.4,0.4c-0.4,0.2-0.8,0.4-1,0.6
		c-0.2,0.4,0,1-0.2,1.5c-0.2,1-0.8,1.9-1.3,2.9c-0.4,0.6-0.6,1.3-1,1.9c0,0.8-0.2,1.5,0.2,2.1c1.1,1.5,2.9,0.6,4.4,1.3
		c0.4,0.2,0.8,0.2,1.1,0.6c0.6,0.6,0.6,1.7,0.8,2.3c0.2,0.8,0.4,1.7,0.8,2.5c0.2,1.1,0.6,2.1,0.8,2.9c1.9-1.5,3.6-3.1,4.8-5.2
		C879.1,314.7,879.7,313,880.4,311.3"/>
</g>
<circle class="st6" cx="637.9" cy="306.5" r="16.8"/>
<g>
	<path class="st26" d="M636.2,303.6c-1.6,0.9-2.1,3-1.2,4.6c1,1.6,3,2.1,4.6,1.2c1.6-0.9,2.1-3,1.2-4.6
		C639.9,303.2,637.9,302.6,636.2,303.6"/>
	<polygon class="st26" points="650.6,299.1 640.1,307.8 637.8,304 	"/>
</g>
<g>
	<path class="st26" d="M624.5,305.3H619c0,0.4-0.1,0.7-0.1,1.1c0,0.4,0,0.8,0.1,1.1h5.5V305.3z"/>
	<path class="st26" d="M626.6,313.8l-1.1-2l-4.9,2.6c0.3,0.7,0.7,1.3,1.1,2L626.6,313.8z"/>
</g>
<g>
	<path class="st26" d="M630.3,295.4l2-1.1l-2.7-4.8c-0.7,0.3-1.3,0.7-2,1.1L630.3,295.4z"/>
	<path class="st26" d="M621,298l4.8,2.8l1.1-2l-4.8-2.8C621.7,296.6,621.3,297.3,621,298z"/>
	<path class="st26" d="M651.3,307.6h5.5c0-0.4,0.1-0.7,0.1-1.1c0-0.4,0-0.8-0.1-1.1h-5.5V307.6z"/>
	<path class="st26" d="M655.3,314.1l-4.9-2.5l-1,2l4.9,2.5C654.7,315.4,655,314.8,655.3,314.1z"/>
	<path class="st26" d="M648.5,290.7c-0.6-0.4-1.3-0.8-2-1.1l-2.8,4.8l1.9,1.1L648.5,290.7z"/>
	<path class="st26" d="M639.1,287.5c-0.4,0-0.7-0.1-1.1-0.1c-0.4,0-0.8,0-1.1,0.1v5.5h2.3V287.5z"/>
</g>
<path class="st25" d="M637.9,285.2c-11.7,0-21.2,9.5-21.2,21.2c0,11.7,9.5,21.2,21.2,21.2s21.2-9.5,21.2-21.2
	C659.2,294.7,649.7,285.2,637.9,285.2z M637.9,323.2c-9.3,0-16.8-7.5-16.8-16.8c0-9.3,7.5-16.8,16.8-16.8s16.8,7.5,16.8,16.8
	C654.7,315.7,647.2,323.2,637.9,323.2z"/>
<path class="st16" d="M637.4,305.5c-0.5,0.3-0.7,1-0.4,1.5c0.3,0.5,1,0.7,1.5,0.4c0.5-0.3,0.7-1,0.4-1.5
	C638.6,305.4,637.9,305.2,637.4,305.5"/>
<path class="st24" d="M773.1,317.2c1.8-1.8,4.7-1.8,6.5,0c1.8,1.8,1.8,4.7,0,6.5c-1.8,1.8-9,2.4-9,2.4S771.3,319,773.1,317.2z"/>
<path class="st9" d="M774.7,318.9c0.9-0.9,2.4-0.9,3.3,0c0.9,0.9,0.9,2.4,0,3.3c-0.9,0.9-4.1,0.8-4.1,0.8S773.8,319.8,774.7,318.9z"
	/>
<path class="st9" d="M797.6,289.4c-2.5,2.5-23.7,23.7-23.7,23.7l9.8,9.8c0,0,21.2-21.2,23.7-23.7c1.3-1.3,2.4-5.1,3.1-8.4l-4.5-4.5
	C802.7,287.1,798.9,288.2,797.6,289.4z"/>
<g>
	<polygon class="st24" points="787.8,327 785.4,321.3 795.2,311.5 793.5,321.3 	"/>
	<polygon class="st24" points="769.8,309.1 775.6,311.5 785.4,301.7 775.6,303.3 	"/>
	<path class="st24" d="M806,286.4l4.5,4.5c0.6-3,1-5.5,1-5.5S808.9,285.7,806,286.4z"/>
	<polygon class="st24" points="783.7,322.9 780.5,322.9 773.9,316.4 773.9,313.1 	"/>
</g>
<g>
	<circle class="st24" cx="797.6" cy="299.3" r="2.3"/>
	<circle class="st24" cx="791.9" cy="305" r="2.3"/>
	<circle class="st24" cx="786.2" cy="310.7" r="2.3"/>
</g>
<path class="st25" d="M1105.1,284.2h-36.6c-2,0-3.7,1.6-3.7,3.7v40.3l10.4-9.8h29.8c2,0,3.7-1.6,3.7-3.7v-26.8
	C1108.8,285.8,1107.1,284.2,1105.1,284.2z"/>
<g>
	<rect x="1069.7" y="294" class="st26" width="34.2" height="2.4"/>
	<rect x="1069.7" y="300.1" class="st26" width="34.2" height="2.4"/>
	<rect x="1069.7" y="306.1" class="st26" width="19.5" height="2.4"/>
</g>
<g>
	<polygon class="st23" points="1166.1,322.7 1138.8,322.7 1138.8,285.7 1157.3,285.7 1166.1,294.4 	"/>
</g>
<polygon class="st6" points="1164.6,295.4 1156.3,295.4 1156.3,287.1 "/>
<rect x="1171.3" y="315.7" transform="matrix(-0.7072 0.707 -0.707 -0.7072 2229.2437 -280.1203)" class="st24" width="2.7" height="11.7"/>
<circle class="st24" cx="1161.2" cy="310" r="10.7"/>
<circle class="st23" cx="1161.2" cy="310" r="8.8"/>
<rect x="1172.4" y="318.4" transform="matrix(-0.7072 0.707 -0.707 -0.7072 2231.9836 -279.0481)" class="st24" width="2.7" height="8.5"/>
<g>
	<path class="st6" d="M1163.1,312h-9.5c0.4,1.6,1.3,2.9,2.4,3.9h7V312z"/>
	<path class="st6" d="M1153.7,308.1h9.5v-3.9h-7.1C1154.8,305.1,1154.1,306.5,1153.7,308.1z"/>
	<path class="st6" d="M1153.5,301.2h-8.9v1.9h7.1C1152.2,302.5,1152.8,301.8,1153.5,301.2z"/>
	<path class="st6" d="M1150.6,305.1h-5.9v1.9h5.3C1150.1,306.4,1150.3,305.7,1150.6,305.1z"/>
	<path class="st6" d="M1149.5,310c0-0.3,0-0.7,0.1-1h-5v1.9h5C1149.5,310.7,1149.5,310.3,1149.5,310z"/>
	<path class="st6" d="M1149.9,312.9h-5.3v1.9h5.9C1150.3,314.3,1150.1,313.6,1149.9,312.9z"/>
</g>
<rect x="1030.2" y="300.8" class="st9" width="4.7" height="26.8"/>
<rect x="1023.2" y="308.9" class="st24" width="4.7" height="18.6"/>
<rect x="1016.2" y="303.1" class="st9" width="4.7" height="24.5"/>
<rect x="1009.2" y="310.1" class="st24" width="4.7" height="17.5"/>
<rect x="1002.2" y="313.6" class="st9" width="4.7" height="14"/>
<rect x="995.2" y="311.3" class="st24" width="4.7" height="16.3"/>
<rect x="988.3" y="315.9" class="st9" width="4.7" height="11.7"/>
<g>
	<polygon class="st9" points="1030.3,286.9 1023.2,294 1018.5,289.4 1006.9,301 1001.1,295.2 989,307.3 992.2,310.6 1001.1,301.7 
		1006.9,307.5 1018.5,295.9 1023.2,300.6 1033.6,290.2 	"/>
	<polygon class="st9" points="1034.9,285.6 1024.4,285.6 1034.9,296.1 	"/>
</g>
<path class="st25" d="M-359.9,380.7c-8.2,0-14.9,6.7-14.9,14.9c0,8.2,14.9,27.7,14.9,27.7s14.9-19.5,14.9-27.7
	C-345,387.4-351.6,380.7-359.9,380.7z M-359.9,403.1c-4.1,0-7.5-3.3-7.5-7.5c0-4.1,3.3-7.5,7.5-7.5c4.1,0,7.5,3.3,7.5,7.5
	C-352.4,399.7-355.8,403.1-359.9,403.1z"/>
<polygon class="st26" points="-295.4,412 -295.4,413 -297.4,413 -297.4,412 -298.4,404 -294.4,404 "/>
<path class="st26" d="M-300.6,403c-0.5-0.1-12.4-3.2-14.4-12.8c-0.9-4.2,0.2-6.7,1.3-8c1.3-1.6,3.1-2.2,4.4-2.2
	c1.7,0,2.9,0.5,3.8,1.4c1.1,1.1,1.1,2.5,1.1,2.7c0,1.6-1.1,4-4,4l0,0c-0.1,0-0.8,0-1.4-0.4c-1-0.5-1.5-1.4-1.5-2.6h2
	c0,0.6,0.2,0.8,0.4,0.9c0.2,0.1,0.5,0.1,0.5,0.1c1.9,0,2-1.7,2-2c0,0,0-0.7-0.5-1.3c-0.5-0.5-1.3-0.7-2.4-0.7
	c-0.6,0-1.9,0.3-2.8,1.5c-1.1,1.4-1.4,3.6-0.9,6.3c1.7,8.3,12.8,11.2,12.9,11.2L-300.6,403z"/>
<path class="st26" d="M-292.1,403l-0.6-1.9c0.1,0,10.1-3.3,12.9-11.4c0.9-2.5,0.8-4.4-0.2-5.8c-1-1.3-2.6-1.8-3.4-1.8
	c-3,0-3,1.9-3,2c0,0.5,0.2,2,2,2c0.5,0,1-0.2,1-1h2c0,2.2-1.8,3-3,3c-2.9,0-4-2.4-4-4c0-1.4,1-4,5-4c1.5,0,3.8,0.8,5.1,2.7
	c1,1.3,1.8,3.8,0.4,7.7C-281.1,399.4-291.6,402.8-292.1,403z"/>
<g>
	<path class="st25" d="M-291.4,417h-10v-2c0-1.1,4-3,4-3h2c0,0,4,1.9,4,3V417z"/>
	<path class="st25" d="M-286.4,381c0,8-2.1,25-10,25c-7.9,0-10-17-10-25L-286.4,381z"/>
</g>
<path class="st6" d="M-295.4,397h-2v-7.4l-2,0.7v-1.8l3.8-1.5h0.2V397z"/>
<rect x="-303.4" y="416" class="st26" width="14" height="8"/>
<rect x="-301.4" y="419" class="st6" width="10" height="2"/>
<path class="st26" d="M-243.4,423h-3v-33c0,0,0.6-5,1.5-5c1,0,1.5,5,1.5,5V423z"/>
<circle class="st26" cx="-244.9" cy="383.5" r="2.5"/>
<rect x="-246.4" y="387" class="st25" width="36" height="24"/>
<g>
	<rect x="-240.4" y="387" class="st26" width="6" height="6"/>
	<rect x="-234.4" y="393" class="st26" width="6" height="6"/>
	<rect x="-216.4" y="387" class="st26" width="6" height="6"/>
	<rect x="-228.4" y="387" class="st26" width="6" height="6"/>
	<rect x="-222.4" y="393" class="st26" width="6" height="6"/>
	<rect x="-240.4" y="399" class="st26" width="6" height="6"/>
	<rect x="-234.4" y="405" class="st26" width="6" height="6"/>
	<rect x="-246.4" y="393" class="st26" width="6" height="6"/>
	<rect x="-246.4" y="405" class="st26" width="6" height="6"/>
	<rect x="-216.4" y="399" class="st26" width="6" height="6"/>
	<rect x="-228.4" y="399" class="st26" width="6" height="6"/>
	<rect x="-222.4" y="405" class="st26" width="6" height="6"/>
</g>
<polygon class="st26" points="-172.5,380 -180,380 -169.3,399.3 -161.7,399.3 "/>
<polygon class="st25" points="-157.5,380 -168.2,399.3 -160.7,399.3 -149.9,380 "/>
<circle class="st26" cx="-165" cy="411.1" r="12.9"/>
<path class="st25" d="M-165,400.4c-5.9,0-10.7,4.8-10.7,10.7c0,5.9,4.8,10.7,10.7,10.7c5.9,0,10.7-4.8,10.7-10.7
	C-154.2,405.2-159,400.4-165,400.4z M-172.2,415.7c-0.3,0.2-0.7,0.1-0.8-0.2c0,0,0-0.1-0.1-0.1l-0.2-0.5c-0.1-0.3,0-0.6,0.3-0.7
	c0.3-0.1,0.5,0,0.7,0.2l0.3,0.5C-171.9,415.1-171.9,415.5-172.2,415.7z M-169.3,418.6c-0.3,0.4-0.9,0.5-1.3,0.2c0,0-0.1,0-0.1-0.1
	l-0.4-0.4c-0.4-0.3-0.4-0.9-0.1-1.3c0.3-0.3,0.8-0.4,1.2-0.1l0.4,0.3C-169.1,417.6-169,418.2-169.3,418.6z M-165.6,419.8
	c-0.1,0.6-0.7,0.9-1.2,0.8c0,0,0,0,0,0l-0.5-0.1c-0.6-0.1-0.9-0.7-0.8-1.3c0.1-0.5,0.7-0.9,1.2-0.8l0.5,0.1
	C-165.8,418.7-165.4,419.2-165.6,419.8z M-166,415.4v-7.9l-2.1,0.7v-1.9l4.1-1.6h0.2v10.7H-166z M-162.6,420.5l-0.5,0.1
	c-0.6,0.1-1.1-0.2-1.3-0.8c-0.1-0.6,0.2-1.1,0.8-1.3c0,0,0,0,0,0l0.5-0.1c0.6-0.1,1.1,0.2,1.2,0.8
	C-161.7,419.8-162,420.3-162.6,420.5z M-158.8,418.4c-0.1,0.1-0.3,0.2-0.4,0.4c-0.4,0.3-1,0.3-1.3-0.1c-0.3-0.4-0.3-1,0.1-1.3
	c0,0,0,0,0,0c0.1-0.1,0.3-0.2,0.5-0.3c0.4-0.3,1-0.2,1.2,0.2C-158.5,417.6-158.5,418.1-158.8,418.4z M-156.8,415.4
	c-0.1,0.3-0.5,0.5-0.8,0.4c-0.3-0.1-0.5-0.5-0.4-0.8c0,0,0-0.1,0.1-0.1l0.3-0.5c0.2-0.3,0.5-0.3,0.8-0.2c0.2,0.1,0.3,0.4,0.2,0.7
	L-156.8,415.4z"/>
<path class="st24" d="M446.2,420.8c0,1.7-1.3,3-3,3h-26c-1.7,0-3-1.3-3-3v-36c0-1.7,1.3-3,3-3h26c1.7,0,3,1.3,3,3V420.8z"/>
<circle class="st6" cx="421.2" cy="387.8" r="3"/>
<circle class="st6" cx="430.2" cy="387.8" r="3"/>
<circle class="st6" cx="439.2" cy="387.8" r="3"/>
<polyline class="st6" points="424.2,418.8 424.2,420.8 418.2,420.8 418.2,418.8 "/>
<polyline class="st6" points="433.2,418.8 433.2,420.8 427.2,420.8 427.2,418.8 "/>
<polyline class="st6" points="442.2,418.8 442.2,420.8 436.2,420.8 436.2,418.8 "/>
<polyline class="st6" points="424.2,408.7 424.2,410.8 418.2,410.8 418.2,408.7 "/>
<polyline class="st6" points="433.2,408.7 433.2,410.8 427.2,410.8 427.2,408.7 "/>
<polyline class="st6" points="442.2,408.7 442.2,410.8 436.2,410.8 436.2,408.7 "/>
<polyline class="st6" points="424.2,398.8 424.2,400.8 418.2,400.8 418.2,398.8 "/>
<polyline class="st6" points="433.2,398.8 433.2,400.8 427.2,400.8 427.2,398.8 "/>
<polyline class="st6" points="442.2,398.8 442.2,400.8 436.2,400.8 436.2,398.8 "/>
<rect x="427.2" y="412.8" class="st25" width="6" height="6"/>
<g>
	<rect x="418.2" y="392.8" class="st23" width="6" height="6"/>
	<rect x="427.2" y="392.8" class="st23" width="6" height="6"/>
	<rect x="436.2" y="392.8" class="st23" width="6" height="6"/>
	<rect x="418.2" y="402.8" class="st23" width="6" height="6"/>
	<rect x="427.2" y="402.8" class="st23" width="6" height="6"/>
	<rect x="436.2" y="402.8" class="st23" width="6" height="6"/>
	<rect x="418.2" y="412.8" class="st23" width="6" height="6"/>
	<rect x="436.2" y="412.8" class="st23" width="6" height="6"/>
</g>
<g>
	<circle class="st25" cx="421.2" cy="387.8" r="2"/>
	<circle class="st25" cx="430.2" cy="387.8" r="2"/>
	<circle class="st25" cx="439.2" cy="387.8" r="2"/>
</g>
<polygon class="st6" points="3.6,400.5 2.9,396.7 -9.4,399.2 -9.4,386 -13.3,386 -13.3,397.9 -26.8,389.2 -28.9,392.5 -14.1,402 
	-25.5,416.9 -22.4,419.2 -11.4,404.8 -3.3,417.2 0,415 -8.1,402.9 "/>
<circle class="st24" cx="-11.3" cy="401.5" r="6.8"/>
<g>
	<circle class="st23" cx="-11.3" cy="386" r="4.9"/>
	<circle class="st23" cx="3.2" cy="398.6" r="4.9"/>
	<circle class="st23" cx="-27.9" cy="390.8" r="4.9"/>
	<circle class="st23" cx="-24" cy="418" r="4.9"/>
	<circle class="st23" cx="-1.6" cy="416.1" r="4.9"/>
</g>
<g>
	<path class="st9" d="M74.1,380.3H44.8c-1.2,0-2.1,0.9-2.1,2.1v6.3c0,1.2,0.9,2.1,2.1,2.1h29.3c1.1,0,2.1-0.9,2.1-2.1v-6.3
		C76.2,381.2,75.3,380.3,74.1,380.3z"/>
	<path class="st9" d="M74.1,392.8H44.8c-1.2,0-2.1,0.9-2.1,2.1v6.3c0,1.2,0.9,2.1,2.1,2.1h29.3c1.1,0,2.1-0.9,2.1-2.1v-6.3
		C76.2,393.8,75.3,392.8,74.1,392.8z"/>
	<path class="st9" d="M74.1,405.4H44.8c-1.2,0-2.1,0.9-2.1,2.1v6.3c0,1.2,0.9,2.1,2.1,2.1h29.3c1.1,0,2.1-0.9,2.1-2.1v-6.3
		C76.2,406.3,75.3,405.4,74.1,405.4z"/>
</g>
<path class="st23" d="M81.6,412.8c0.1-0.4,0.1-0.8,0.1-1.2c0-0.3,0-0.8-0.1-1.2l2.4-1.8c0.2-0.2,0.3-0.5,0.2-0.7l-2.4-4.1
	c-0.1-0.2-0.4-0.3-0.7-0.2l-2.7,1.3c-0.6-0.5-1.4-0.9-2.1-1.3l-0.3-3c0-0.3-0.3-0.5-0.5-0.5h-4.7c-0.3,0-0.5,0.2-0.5,0.5l-0.3,3
	c-0.7,0.3-1.5,0.7-2.1,1.3l-2.7-1.3c-0.3-0.1-0.6,0-0.7,0.2L62,408c-0.1,0.2-0.1,0.6,0.2,0.7l2.4,1.8c-0.1,0.4-0.1,0.8-0.1,1.2
	c0,0.3,0,0.8,0.1,1.2l-2.4,1.8c-0.2,0.2-0.3,0.5-0.2,0.7l2.4,4.1c0.1,0.2,0.4,0.3,0.7,0.2l2.7-1.3c0.6,0.5,1.4,0.9,2.1,1.3l0.3,3
	c0,0.3,0.3,0.5,0.5,0.5h4.7c0.3,0,0.5-0.2,0.5-0.5l0.3-3c0.7-0.3,1.5-0.7,2.1-1.3l2.7,1.3c0.3,0.1,0.6,0,0.7-0.2l2.4-4.1
	c0.1-0.2,0.1-0.6-0.2-0.7L81.6,412.8z M73.1,417.1c-3,0-5.4-2.4-5.4-5.4c0-3,2.4-5.4,5.4-5.4c3,0,5.4,2.4,5.4,5.4
	C78.5,414.7,76.1,417.1,73.1,417.1z"/>
<path class="st24" d="M73.1,405.4c-3.5,0-6.3,2.8-6.3,6.3c0,3.5,2.8,6.3,6.3,6.3c3.5,0,6.3-2.8,6.3-6.3
	C79.3,408.2,76.5,405.4,73.1,405.4z M73.1,414.8c-1.8,0-3.1-1.4-3.1-3.1c0-1.8,1.4-3.1,3.1-3.1c1.8,0,3.1,1.4,3.1,3.1
	C76.2,413.4,74.8,414.8,73.1,414.8z"/>
<path class="st24" d="M377.4,390.7c0,0.6-0.5,1.1-1.1,1.1h-34c-0.6,0-1.1-0.5-1.1-1.1v-7.4c0-0.6,0.5-1.1,1.1-1.1h34
	c0.6,0,1.1,0.5,1.1,1.1V390.7z"/>
<rect x="341.3" y="387.5" class="st6" width="36.1" height="30.8"/>
<path class="st24" d="M383.4,403.6l-3-3c-0.5-0.5-1.2-0.5-1.7,0l-1.4,1.4l4.7,4.7l1.4-1.4C383.9,404.8,383.9,404.1,383.4,403.6"/>
<rect x="361.6" y="409.9" transform="matrix(-0.7071 0.7071 -0.7071 -0.7071 925.2445 443.1931)" class="st23" width="18.5" height="6.6"/>
<rect x="376.9" y="402.2" transform="matrix(0.707 -0.7073 0.7073 0.707 -175.8681 386.5621)" class="st6" width="3.3" height="6.6"/>
<polygon class="st6" points="362,417.4 360.4,423.7 366.6,422.1 "/>
<polygon class="st24" points="361.2,420.5 360.4,423.7 363.5,422.9 "/>
<g>
	<polygon class="st23" points="366.6,409.8 353,409.8 353,412 364.4,412 	"/>
	<polygon class="st23" points="370,406.4 370,405.6 353,405.6 353,407.7 368.7,407.7 	"/>
	<rect x="353" y="397.1" class="st23" width="17" height="2.1"/>
	<rect x="353" y="392.8" class="st23" width="17" height="2.1"/>
	<rect x="348.7" y="392.8" class="st23" width="2.1" height="2.1"/>
	<rect x="348.7" y="397.1" class="st23" width="2.1" height="2.1"/>
	<rect x="348.7" y="409.8" class="st23" width="2.1" height="2.1"/>
	<path class="st23" d="M353,409.8v2.1h7.4c0-0.7,0.1-1.4,0.2-2.1H353z"/>
	<rect x="348.7" y="401.3" class="st23" width="2.1" height="2.1"/>
	<rect x="348.7" y="405.6" class="st23" width="2.1" height="2.1"/>
	<rect x="353" y="401.3" class="st23" width="17" height="2.1"/>
</g>
<path class="st23" d="M1342.7,286.6h-32.6c-2.6,0-4.7,2.1-4.7,4.7v19.8c0,2.6,2.1,4.7,4.7,4.7h32.6c2.6,0,4.7-2.1,4.7-4.7v-19.8
	C1347.4,288.7,1345.3,286.6,1342.7,286.6z"/>
<path class="st24" d="M1306.7,288.1c-0.5,0.6-0.9,1.3-1.1,2.1l20.8,15.1l20.8-15.1c-0.2-0.8-0.6-1.5-1.1-2.1l-19.7,14.3
	L1306.7,288.1z"/>
<path class="st6" d="M1349.7,299.4h-32.6c-2.6,0-4.7,2.1-4.7,4.7v19.8c0,2.6,2.1,4.7,4.7,4.7h32.6c2.6,0,4.7-2.1,4.7-4.7v-19.8
	C1354.4,301.5,1352.3,299.4,1349.7,299.4z"/>
<path class="st24" d="M1313.7,300.9c-0.5,0.6-0.9,1.3-1.1,2.1l20.8,15.1l20.8-15.1c-0.2-0.8-0.6-1.5-1.1-2.1l-19.7,14.3
	L1313.7,300.9z"/>
<circle class="st24" cx="1254.3" cy="294.2" r="8.5"/>
<circle class="st24" cx="1228.9" cy="294.2" r="8.5"/>
<path class="st23" d="M1273.6,306.9l-21.6,4.2h-20.7l-21.6-4.2l6.1-11.1c1.6-2.7,4.4-4.4,7.5-4.4h37c3.1,0,5.9,1.7,7.5,4.4
	L1273.6,306.9z"/>
<circle class="st24" cx="1261.3" cy="314" r="14.1"/>
<circle class="st24" cx="1221.8" cy="314" r="14.1"/>
<circle class="st24" cx="1241.6" cy="311.1" r="7.1"/>
<circle class="st20" cx="1241.6" cy="311.1" r="2.8"/>
<g>
	<circle class="st6" cx="1261.3" cy="314" r="9.9"/>
	<circle class="st6" cx="1221.8" cy="314" r="9.9"/>
</g>
<g>
	<path class="st9" d="M1266.6,310.7c-1.4-1.6-3.2-2.4-5.2-2.4c-2,0-3.9,0.8-5.2,2.4c-0.6,0.6-0.4,1.4,0.1,2c0.6,0.6,1.4,0.4,2-0.1
		c1.7-1.8,4.7-1.8,6.3,0c0.3,0.3,0.7,0.4,1,0.4c0.3,0,0.7-0.1,1-0.4C1267.1,312.1,1267.1,311.3,1266.6,310.7z"/>
	<path class="st9" d="M1221.8,308.3c-2,0-4,0.8-5.2,2.4c-0.6,0.6-0.4,1.4,0.1,2c0.6,0.6,1.4,0.4,2-0.1c1.7-1.8,4.7-1.8,6.3,0
		c0.3,0.3,0.7,0.4,1,0.4c0.3,0,0.7-0.1,1-0.4c0.6-0.6,0.6-1.4,0.1-2C1225.8,309.2,1223.8,308.3,1221.8,308.3z"/>
</g>
<path class="st27" d="M-91.8,418.9c-0.7,2.2-3,3.4-5.1,2.7l-7.8-2.4c-2.2-0.7-3.3-3-2.7-5.1l2.8-9.1c0.7-2.1,3-3.4,5.1-2.7l7.8,2.4
	c2.2,0.7,3.3,3,2.7,5.1L-91.8,418.9z"/>
<rect x="-119.7" y="396" class="st24" width="4.1" height="13.6"/>
<rect x="-66.7" y="381" class="st24" width="4.1" height="43.5"/>
<polygon class="st23" points="-115.6,396.9 -115.6,408.6 -66.7,422.8 -66.7,382.8 "/>
<polygon class="st6" points="-112.9,399 -112.9,402 -69.4,395 -69.4,386.5 "/>
<g>
	<polygon class="st24" points="305.6,423.3 275.4,423.3 275.4,384.5 296.9,384.5 305.6,393.1 	"/>
</g>
<g>
	<polygon class="st23" points="309.9,419 279.7,419 279.7,380.2 301.2,380.2 309.9,388.8 	"/>
</g>
<polygon class="st6" points="308.3,389.9 300.2,389.9 300.2,381.8 "/>
<polygon class="st24" points="303.4,397.5 295.9,397.5 298.4,400 295.9,402.7 291.5,398.4 285,404.9 287.3,407.3 291.5,403 
	295.9,407.3 300.8,402.4 303.4,405 "/>
<g>
	<path class="st24" d="M245.5,414.1c0,9.3-9.3,9.3-20.8,9.3c-11.5,0-20.8,0-20.8-9.3c0-9.3,9.3-20.8,20.8-20.8
		C236.2,393.3,245.5,404.8,245.5,414.1z"/>
	<path class="st24" d="M231.6,383.5c-2.2,2.4-1.2-5.1-5.8,0c-2.2,2.4-1.2-5.1-5.8,0c-2,2.2-1.3-3.6-4.5-1.2l3.3,12.2h11.6l3.5-12.7
		C233.4,381.9,232.6,382.4,231.6,383.5z"/>
</g>
<path class="st6" d="M226.4,412.7c0-0.6-0.2-1-0.5-1.3c-0.3-0.3-0.8-0.6-1.6-0.9c-0.7-0.3-1.4-0.6-1.9-0.8c-0.5-0.3-1-0.6-1.4-0.9
	c-0.4-0.4-0.7-0.8-0.9-1.3c-0.2-0.5-0.3-1.1-0.3-1.7c0-1.1,0.4-2.1,1.1-2.8c0.7-0.7,1.7-1.2,2.9-1.3v-2.2h1.6v2.2
	c1.2,0.2,2.1,0.7,2.8,1.5c0.7,0.8,1,1.9,1,3.2h-2.9c0-0.8-0.2-1.4-0.5-1.8c-0.3-0.4-0.8-0.6-1.3-0.6c-0.6,0-1,0.2-1.3,0.5
	c-0.3,0.3-0.5,0.8-0.5,1.3c0,0.5,0.1,0.9,0.4,1.2c0.3,0.3,0.9,0.6,1.7,1c0.8,0.3,1.5,0.6,2,0.9c0.5,0.3,1,0.6,1.3,1
	c0.4,0.4,0.6,0.8,0.8,1.2c0.2,0.5,0.3,1,0.3,1.6c0,1.2-0.4,2.1-1.1,2.8c-0.7,0.7-1.7,1.1-3,1.3v2h-1.6v-2c-1.4-0.1-2.5-0.6-3.2-1.5
	c-0.8-0.8-1.1-2-1.1-3.3h2.9c0,0.8,0.2,1.4,0.6,1.9c0.4,0.4,0.9,0.6,1.7,0.6c0.6,0,1.1-0.2,1.4-0.5S226.4,413.2,226.4,412.7z"/>
<g>
	<path class="st28" d="M213.1,418.7c-0.5-2.6-0.6-5.2-0.3-7.8c0.6-5,2.3-10.2,5.1-14.4c0.3-0.5,0.7-1.3,1.2-1.6c0.4-0.3,0.5-0.2,1,0
		c0.9,0.2,1.7,0.4,2.6,0.5c2.6,0.3,5.3,0.1,7.7-0.9"/>
	<path class="st28" d="M209.6,407.2c0-3.5,4.4-11.8,9.3-12.7"/>
</g>
<rect x="138.9" y="414.1" class="st24" width="9.9" height="8.3"/>
<path class="st24" d="M162,424h-36.3c0,0,0-3.3,3.3-3.3c3.3,0,26.4,0,29.7,0C162,420.7,162,424,162,424z"/>
<rect x="114.1" y="381.1" class="st24" width="59.4" height="34.7"/>
<rect x="117.4" y="384.4" class="st6" width="52.8" height="28.1"/>
</svg>
